{
"wallpaper":"https://picsum.photos/1280/720/?blur=10",
//"spider":"https://notabug.org/tomb003/CatVodTVSpider/raw/master/jar/custom_spider.jar",
# spider (择一使用👇)
## 01.🐼缝合接口
"spider":"https://gitee.com/hd2019/OneClickRun/raw/master/xpath/custom_spider.jar",
## 02.🐉明接口
//"spider":"https://gitee.com/hd2019/OneClickRun/raw/master/xpath/xm.jar",
## 03.🐱S接口
//"spider":"https://gitee.com/hd2019/OneClickRun/raw/master/xpath/baikan.jar",
# 直播 (择一使用👇)
## 01.🦋直播
## --> spider 改 baikan.jar 或 custom_spider.jar
"lives":[{"group":"redirect","channels":[{"name":"live","urls":["proxy://do=live&type=txt&ext=aHR0cHM6Ly9jZG4uanNkZWxpdnIubmV0L2doL1l1YW5Ic2luZy9PbmVDbGlja1J1bkBtYXN0ZXIveHBhdGgvbGl2ZS50eHQ="]}]}],
## 02.🦋直播
## --> spider 改 xm.jar
## --> 使用 "02.🐉明接口"时,直播要改成 "02.🦋直播 ", 适配 "🐉设置直播为首页" 这个功能)
//"lives":[{"group":"redirect","channels":[{"name":"redirect","urls":["proxy://do=tvfix&type=list"]}]}],
"sites":[
## 01.🐼缝合接口
## --> spider 改 custom_spider.jar
{"key":"csp_CZSPP","name":"🐼厂长资源(SP)","type":3,"api":"csp_CZSPP","searchable":1,"quickSearch":1,"filterable":0},
{"key":"csp_Buka","name":"🐼真不卡(SP)","type":3,"api":"csp_Buka","searchable":1,"quickSearch":0,"filterable":1},
{"key":"csp_Auete","name":"🐼Auete(SP)","type":3,"api":"csp_Auete","searchable":1,"quickSearch":0,"filterable":1,"ext":""},
{"key":"csp_DiDuan","name":"🐼低端影视(SP)","type":3,"api":"csp_DiDuan","searchable":1,"quickSearch":1,"filterable":0},
{"key":"csp_GitCafe","name":"🐼小纸条(SP)","type":3,"api":"csp_GitCafe","searchable":1,"quickSearch":1,"filterable":0},
{"key":"csp_AliPanSou","name":"🐼喵狸盘搜（仅支持搜索）","type":3,"api":"csp_AliPanSou","searchable":1,"quickSearch":1,"filterable":0},
{"key":"csp_Nbys","name":"🐼泥巴(SP)","type":3,"api":"csp_Nbys","searchable":1,"quickSearch":1,"filterable":1,"ext":""},
{"key":"csp_Lgyy","name":"🐼蓝光影院(SP)","type":3,"api":"csp_Lgyy","searchable":1,"quickSearch":1,"filterable":1,"ext":""},
{"key":"csp_Zxzj","name":"🐼在线之家(SP)","type":3,"api":"csp_Zxzj","searchable":1,"quickSearch":1,"filterable":1,"ext":""},
{"key":"csp_Cokemv","name":"🐼Cokemv(SP)","type":3,"api":"csp_Cokemv","searchable":1,"quickSearch":1,"filterable":1,"ext":""},
{"key":"csp_JuHuang","name":"🐼剧荒(SP)","type":3,"api":"csp_Juhuang","searchable":1,"quickSearch":1,"filterable":1,"ext":""},
{"key":"csp_Fantuan","name":"🐼饭团(SP)","type":3,"api":"csp_Fantuan","searchable":1,"quickSearch":1,"filterable":1,"ext":""},
{"key":"csp_Subaibai","name":"🐼素白白(SP)","type":3,"api":"csp_Subaibai","searchable":1,"quickSearch":1,"filterable":1,"ext":""},
{"key":"csp_Qicui","name":"🐼奇粹(SP)","type":3,"api":"csp_Qicui","searchable":1,"quickSearch":1,"filterable":1,"ext":""},
{"key":"csp_DY1990","name":"🐼90(SP)","type":3,"api":"csp_DY1990","searchable":1,"quickSearch":1,"filterable":0},
{"key":"csp_xpath_Hdmoli","name":"🐼Hdmoli(XPF)","type":3,"api":"csp_XPathHdmoli","searchable":1,"quickSearch":1,"filterable":1,"ext":"https://cdn.jsdelivr.net/gh/YuanHsing/OneClickRun@master/xpath/hdmoli.json"},
{"key":"csp_xpath_egg","name":"🐼蛋蛋(XPF)","type":3,"api":"csp_XPathEgg","searchable":1,"quickSearch":1,"filterable":1,"ext":"https://cdn.jsdelivr.net/gh/YuanHsing/OneClickRun@master/xpath/dandan.json"},
{"key":"csp_xpath_Gaze","name":"🐼注视(XPF)","type":3,"api":"csp_XPathGaze","searchable":1,"quickSearch":0,"filterable":1,"ext":"https://cdn.jsdelivr.net/gh/YuanHsing/OneClickRun@master/xpath/gaze.json"},
## 02.🐉明接口
## --> spider 改 xm.jar, (XPath系列 不可用, APP影视规则 不可用, 资源网采集 可用)
## --> 直播 改 "02.🦋直播"
## 相较于"缝合接口", 多了"七七" & 正常的"小纸条" & "假窗·氛围·白噪声" & "设置直播为首页", 尝鲜用!
//{"key":"csp_CZSPP","name":"🐉厂长资源","type":3,"api":"csp_CZSPP","searchable":1,"quickSearch":1,"filterable":0},
//{"key":"csp_NaNa","name":"🐉七七","type":3,"api":"csp_NaNa","searchable":1,"quickSearch":1,"filterable":0},
//{"key":"csp_DiDuan","name":"🐉低端影视","type":3,"api":"csp_DiDuan","searchable":1,"quickSearch":1,"filterable":0},
//{"key":"csp_DY1990","name":"🐉90(SP)","type":3,"api":"csp_DY1990","searchable":1,"quickSearch":1,"filterable":0},
//{"key":"csp_GitCafe","name":"🐉小纸条","type":3,"api":"csp_GitCafe","searchable":1,"quickSearch":1,"filterable":0},
//{"key":"csp_AliPanSou","name":"🐉喵狸盘搜（仅支持搜索）","type":3,"api":"csp_AliPanSou","searchable":1,"quickSearch":1,"filterable":0},
//{"key":"csp_FakeWindow","name":"🐉假窗·氛围·白噪声","type":3,"api":"csp_FakeWindow","searchable":0,"quickSearch":0,"filterable":0},
//{"key":"csp_Live","name":"🐉设置直播为首页","type":3,"api":"csp_Live","searchable":0,"quickSearch":0,"filterable":0},
## 03.🐱S接口
## --> spider 改 baikan.jar
//{"key":"360_spider","name":"🐱360(官源)","type":3,"api":"csp_YS360","searchable":1,"quickSearch":1,"filterable":1,"ext":"https://cdn.jsdelivr.net/gh/YuanHsing/OneClickRun@master/xpath/360.json"},
//{"key":"2345_spider","name":"🐱2345(官源)","type":3,"api":"csp_YS2345","searchable":1,"quickSearch":1,"filterable":1,"ext":"https://cdn.jsdelivr.net/gh/YuanHsing/OneClickRun@master/xpath/2345.json"},
//{"key":"sogou_spider","name":"🐱搜狗影视(官源)","type":3,"api":"csp_YSSogou","searchable":1,"quickSearch":1,"filterable":1,"ext":"https://cdn.jsdelivr.net/gh/YuanHsing/OneClickRun@master/xpath/sogou.json"},
//{"key":"77_spider","name":"🐱七七(SP)","type":3,"api":"csp_Kunyu77","searchable":1,"quickSearch":1,"filterable":1},
//{"key":"kmys_spider","name":"🐱酷猫(SP)","type":3,"api":"csp_Kmys","searchable":1,"quickSearch":1,"filterable":1},
//{"key":"epang_spider","name":"🐱阿房(SP)","type":3,"api":"csp_EPangApp","searchable":1,"quickSearch":1,"filterable":1},
//{"key":"sd_spider","name":"🐱闪电(SP)","type":3,"api":"csp_Sd","searchable":1,"quickSearch":1,"filterable":1},
//{"key":"ikan_spider","name":"🐱爱看(SP)","type":3,"api":"csp_IKan","searchable":1,"quickSearch":1,"filterable":1},
//{"key":"mjxq_spider","name":"🐱美剧星球(SP)","type":3,"api":"csp_MjxqApp","searchable":1,"quickSearch":1,"filterable":1},
//{"key":"auete_spider","name":"🐱Auete(SP)","type":3,"api":"csp_Auete","searchable":1,"quickSearch":1,"filterable":1,"ext":"https://cdn.jsdelivr.net/gh/YuanHsing/OneClickRun@master/xpath/Auete.bmp"},
//{"key":"buka_spider","name":"🐱真不卡(SP)","type":3,"api":"csp_Buka","searchable":0,"quickSearch":0,"filterable":1,"ext":"https://cdn.jsdelivr.net/gh/YuanHsing/OneClickRun@master/xpath/zhenbuka.bmp"},
//{"key":"ftys_spider","name":"🐱饭团(SP)","type":3,"api":"csp_Ftys","searchable":1,"quickSearch":1,"filterable":1,"ext":"https://cdn.jsdelivr.net/gh/YuanHsing/OneClickRun@master/xpath/fantuan.bmp"},
## XPath系列, APP影视规则, 资源网采集
{"key":"csp_xpath_独播库","name":"独播库(XPF)(播放器要改成系统播放器)","type":3,"api":"csp_XPathMacFilter","searchable":1,"quickSearch":1,"filterable":1,"ext":"https://cdn.jsdelivr.net/gh/YuanHsing/OneClickRun@master/xpath/duboku.json"},
{"key":"if101资源","name":"if101(海外推荐)","type":0,"api":"https://demo.if101.tv/api.php/provide/vod/at/xml","searchable":1,"quickSearch":0,"filterable":0},
{"key":"csp_xpath_huya","name":"虎牙(XPF)","type":3,"api":"csp_XPathMacFilter","searchable":1,"quickSearch":1,"filterable":1,"ext":"https://cdn.jsdelivr.net/gh/YuanHsing/OneClickRun@master/xpath/huya2.json"},
{"key":"csp_xpath_kuqimv","name":"酷奇MV(XP)","type":3,"api":"csp_XPath","searchable":0,"quickSearch":0,"filterable":0,"ext":"https://cdn.jsdelivr.net/gh/YuanHsing/OneClickRun@master/xpath/kuqimv.json"},
{"key":"csp_xpath_6d","name":"六度TV(XPF)","type":3,"api":"csp_XPathFilter","searchable":1,"quickSearch":1,"filterable":1,"ext":"https://cdn.jsdelivr.net/gh/YuanHsing/OneClickRun@master/xpath/6d.json"},
//{"key":"csp_hdmoli","name":"hdmoli(XPF)","type":3,"api":"csp_XPathHdmoli","searchable":1,"quickSearch":1,"filterable":1,"ext":"https://cdn.jsdelivr.net/gh/YuanHsing/OneClickRun@master/xpath/hdmoli.json"},
{"key":"csp_xpath_zxzj2","name":"在线之家(XPF)","type":3,"api":"csp_XPathFilter","searchable":1,"quickSearch":1,"filterable":1,"ext":"https://cdn.jsdelivr.net/gh/YuanHsing/OneClickRun@master/xpath/zxzj2.json"},
{"key":"csp_xpath_libv","name":"Libvio(XPF)","type":3,"api":"csp_XPathMacFilter","searchable":1,"quickSearch":1,"filterable":1,"ext":"https://cdn.jsdelivr.net/gh/YuanHsing/OneClickRun@master/xpath/libv.json"},
{"key":"csp_xpath_4kpianku","name":"4k片库网(XPF)","type":3,"api":"csp_XPathMacFilter","searchable":1,"quickSearch":1,"filterable":1,"ext":"https://cdn.jsdelivr.net/gh/YuanHsing/OneClickRun@master/xpath/4kpianku.json"},
{"key":"csp_xpath_doujiaow","name":"豆角网(XPF)","type":3,"api":"csp_XPathMac","searchable":1,"quickSearch":1,"filterable":1,"ext":"https://cdn.jsdelivr.net/gh/YuanHsing/OneClickRun@master/xpath/doujiaow.json"},
{"key":"csp_xpath_auete","name":"Auete影视(XPF)","type":3,"api":"csp_XPathFilter","searchable":1,"quickSearch":0,"filterable":1,"ext":"https://cdn.jsdelivr.net/gh/YuanHsing/OneClickRun@master/xpath/auete.json"},
{"key":"csp_xpath_ctv","name":"冲TMTV(XPF)","type":3,"api":"csp_XPathMacFilter","searchable":1,"quickSearch":1,"filterable":1,"ext":"https://cdn.jsdelivr.net/gh/YuanHsing/OneClickRun@master/xpath/chongtmtv.json"},
{"key":"csp_xpath_汉城影院","name":"汉城影院(XPF)","type":3,"api":"csp_XPathMacFilter","searchable":1,"quickSearch":1,"filterable":1,"ext":"https://cdn.jsdelivr.net/gh/YuanHsing/OneClickRun@master/xpath/hancheng.json"},
{"key":"csp_xpath_yanetflix","name":"鸭奈飞(XPF)","type":3,"api":"csp_XPathFilter","searchable":1,"quickSearch":1,"filterable":1,"ext":"https://cdn.jsdelivr.net/gh/YuanHsing/OneClickRun@master/xpath/yanet.json"},
{"key":"csp_xpath_ddg","name":"达达龟(XPF)","type":3,"api":"csp_XPathMacFilter","searchable":1,"quickSearch":1,"filterable":1,"ext":"https://cdn.jsdelivr.net/gh/YuanHsing/OneClickRun@master/xpath/dadagui.json"},
{"key":"csp_xpath_jbb","name":"剧白白(XPF)","type":3,"api":"csp_XPathMacFilter","searchable":1,"quickSearch":1,"filterable":1,"ext":"https://cdn.jsdelivr.net/gh/YuanHsing/OneClickRun@master/xpath/jubaibai.json"},
{"key":"csp_xpath_juhuang","name":"剧荒TV(XPMac)","type":3,"api":"csp_XPathMac","searchable":1,"quickSearch":1,"filterable":0,"ext":"https://cdn.jsdelivr.net/gh/YuanHsing/OneClickRun@master/xpath/juhuang.json"},
{"key":"csp_xpath_789kp","name":"789看片(XPF)","type":3,"api":"csp_XPathMacFilter","searchable":1,"quickSearch":1,"filterable":1,"ext":"https://cdn.jsdelivr.net/gh/YuanHsing/OneClickRun@master/xpath/789kp.json"},
{"key":"csp_xpath_348z","name":"348电影(XPF)","type":3,"api":"csp_XPathFilter","searchable":1,"quickSearch":1,"filterable":1,"ext":"https://cdn.jsdelivr.net/gh/YuanHsing/OneClickRun@master/xpath/348z.json"},
{"key":"csp_xpath_dandanzan10","name":"蛋蛋赞(电影)(XPF)","type":3,"api":"csp_XPathFilter","searchable":0,"quickSearch":0,"filterable":1,"ext":"https://cdn.jsdelivr.net/gh/YuanHsing/OneClickRun@master/xpath/dandanzan10.json"},
{"key":"csp_xpath_Ole","name":"欧乐(XPF)(播放器要改成Exo)","type":3,"api":"csp_XPathMacFilter","searchable":1,"quickSearch":1,"filterable":1,"ext":"https://cdn.jsdelivr.net/gh/YuanHsing/OneClickRun@master/xpath/olevod.json"},
{"key":"csp_xpath_ttsp","name":"天天视频(XPF)","type":3,"api":"csp_XPathMacFilter","searchable":0,"quickSearch":0,"filterable":1,"ext":"https://cdn.jsdelivr.net/gh/YuanHsing/OneClickRun@master/xpath/ttsp.json"},
//{"key":"csp_xpath_axx2","name":"爱西西影视(XPF)","type":3,"api":"csp_XPathFilter","searchable":1,"quickSearch":1,"filterable":1,"ext":"https://cdn.jsdelivr.net/gh/YuanHsing/OneClickRun@master/xpath/Aixixi.json"},
{"key":"csp_xpath_cokemv","name":"Cokemv(XPF)","type":3,"api":"csp_XPathFilter","searchable":1,"quickSearch":1,"filterable":1,"ext":"https://cdn.jsdelivr.net/gh/YuanHsing/OneClickRun@master/xpath/cokemv.json"},
{"key":"csp_xpath_jpys","name":"极品影视(XPF)","type":3,"api":"csp_XPathMacFilter","searchable":1,"quickSearch":1,"filterable":1,"ext":"https://cdn.jsdelivr.net/gh/YuanHsing/OneClickRun@master/xpath/jpys.json"},
{"key":"Jumi","name":"剧迷TV(XPF)","type":3,"api":"csp_XPathMacFilter","searchable":1,"quickSearch":1,"filterable":1,"ext":"https://cdn.jsdelivr.net/gh/YuanHsing/OneClickRun@master/xpath/Jumi.json"},
{"key":"csp_xpath_tvci","name":"大师兄(XPF)","type":3,"api":"csp_XPathFilter","searchable":1,"quickSearch":1,"filterable":1,"ext":"https://cdn.jsdelivr.net/gh/YuanHsing/OneClickRun@master/xpath/tvci.json"},
{"key":"csp_xpath_唐人街","name":"唐人街(XPF)","type":3,"api":"csp_XPathMacFilter","searchable":1,"quickSearch":1,"filterable":1,"ext":"https://cdn.jsdelivr.net/gh/YuanHsing/OneClickRun@master/xpath/Renjie.json"},
{"key":"csp_xpath_meiju56","name":"美剧网(XPF)","type":3,"api":"csp_XPathMacFilter","searchable":1,"quickSearch":1,"filterable":1,"ext":"https://cdn.jsdelivr.net/gh/YuanHsing/OneClickRun@master/xpath/meiju56.json"},
{"key":"csp_xpath_lranc","name":"天天影视(XPF)","type":3,"api":"csp_XPathMacFilter","searchable":1,"quickSearch":1,"filterable":1,"ext":"https://cdn.jsdelivr.net/gh/YuanHsing/OneClickRun@master/xpath/lranc.json"},
{"key":"Gimy","name":"GimyTV(XPF)","type":3,"api":"csp_XPathMacFilter","searchable":1,"quickSearch":1,"filterable":1,"ext":"https://cdn.jsdelivr.net/gh/YuanHsing/OneClickRun@master/xpath/Gimy.json"},
{"key":"csp_xpath_dmntv","name":"弹幕影院(XPF)","type":3,"api":"csp_XPathMacFilter","searchable":1,"quickSearch":1,"filterable":1,"ext":"https://cdn.jsdelivr.net/gh/YuanHsing/OneClickRun@master/xpath/dmntv.json"},
{"key":"csp_xpath_dmw","name":"动漫岛(XPF)","type":3,"api":"csp_XPathMacFilter","searchable":1,"quickSearch":1,"filterable":1,"ext":"https://cdn.jsdelivr.net/gh/YuanHsing/OneClickRun@master/xpath/dmw.json"},
{"key":"csp_xpath_huohuo99","name":"火火影视(XP)","type":3,"api":"csp_XPath","searchable":1,"quickSearch":1,"filterable":1,"ext":"https://cdn.jsdelivr.net/gh/YuanHsing/OneClickRun@master/xpath/huohuo99.json"},
{"key":"csp_xpath_age","name":"AGE动漫(XP)","type":3,"api":"csp_XPath","searchable":1,"quickSearch":1,"filterable":0,"ext":"https://cdn.jsdelivr.net/gh/YuanHsing/OneClickRun@master/xpath/agefans.json"},
{"key":"csp_xpath_dm84","name":"动漫巴士(XP)","type":3,"api":"csp_XPathFilter","searchable":1,"quickSearch":1,"filterable":0,"ext":"https://cdn.jsdelivr.net/gh/YuanHsing/OneClickRun@master/xpath/dm84.json"},
{"key":"csp_yinghua","name":"樱花动漫(XP)","type":3,"api":"csp_XPath","searchable":1,"quickSearch":1,"filterable":0,"ext":"https://cdn.jsdelivr.net/gh/YuanHsing/OneClickRun@master/xpath/yinghua2.json"},
{"key":"csp_XPath_bidiys","name":"哔嘀影视(XP)","type":3,"api":"csp_XPathFilter","searchable":1,"quickSearch":1,"filterable":0,"ext":"https://cdn.jsdelivr.net/gh/YuanHsing/OneClickRun@master/xpath/bidiys.json"},
{"key":"csp_xpath_xqmi","name":"小强迷(XP)","type":3,"api":"csp_XPath","searchable":1,"quickSearch":1,"filterable":0,"ext":"https://cdn.jsdelivr.net/gh/YuanHsing/OneClickRun@master/xpath/xqmi.json"},
{"key":"csp_xpath_vip1280","name":"VIP电影(XP)","type":3,"api":"csp_XPath","searchable":1,"quickSearch":1,"filterable":0,"ext":"https://cdn.jsdelivr.net/gh/YuanHsing/OneClickRun@master/xpath/vip1280.json"},
{"key":"csp_xpath_zzzlike","name":"周末电影(XP)","type":3,"api":"csp_XPath","searchable":1,"quickSearch":1,"filterable":0,"ext":"https://cdn.jsdelivr.net/gh/YuanHsing/OneClickRun@master/xpath/zzzlike.json"},
{"key":"csp_xpath_tjyy","name":"奇优影院(XP)","type":3,"api":"csp_XPathMac","searchable":1,"quickSearch":1,"filterable":0,"ext":"https://cdn.jsdelivr.net/gh/YuanHsing/OneClickRun@master/xpath/huigutongying.json"},
{"key":"csp_xpath_dy888","name":"电影888(XP)","type":3,"api":"csp_XPathMac","searchable":1,"quickSearch":1,"filterable":0,"ext":"https://cdn.jsdelivr.net/gh/YuanHsing/OneClickRun@master/xpath/dy888.json"},
{"key":"csp_xpath_yyotv","name":"小太阳(XP)","type":3,"api":"csp_XPath","searchable":1,"quickSearch":1,"filterable":0,"ext":"https://cdn.jsdelivr.net/gh/YuanHsing/OneClickRun@master/xpath/yyotv.json"},
{"key":"csp_xpath_jiujiukanpian","name":"久久影视(XP)","type":3,"api":"csp_XPath","searchable":1,"quickSearch":1,"filterable":0,"ext":"https://cdn.jsdelivr.net/gh/YuanHsing/OneClickRun@master/xpath/jiujiukanpian.josn"},
{"key":"csp_xpath_aidi","name":"爱迪影视(XPMac)","type":3,"api":"csp_XPathMac","searchable":1,"quickSearch":1,"filterable":0,"ext":"https://cdn.jsdelivr.net/gh/YuanHsing/OneClickRun@master/xpath/aidi.json"},
{"key":"csp_xpath_lezhutv","name":"乐猪TV(XPMac)","type":3,"api":"csp_XPathMac","searchable":1,"quickSearch":1,"filterable":0,"ext":"https://cdn.jsdelivr.net/gh/YuanHsing/OneClickRun@master/xpath/lezhutv.json"},
{"key":"csp_xpath_saohuotv","name":"骚火电影(XP)","type":3,"api":"csp_XPath","searchable":1,"quickSearch":1,"filterable":0,"ext":"https://cdn.jsdelivr.net/gh/YuanHsing/OneClickRun@master/xpath/saohuotv2.json"},
{"key":"csp_xpath_pianba","name":"片吧影院(XPMac)","type":3,"api":"csp_XPathMac","searchable":1,"quickSearch":1,"filterable":0,"ext":"https://cdn.jsdelivr.net/gh/YuanHsing/OneClickRun@master/xpath/pianba.json"},
{"key":"csp_xpath_duboku","name":"独播库(XPMac)","type":3,"api":"csp_XPathMac","searchable":1,"quickSearch":1,"filterable":0,"ext":"https://cdn.jsdelivr.net/gh/YuanHsing/OneClickRun@master/xpath/duboku2.json"},
{"key":"csp_xpath_lkvod","name":"来看点播(XP)","type":3,"api":"csp_XPath","searchable":1,"quickSearch":1,"filterable":0,"ext":"https://cdn.jsdelivr.net/gh/YuanHsing/OneClickRun@master/xpath/lkvod.json"},
{"key":"csp_xpath_94sm","name":"94神马(XP)","type":3,"api":"csp_XPath","searchable":1,"quickSearch":1,"filterable":0,"ext":"https://cdn.jsdelivr.net/gh/YuanHsing/OneClickRun@master/xpath/94sm.json"},
{"key":"csp_xpath_zj883","name":"追剧网(XP)","type":3,"api":"csp_XPath","searchable":1,"quickSearch":1,"filterable":0,"ext":"https://cdn.jsdelivr.net/gh/YuanHsing/OneClickRun@master/xpath/zj883.json"},
//{"key":"csp_Auete","name":"Auete(SP)","type":3,"api":"csp_Auete","searchable":1,"quickSearch":1,"filterable":1},
//{"key":"cokemv_spider2","name":"Cokemv(SP)","type":3,"api":"csp_Cokemv","searchable":1,"quickSearch":0,"filterable":1},
//{"key":"n0ys_spider","name":"90影视(SP)","type":3,"api":"csp_N0ys","searchable":1,"quickSearch":0,"filterable":0},
//{"key":"csp_Nekk","name":"9E看看(SP)","type":3,"api":"csp_Nekk","searchable":1,"quickSearch":0,"filterable":1},
//{"key":"enlienli_spider","name":"嗯哩嗯哩(SP)","type":3,"api":"csp_Enlienli","searchable":1,"quickSearch":0,"filterable":1},
//{"key":"csp_Buka","name":"真不卡(SP)","type":3,"api":"csp_Buka","searchable":1,"quickSearch":0,"filterable":1},
# M浏览器中APP影视规则支持(AppYsV2)
#APP影视(大熊)
{"key":"csp_appysv2_大熊","name":"大熊(M2)","type":3,"api":"csp_AppYsV2","searchable":1,"quickSearch":1,"filterable":1,"ext":"https://dxys2233.com/mogai_api.php/v1.vod"},
{"key":"csp_appysv2_流星","name":"流星(M2)","type":3,"api":"csp_AppYsV2","searchable":1,"quickSearch":1,"filterable":1,"ext":"http://fkxs2233.com/mogai_api.php/v1.vod"},
{"key":"csp_appysv2_手指","name":"手指(M2)","type":3,"api":"csp_AppYsV2","searchable":1,"quickSearch":1,"filterable":1,"ext":"https://szys5678.com/mogai_api.php/v1.vod"},
{"key":"csp_appysv2_雪梨","name":"雪梨(M2)","type":3,"api":"csp_AppYsV2","searchable":1,"quickSearch":1,"filterable":1,"ext":"https://zsb2233.com/mogai_api.php/v1.vod"},
{"key":"csp_appysv2_杨桃","name":"杨桃(M2)","type":3,"api":"csp_AppYsV2","searchable":1,"quickSearch":1,"filterable":1,"ext":"https://ytys3456.com/mogai_api.php/v1.vod"},
#
#优质
{"key":"csp_appysv2_钟特影视","name":"钟特影视(优)","type":3,"api":"csp_AppYsV2","searchable":1,"quickSearch":1,"filterable":1,"ext":"https://app.zteys.com/api.php/v1.vod"},
{"key":"csp_appysv2_影阅阁","name":"影阅阁(优)","type":3,"api":"csp_AppYsV2","searchable":1,"quickSearch":1,"filterable":1,"ext":"http://221.236.18.12:665/api.php/v1.vod"},
//{"key":"csp_appysv2_优视影视","name":"优视影视(优)","type":3,"api":"csp_AppYsV2","searchable":1,"quickSearch":1,"filterable":1,"ext":"http://app.ysys.asia/lvdou_api.php/v1.vod"},
{"key":"csp_appysv2_影视大全","name":"影视大全(优)","type":3,"api":"csp_AppYsV2","searchable":1,"quickSearch":1,"filterable":1,"ext":"https://app.okmedcos.com/api.php/v1.vod"},
//{"key":"csp_appysv2_雨果影视","name":"雨果影视(优)","type":3,"api":"csp_AppYsV2","searchable":1,"quickSearch":1,"filterable":1,"ext":"http://123.youguo520.top/lvdou_api.php/v1.vod"},
{"key":"csp_appysv2_益达影院","name":"益达影院(优)","type":3,"api":"csp_AppYsV2","searchable":1,"quickSearch":1,"filterable":1,"ext":"http://luobu.yss6080.com/mogai_api.php/v1.vod"},
{"key":"csp_appys_青视频","name":"青视频(优)","type":3,"api":"csp_AppYs","searchable":1,"quickSearch":1,"filterable":1,"ext":"http://150.158.133.36:9904/qingdoujiekou.php/v1.vod"},
{"key":"csp_appysv2_暖光影视","name":"暖光影视(优)","type":3,"api":"csp_AppYsV2","searchable":1,"quickSearch":1,"filterable":1,"ext":"https://app.bl210.com/api.php/v1.vod"},
{"key":"csp_appysv2_南府影视","name":"南府影视(优)","type":3,"api":"csp_AppYsV2","searchable":1,"quickSearch":1,"filterable":1,"ext":"http://iapp.nfuxs.club/nfuxs.php/v1.vod"},
//{"key":"csp_appysv2_奈非迷","name":"奈非迷(优)","type":3,"api":"csp_AppYsV2","searchable":1,"quickSearch":1,"filterable":1,"ext":"https://app.netflixmi.com/api.php/v1.vod"},
{"key":"csp_appysv2_美剧范","name":"美剧范(优)","type":3,"api":"csp_AppYsV2","searchable":1,"quickSearch":1,"filterable":1,"ext":"http://ttzmz.net/api.php/v1.vod"},
{"key":"csp_appys_美剧虫","name":"美剧虫(优)","type":3,"api":"csp_AppYs","searchable":1,"quickSearch":1,"filterable":1,"ext":"https://meijuchong.com/api.php/v1.vod"},
{"key":"csp_appysv2_麻瓜视频","name":"麻瓜视频(优)","type":3,"api":"csp_AppYsV2","searchable":1,"quickSearch":1,"filterable":1,"ext":"http://aliyun.k8aa.com/mogai_api.php/v1.vod"},
{"key":"csp_appysv2_琅琊影视","name":"琅琊影视(优)","type":3,"api":"csp_AppYsV2","searchable":1,"quickSearch":1,"filterable":1,"ext":"http://fgyuu.top/lehailb_api.php/v1.vod"},
{"key":"csp_appysv2_懒猫电影","name":"懒猫电影(优)","type":3,"api":"csp_AppYsV2","searchable":1,"quickSearch":1,"filterable":1,"ext":"http://lanmao.lanmaoymw.cn/api.php/v1.vod"},
{"key":"csp_appysv2_零刻影院","name":"零刻影院(优)","type":3,"api":"csp_AppYsV2","searchable":1,"quickSearch":1,"filterable":1,"ext":"https://ys.ling00.cn/api.php/v1.vod"},
{"key":"csp_appysv2_看看影视","name":"看看影视(优)","type":3,"api":"csp_AppYsV2","searchable":1,"quickSearch":1,"filterable":1,"ext":"http://kk.ccboke.top/ruifenglb_api.php/v1.vod"},
{"key":"csp_appysv2_飓风影院","name":"飓风影院(优)","type":3,"api":"csp_AppYsV2","searchable":1,"quickSearch":1,"filterable":1,"ext":"http://yidayy.top/lehailb_api.php/v1.vod"},
//{"key":"csp_appysv2_虎猫视频","name":"虎猫视频(优)","type":3,"api":"csp_AppYsV2","searchable":1,"quickSearch":1,"filterable":1,"ext":"http://vv.humaoweb.com/mogai_api.php/gctvapi.vod"},
{"key":"csp_appysv2_狐狸动漫","name":"狐狸动漫(优)","type":3,"api":"csp_AppYsV2","searchable":1,"quickSearch":1,"filterable":1,"ext":"http://ak.baicai.buzz/lvdou_api.php/v1.vod"},
{"key":"csp_appysv2_粉象视界","name":"粉象视界(优)","type":3,"api":"csp_AppYsV2","searchable":1,"quickSearch":1,"filterable":1,"ext":"http://42.157.129.15:34444/lvdou_api.php/v1.vod"},
//{"key":"csp_appysv2_飞捷影视","name":"飞捷影视(优)","type":3,"api":"csp_AppYsV2","searchable":1,"quickSearch":1,"filterable":1,"ext":"https://fjkkk.cn/api.php/v1.vod"},
{"key":"csp_appysv2_饭后电影","name":"饭后电影(优)","type":3,"api":"csp_AppYsV2","searchable":1,"quickSearch":1,"filterable":1,"ext":"http://yinliub.cn/lvdou_api.php/v1.vod"},
{"key":"csp_appysv2_段友影视","name":"段友影视(优)","type":3,"api":"csp_AppYsV2","searchable":1,"quickSearch":1,"filterable":1,"ext":"https://shangjihuoke.com/api.php/tv.vod"},
{"key":"csp_appysv2_段友影视2","name":"段友影视2(优)","type":3,"api":"csp_AppYsV2","searchable":1,"quickSearch":1,"filterable":1,"ext":"http://121.204.249.135:4433/ruifenglb_api.php/v1.vod"},
{"key":"csp_appysv2_独播社","name":"独播社(优)","type":3,"api":"csp_AppYsV2","searchable":1,"quickSearch":1,"filterable":1,"ext":"http://35ys.cc/api.php/v1.vod"},
{"key":"csp_appys_创意影视","name":"创意影视(优)","type":3,"api":"csp_AppYs","searchable":1,"quickSearch":1,"filterable":1,"ext":"https://www.30dian.cn/api.php/v1.vod"},
{"key":"csp_appys_次元动漫","name":"次元动漫(优)","type":3,"api":"csp_AppYs","searchable":1,"quickSearch":1,"filterable":1,"ext":"http://81.68.211.181/lvdou_api.php/v1.vod"},
//{"key":"csp_appysv2_初心影视","name":"初心影视(优)","type":3,"api":"csp_AppYsV2","searchable":1,"quickSearch":1,"filterable":1,"ext":"https://www.5znn.video/api.php/v1.vod"},
{"key":"csp_appysv2_嗷呜视频","name":"嗷呜视频(优)","type":3,"api":"csp_AppYsV2","searchable":1,"quickSearch":1,"filterable":1,"ext":"http://www.cx99999.cn/lvdou_api.php/v1.vod"},
{"key":"csp_appysv2_爱麻花影视","name":"爱麻花影视(优)","type":3,"api":"csp_AppYsV2","searchable":1,"quickSearch":1,"filterable":1,"ext":"http://v.jiexi.work/qingdoujiekou.php/v1.vod"},
{"key":"csp_appysv2_爱酷影视","name":"爱酷影视(优)","type":3,"api":"csp_AppYsV2","searchable":1,"quickSearch":1,"filterable":1,"ext":"https://www.zhanlangbu.com/ruifenglb_api.php/v1.vod"},
//{"key":"csp_appysv2_爱看美剧","name":"爱看美剧(优)","type":3,"api":"csp_AppYsV2","searchable":1,"quickSearch":1,"filterable":1,"ext":"https://www.uumjw.com/api.php/v1.vod"},
{"key":"csp_appysv2_tvip","name":"tvip(优)","type":3,"api":"csp_AppYsV2","searchable":1,"quickSearch":1,"filterable":1,"ext":"http://app.tvip.cc/api.php/v1.vod"},
{"key":"csp_appysv2_Hi影视","name":"Hi影视(优)","type":3,"api":"csp_AppYsV2","searchable":1,"quickSearch":1,"filterable":1,"ext":"http://114.132.251.111:999/lvdou_api.php/v1.vod"},
//{"key":"csp_appysv2_HG影视","name":"HG影视(优)","type":3,"api":"csp_AppYsV2","searchable":1,"quickSearch":1,"filterable":1,"ext":"http://bbq.1006.tk/api.php/v1.vod"},
{"key":"csp_appysv2_F7高清","name":"F7高清(优)","type":3,"api":"csp_AppYsV2","searchable":1,"quickSearch":1,"filterable":1,"ext":"http://bc.haokanju1.cc/lvdou_api.php/v1.vod"},
{"key":"csp_appysv2_DC影视","name":"DC影视(优)","type":3,"api":"csp_AppYsV2","searchable":1,"quickSearch":1,"filterable":1,"ext":"http://chaorenbb.com/api.php/v1.vod"},
{"key":"csp_appysv2_4K影院","name":"4K影院(优)","type":3,"api":"csp_AppYsV2","searchable":1,"quickSearch":1,"filterable":1,"ext":"http://1api.4kdytv.com/api.php/v1.vod"},
{"key":"csp_appysv2_300看世界","name":"300看世界(优)","type":3,"api":"csp_AppYsV2","searchable":1,"quickSearch":1,"filterable":1,"ext":"https://300ys.xyz/mogai_api.php/v1.vod"},
#
#普通
{"key":"csp_appysv2_追剧影院","name":"追剧影院(普)","type":3,"api":"csp_AppYsV2","searchable":1,"quickSearch":1,"filterable":1,"ext":"http://82.157.98.129/lvdou_api.php/v1.vod"},
{"key":"csp_appysv2_追剧吧","name":"追剧吧(普)","type":3,"api":"csp_AppYsV2","searchable":1,"quickSearch":1,"filterable":1,"ext":"http://117.50.163.45:88/lvdou_api.php/v1.vod"},
{"key":"csp_appysv2_追剧TV","name":"追剧TV(普)","type":3,"api":"csp_AppYsV2","searchable":1,"quickSearch":1,"filterable":1,"ext":"http://111.229.120.180:88/lvdou_api.php/v2.vod"},
{"key":"csp_appysv2_渔渔影视","name":"渔渔影视(普)","type":3,"api":"csp_AppYsV2","searchable":1,"quickSearch":1,"filterable":1,"ext":"http://luobo.yugenye.site/api.php/v1.vod"},
{"key":"csp_appysv2_余生影视","name":"余生影视(普)","type":3,"api":"csp_AppYsV2","searchable":1,"quickSearch":1,"filterable":1,"ext":"http://yu.cuicanys.cn/lvdou_api.php/v1.vod"},
{"key":"csp_appysv2_影视猫","name":"影视猫(普)","type":3,"api":"csp_AppYsV2","searchable":1,"quickSearch":1,"filterable":1,"ext":"https://vip.wscyun.com/api.php/v1.vod"},
{"key":"csp_appysv2_影视大全2","name":"影视大全2(普)","type":3,"api":"csp_AppYsV2","searchable":1,"quickSearch":1,"filterable":1,"ext":"https://xc.xixi2yy.xyz/mogai_api.php/v1.vod"},
//{"key":"csp_appysv2_呀哩动漫","name":"呀哩动漫(普)","type":3,"api":"csp_AppYsV2","searchable":1,"quickSearch":1,"filterable":1,"ext":"https://app.yaliyali.cc/api.php/v1.vod"},
{"key":"csp_appysv2_影库","name":"影库(普)","type":3,"api":"csp_AppYsV2","searchable":1,"quickSearch":1,"filterable":1,"ext":"https://yingkudy.com/lvdou_api.php/v1.vod"},
{"key":"csp_appysv2_月儿影视","name":"月儿影视(普)","type":3,"api":"csp_AppYsV2","searchable":1,"quickSearch":1,"filterable":1,"ext":"https://yue52.xyz/api.php/v1.vod"},
{"key":"csp_appys_星宿漫","name":"星宿漫(普)","type":3,"api":"csp_AppYs","searchable":1,"quickSearch":1,"filterable":1,"ext":"http://3.xingxiuman.com/mogai_api.php/v1.vod"},
{"key":"csp_appysv2_小鸟动漫","name":"小鸟动漫(普)","type":3,"api":"csp_AppYsV2","searchable":1,"quickSearch":1,"filterable":1,"ext":"http://xydm.baicai.buzz/mogai_api.php/v1.vod"},
{"key":"csp_appysv2_熊猫视频","name":"熊猫视频(普)","type":3,"api":"csp_AppYsV2","searchable":1,"quickSearch":1,"filterable":1,"ext":"http://anegh.com/lvdou_api.php/v1.vod"},
{"key":"csp_appysv2_熊猫动漫","name":"熊猫动漫(普)","type":3,"api":"csp_AppYsV2","searchable":1,"quickSearch":1,"filterable":1,"ext":"http://dongman.k8aa.com/mogai_api.php/v1.vod"},
{"key":"csp_appysv2_寻常影视","name":"寻常影视(普)","type":3,"api":"csp_AppYsV2","searchable":1,"quickSearch":1,"filterable":1,"ext":"http://tv.91ymz.cn/mogai_api.php/v1.vod"},
//{"key":"csp_appysv2_迅播影音","name":"迅播影音(普)","type":3,"api":"csp_AppYsV2","searchable":1,"quickSearch":1,"filterable":1,"ext":"http://xunbo.tv/lvdou_api.php/v1.vod"},
//{"key":"csp_appysv2_小白动漫","name":"小白动漫(普)","type":3,"api":"csp_AppYsV2","searchable":1,"quickSearch":1,"filterable":1,"ext":"http://121.62.60.222:13579/xiaobai_api.php/v1.vod"},
{"key":"csp_appysv2_雯雯视频","name":"雯雯视频(普)","type":3,"api":"csp_AppYsV2","searchable":1,"quickSearch":1,"filterable":1,"ext":"http://139.224.52.247:81/lvdou_api.php/v1.vod"},
//{"key":"csp_appysv2_万能影院","name":"万能影院(普)","type":3,"api":"csp_AppYsV2","searchable":1,"quickSearch":1,"filterable":1,"ext":"http://app.wnvod.net/lvdou_api.php/v1.vod"},
{"key":"csp_appys_蜗牛动漫","name":"蜗牛动漫(普)","type":3,"api":"csp_AppYs","searchable":1,"quickSearch":1,"filterable":1,"ext":"http://woniudm.woniu.cyou:20000/mogai_api.php/v1.vod"},
{"key":"csp_appysv2_我爱跟剧","name":"我爱跟剧(普)","type":3,"api":"csp_AppYsV2","searchable":1,"quickSearch":1,"filterable":1,"ext":"https://www.genmov.com/mogai_api.php/v1.vod"},
{"key":"csp_appysv2_兔子窝","name":"兔子窝(普)","type":3,"api":"csp_AppYsV2","searchable":1,"quickSearch":1,"filterable":1,"ext":"http://cj.huimaojia.com:12345/mogai_api.php/v1.vod"},
{"key":"csp_appys_天天视频","name":"天天视频(普)","type":3,"api":"csp_AppYs","searchable":1,"quickSearch":1,"filterable":1,"ext":"http://app.qianju.cc/api.php/v1.vod"},
{"key":"csp_appysv2_淘剧社","name":"淘剧社(普)","type":3,"api":"csp_AppYsV2","searchable":1,"quickSearch":1,"filterable":1,"ext":"https://app.shuhai99.com/api.php/v1.vod"},
{"key":"csp_appysv2_沭阳影视","name":"沭阳影视(普)","type":3,"api":"csp_AppYsV2","searchable":1,"quickSearch":1,"filterable":1,"ext":"http://zjr.jurentiaodeng.com/api.php/v1.vod"},
{"key":"csp_appys_三日影院","name":"三日影院(普)","type":3,"api":"csp_AppYs","searchable":1,"quickSearch":1,"filterable":1,"ext":"https://www.3ri.net/api.php/v1.vod"},
{"key":"csp_appysv2_日诚影视","name":"日诚影视(普)","type":3,"api":"csp_AppYsV2","searchable":1,"quickSearch":1,"filterable":1,"ext":"http://tv.rcz168.com/api.php/v1.vod"},
{"key":"csp_appysv2_群鑫影视","name":"群鑫影视(普)","type":3,"api":"csp_AppYsV2","searchable":1,"quickSearch":1,"filterable":1,"ext":"http://www.qunxinys.com/api.php/v1.vod"},
{"key":"csp_appysv2_蒲公英视频","name":"蒲公英视频(普)","type":3,"api":"csp_AppYsV2","searchable":1,"quickSearch":1,"filterable":1,"ext":"http://www.pgy1.top/ruifenglb_api.php/v1.vod"},
{"key":"csp_appysv2_美剧迷","name":"美剧迷(普)","type":3,"api":"csp_AppYsV2","searchable":1,"quickSearch":1,"filterable":1,"ext":"http://mj.zjtv.cc/ruifenglb_api.php/v1.vod"},
//{"key":"csp_appysv2_免费影视","name":"免费影视(普)","type":3,"api":"csp_AppYsV2","searchable":1,"quickSearch":1,"filterable":1,"ext":"http://111.229.120.180:88/lvdou_api.php/v1.vod"},
//{"key":"csp_appysv2_乐云影视","name":"乐云影视(普)","type":3,"api":"csp_AppYsV2","searchable":1,"quickSearch":1,"filterable":1,"ext":"https://www.leyun.tv/api.php/v1.vod"},
{"key":"csp_appys_流星影院","name":"流星影院(普)","type":3,"api":"csp_AppYs","searchable":1,"quickSearch":1,"filterable":1,"ext":"http://app.216bk.xyz/api.php/v1.vod"},
{"key":"csp_appysv2_冷视TV","name":"冷视TV(普)","type":3,"api":"csp_AppYsV2","searchable":1,"quickSearch":1,"filterable":1,"ext":"https://len.tv/api.php/v1.vod"},
{"key":"csp_appysv2_龙猫追剧","name":"龙猫追剧(普)","type":3,"api":"csp_AppYsV2","searchable":1,"quickSearch":1,"filterable":1,"ext":"https://lb.ybnxcx.com/api.php/v1.vod"},
{"key":"csp_appysv2_凌晨影视","name":"凌晨影视(普)","type":3,"api":"csp_AppYsV2","searchable":1,"quickSearch":1,"filterable":1,"ext":"https://vip.wscyun.com/api.php/v1.vod"},
{"key":"csp_appysv2_酷秒视界","name":"酷秒视界(普)","type":3,"api":"csp_AppYsV2","searchable":1,"quickSearch":1,"filterable":1,"ext":"http://cms.kumiaotv.cn/api.php/v1.vod"},
{"key":"csp_appysv2_看看视频","name":"看看视频(普)","type":3,"api":"csp_AppYsV2","searchable":1,"quickSearch":1,"filterable":1,"ext":"http://888.ccboke.top/ruifenglb_api.php/v1.vod"},
{"key":"csp_appys_看剧吧","name":"看剧吧(普)","type":3,"api":"csp_AppYs","searchable":1,"quickSearch":1,"filterable":1,"ext":"http://app.ishen520.com/api.php/v1.vod"},
{"key":"csp_appysv2_快看影视","name":"快看影视(普)","type":3,"api":"csp_AppYsV2","searchable":1,"quickSearch":1,"filterable":1,"ext":"https://kuaikys.com/mogai_api.php/v1.vod"},
{"key":"csp_appysv2_看吧VIP","name":"看吧VIP(普)","type":3,"api":"csp_AppYsV2","searchable":1,"quickSearch":1,"filterable":1,"ext":"http://app.ppli.xyz/api.php/v1.vod"},
{"key":"csp_appysv2_橘子影视","name":"橘子影视(普)","type":3,"api":"csp_AppYsV2","searchable":1,"quickSearch":1,"filterable":1,"ext":"http://jz.juzidy.vip/mogai_api.php/v1.vod"},
{"key":"csp_appysv2_玖肆资源","name":"玖肆资源(普)","type":3,"api":"csp_AppYsV2","searchable":1,"quickSearch":1,"filterable":1,"ext":"http://android.jiusi.vip/mogai_api.php/v1.vod"},
{"key":"csp_appysv2_极酷影视","name":"极酷影视(普)","type":3,"api":"csp_AppYsV2","searchable":1,"quickSearch":1,"filterable":1,"ext":"https://jiku.vip/mogai_api.php/v1.vod"},
{"key":"csp_appys_筋斗云影视","name":"筋斗云影视(普)","type":3,"api":"csp_AppYs","searchable":1,"quickSearch":1,"filterable":1,"ext":"https://tv.jindcloud.com/api.php/v1.vod"},
//{"key":"csp_appysv2_黄河影视","name":"黄河影视(普)","type":3,"api":"csp_AppYsV2","searchable":1,"quickSearch":1,"filterable":1,"ext":"http://i.ledu8.cn/api.php/v1.vod"},
//{"key":"csp_appysv2_寒枫视频","name":"寒枫视频(普)","type":3,"api":"csp_AppYsV2","searchable":1,"quickSearch":1,"filterable":1,"ext":"https://vip.shenyunwl.cn/mogai_api.php/v1.vod"},
//{"key":"csp_appysv2_风凌影视","name":"风凌影视(普)","type":3,"api":"csp_AppYsV2","searchable":1,"quickSearch":1,"filterable":1,"ext":"https://z1q1.com/mogai_api.php/v1.vod"},
{"key":"csp_appys_大威电影","name":"大威电影(普)","type":3,"api":"csp_AppYs","searchable":1,"quickSearch":1,"filterable":1,"ext":"http://vip.davdy.com/ruifenglb_api.php/v1.vod"},
//{"key":"csp_appysv2_比邻影视","name":"比邻影视(普)","type":3,"api":"csp_AppYsV2","searchable":1,"quickSearch":1,"filterable":1,"ext":"http://0hzy.cn:9990/mogai_api.php/v1.vod"},
{"key":"csp_appys_百淘影视","name":"百淘影视(普)","type":3,"api":"csp_AppYs","searchable":1,"quickSearch":1,"filterable":1,"ext":"http://ys.58g8.com/lvdou_api.php/v1.vod"},
{"key":"csp_appysv2_艾思影视","name":"艾思影视(普)","type":3,"api":"csp_AppYsV2","searchable":1,"quickSearch":1,"filterable":1,"ext":"https://www.aitee.cc/api.php/v1.vod"},
//{"key":"csp_appysv2_艾特影视","name":"艾特影视(普)","type":3,"api":"csp_AppYsV2","searchable":1,"quickSearch":1,"filterable":1,"ext":"https://www.aitee.cc/api.php/v1.vod"},
{"key":"csp_appysv2_阿里影视","name":"阿里影视(普)","type":3,"api":"csp_AppYsV2","searchable":1,"quickSearch":1,"filterable":1,"ext":"http://aliys.cn:90/api.php/v1.vod"},
{"key":"csp_appys_爱电影","name":"爱电影(普)","type":3,"api":"csp_AppYs","searchable":1,"quickSearch":1,"filterable":1,"ext":"https://www.idianying.com.cn/mogai_api.php/v1.vod"},
{"key":"csp_appys_U5影视","name":"U5影视(普)","type":3,"api":"csp_AppYs","searchable":1,"quickSearch":1,"filterable":1,"ext":"https://appx.uy07.com/api.php/v1.vod"},
{"key":"csp_appysv2_OK影视","name":"OK影视(普)","type":3,"api":"csp_AppYsV2","searchable":1,"quickSearch":1,"filterable":1,"ext":"http://123.ok00.xyz/api.php/v1.vod"},
{"key":"csp_appys_MX影视","name":"MX影视(普)","type":3,"api":"csp_AppYs","searchable":1,"quickSearch":1,"filterable":1,"ext":"http://mkk.gotka.top/api.php/v1.vod"},
{"key":"csp_appysv2_69美剧","name":"69美剧(普)","type":3,"api":"csp_AppYsV2","searchable":1,"quickSearch":1,"filterable":1,"ext":"https://www.69mj.com/api.php/v1.vod"},
//{"key":"csp_appysv2_1080KK","name":"1080KK(普)","type":3,"api":"csp_AppYsV2","searchable":1,"quickSearch":1,"filterable":1,"ext":"http://123.250idc.com/mogai_api.php/v1.vod"},
#
#神马
{"key":"csp_appysv2_影视阁","name":"影视阁(神马)","type":3,"api":"csp_AppYsV2","searchable":1,"quickSearch":1,"filterable":1,"ext":"http://216.98.10.85/api.php/iptv/vod/"},
{"key":"csp_appysv2_小熊猫TV","name":"小熊猫TV(神马)","type":3,"api":"csp_AppYsV2","searchable":1,"quickSearch":1,"filterable":1,"ext":"http://tv2.hetaoys.vip/api.php/iptv/vod/"},
{"key":"csp_appysv2_小南TV","name":"小南TV(神马)","type":3,"api":"csp_AppYsV2","searchable":1,"quickSearch":1,"filterable":1,"ext":"http://n293.ngys.xyz/mv/api.php/Chengcheng/vod/"},
{"key":"csp_appysv2_天空TV","name":"天空TV(神马)","type":3,"api":"csp_AppYsV2","searchable":1,"quickSearch":1,"filterable":1,"ext":"http://tv.tkys.tv/api.php/iptv/vod/"},
{"key":"csp_appysv2_山楂影视","name":"山楂影视(神马)","type":3,"api":"csp_AppYsV2","searchable":1,"quickSearch":1,"filterable":1,"ext":"http://dy6.dcd1.cn/api.php/iptv/vod/"},
//{"key":"csp_appysv2_柠檬TV","name":"柠檬TV(神马)","type":3,"api":"csp_AppYsV2","searchable":1,"quickSearch":1,"filterable":1,"ext":"http://106.12.113.90:7575/api.php/iptv/vod/"},
{"key":"csp_appysv2_芒迅TV","name":"芒迅TV(神马)","type":3,"api":"csp_AppYsV2","searchable":1,"quickSearch":1,"filterable":1,"ext":"http://www.hdyangtv.com/api.php/iptv/vod/"},
//{"key":"csp_appysv2_猫咪TV","name":"猫咪TV(神马)","type":3,"api":"csp_AppYsV2","searchable":1,"quickSearch":1,"filterable":1,"ext":"http://106.12.113.90:6565/api.php/iptv/vod/"},
{"key":"csp_appys_米来影视","name":"米来影视(神马)","type":3,"api":"csp_AppYs","searchable":1,"quickSearch":1,"filterable":1,"ext":"http://42.51.37.161:2346/api.php/iptv/vod/"},
{"key":"csp_appysv2_麦看视频","name":"麦看视频(神马)","type":3,"api":"csp_AppYsV2","searchable":1,"quickSearch":1,"filterable":1,"ext":"http://tv.shenaitv.com/api.php/iptv/vod/"},
{"key":"csp_appysv2_荔枝影视","name":"荔枝影视(神马)","type":3,"api":"csp_AppYsV2","searchable":1,"quickSearch":1,"filterable":1,"ext":"http://api.zjys.vip/api.php/iptv/vod/"},
{"key":"csp_appysv2_金叶影院","name":"金叶影院(神马)","type":3,"api":"csp_AppYsV2","searchable":1,"quickSearch":1,"filterable":1,"ext":"http://r.zjj.life:88/mv/api.php/Chengcheng/vod/"},
{"key":"csp_appysv2_极品影院","name":"极品影院(神马)","type":3,"api":"csp_AppYsV2","searchable":1,"quickSearch":1,"filterable":1,"ext":"http://293x.yhzy.xyz/mv/api.php/Chengcheng/vod/"},
{"key":"csp_appysv2_聚多影视","name":"聚多影视(神马)","type":3,"api":"csp_AppYsV2","searchable":1,"quickSearch":1,"filterable":1,"ext":"http://jdys.weetai.cn/api.php/iptv/vod/"},
{"key":"csp_appysv2_盒子视界","name":"盒子视界(神马)","type":3,"api":"csp_AppYsV2","searchable":1,"quickSearch":1,"filterable":1,"ext":"http://eh.tvzy.cc/api.php/iptv/vod/"},
{"key":"csp_appysv2_黑龙影视","name":"黑龙影视(神马)","type":3,"api":"csp_AppYsV2","searchable":1,"quickSearch":1,"filterable":1,"ext":"http://vip.ji-ding-he.site/api.php/iptv/vod/"},
{"key":"csp_appys_嘿荼锋","name":"嘿荼锋(神马)","type":3,"api":"csp_AppYs","searchable":1,"quickSearch":1,"filterable":1,"ext":"http://tv.hfys8.vip/api.php/Sntv/vod/"},
{"key":"csp_appys_贵宾影院","name":"贵宾影院(神马)","type":3,"api":"csp_AppYs","searchable":1,"quickSearch":1,"filterable":1,"ext":"https://vipdytv.com/api.php/iptv/vod/"},
{"key":"csp_appys_飞扬TV","name":"飞扬TV(神马)","type":3,"api":"csp_AppYs","searchable":1,"quickSearch":1,"filterable":1,"ext":"http://diancj.zhenfy.cn/api.php/Chengcheng/vod/"},
{"key":"csp_appys_非凡影院","name":"非凡影院(神马)","type":3,"api":"csp_AppYs","searchable":1,"quickSearch":1,"filterable":1,"ext":"http://cms.feifan12.xyz/api.php/iptv/vod/"},
{"key":"csp_appysv2_独优影视","name":"独优影视(神马)","type":3,"api":"csp_AppYsV2","searchable":1,"quickSearch":1,"filterable":1,"ext":"http://121.205.88.71:218/api.php/Chengcheng/vod/"},
{"key":"csp_appys_大师兄","name":"大师兄(神马)","type":3,"api":"csp_AppYs","searchable":1,"quickSearch":1,"filterable":1,"ext":"http://dsxtv.tv.ci/api.php/dsx/vod/"},
{"key":"csp_appysv2_叮当TV","name":"叮当TV(神马)","type":3,"api":"csp_AppYsV2","searchable":1,"quickSearch":1,"filterable":1,"ext":"http://tv.hyddys.top/api.php/iptv/vod/"},
{"key":"csp_appysv2_爱西西TV","name":"爱西西TV(神马)","type":3,"api":"csp_AppYsV2","searchable":1,"quickSearch":1,"filterable":1,"ext":"http://tv2.aixixi.vip/api.php/iptv/vod/"},
{"key":"csp_appysv2_CV影视","name":"CV影视(神马)","type":3,"api":"csp_AppYsV2","searchable":1,"quickSearch":1,"filterable":1,"ext":"http://www.cccvvv.top/api.php/iptv/vod/"},
{"key":"csp_appysv2_369TV","name":"369TV(神马)","type":3,"api":"csp_AppYsV2","searchable":1,"quickSearch":1,"filterable":1,"ext":"http://8.142.23.147:555/api.php/Chengcheng/vod/"},
{"key":"csp_appysv2_2号币","name":"2号币(神马)","type":3,"api":"csp_AppYsV2","searchable":1,"quickSearch":1,"filterable":1,"ext":"http://phoebe.cf/api.php/iptv/vod/"},
#
# 广大侠 资源网采集
#官方解析
{"key":"8090资源","name":"8090资源(官)","type":1,"api":"http://zy.yilans.net:8090/api.php/provide/vod/","playUrl":"https://www.8090.la/8090/?url=","searchable":1,"quickSearch":1},
{"key":"6U资源","name":"6U资源(官)","type":1,"api":"http://zy.ataoju.com/inc/apijson_vod.php","playUrl":"parse:parwix1","searchable":0,"quickSearch":0},
{"key":"天堂资源","name":"天堂资源(官)","type":1,"api":"http://vipmv.cc/api.php/provide/vod/","playUrl":"parse:parwix1","searchable":1,"quickSearch":1},
{"key":"M3U8.TV资源","name":"M3U8.TV资源(官)","type":1,"api":"http://www.zycaiji.net:7788/api.php/provide/vod/","playUrl":"parse:parwix1","searchable":1,"quickSearch":1},
{"key":"麒麟资源","name":"麒麟资源(官)","type":1,"api":"http://www.qilinzyz.com/api.php/provide/vod/","playUrl":"parse:parwix1","searchable":1,"quickSearch":1},
//{"key":"搬运工资源","name":"搬运工资源(官)","type":1,"api":"https://cj.banyung.xyz:7788","searchable":0,"quickSearch":0},
{"key":"诺讯资源","name":"诺讯资源(官)","type":1,"api":"http://caiji.nxflv.com/api.php/provide/vod/","playUrl":"https://www.nxflv.com/?url=","searchable":1,"quickSearch":1},
{"key":"英皇官采","name":"英皇官采(官)","type":0,"api":"https://apicdn.vipm3u8.com/xml","playUrl":"https://player.cdn.ormanjiaju.com/player?token=4732bUERfVb60lWNSLrsd5-2s1r70KeA89C3VwrGYYdByboQT9o4OzxIr5-8/cX9-sO6&vid=","searchable":1,"quickSearch":1},
{"key":"江北资源","name":"江北资源(官)","type":1,"api":"https://gfzycj.hnmj.vip/api.php/provide/vod/","playUrl":"parse:parwix1","searchable":1,"quickSearch":1},
{"key":"思古官采","name":"思古官采(官)","type":1,"api":"http://zy.sgyun.me/api.php/provide/vod/","playUrl":"parse:parwix1","searchable":1,"quickSearch":1},
{"key":"星一官采","name":"星一官采(官)","type":1,"api":"https://gcku.suboyun.vip/api.php/provide/vod/","playUrl":"https://www.xing1.vip/player/dp/?url=","searchable":1,"quickSearch":1},
{"key":"wabc(腾讯直采)","name":"wabc(腾讯直采)(官)","type":1,"api":"https://wabc.ml/mao/1.php/provide/vod/","playUrl":"parse:parwix1","searchable":1,"quickSearch":1},
//{"key":"片库","name":"片库(官)","type":1,"api":"https://pianku.wang/api.php/provide/vod/","searchable":0,"quickSearch":0},
{"key":"看猫","name":"看猫(官)","type":1,"api":"http://124.222.83.15:88/api.php/provide/vod/","playUrl":"parse:parwix1","searchable":1,"quickSearch":1},
{"key":"忆梦","name":"忆梦(官)","type":1,"api":"http://anltv.cn/api.php/provide/vod/","playUrl":"parse:parwix1","searchable":1,"quickSearch":1},
//{"key":"土狗官采","name":"土狗官采(官)","type":1,"api":"http://vip-02.tgzy.cc/api.php/provide/vod/","searchable":0,"quickSearch":0},
{"key":"极速官采","name":"极速官采(官)","type":1,"api":"http://gc.zhuijuba.vip/api.php/provide/vod/","searchable":1,"quickSearch":1},
{"key":"晓成云","name":"晓成云(官)","type":1,"api":"http://cj.cygc.xyz/api.php/provide/vod/","searchable":1,"quickSearch":1},
{"key":"首涂官采","name":"首涂官采(官)","type":1,"api":"http://zy.ishoutu.com/api.php/provide/vod/","searchable":1,"quickSearch":1},
{"key":"奥特曼资源","name":"奥特曼资源(官)","type":1,"api":"https://aotemanzy.com/api.php/provide/vod/","searchable":1,"quickSearch":1},
{"key":"雪人官采","name":"雪人官采(官)","type":1,"api":"https://zl.chinafix.wang/api.php/provide/vod/","searchable":1,"quickSearch":1},
{"key":"木子看剧","name":"木子看剧(官)","type":1,"api":"https://mzkj.maccms.cf/api.php/provide/vod/","searchable":1,"quickSearch":1},
#
#切片资源
{"key":"极速BT资源","name":"极速BT资源(切)","type":1,"api":"https://api.jisubt.com/videos","searchable":1,"quickSearch":1},
//{"key":"步步高资源","name":"步步高资源(切)","type":1,"api":"https://api.yparse.com/api/json","searchable":0,"quickSearch":0},
{"key":"松鼠资源","name":"松鼠资源(切)","type":1,"api":"https://m3u8.songshuzy.com/api.php/provide/vod/","searchable":1,"quickSearch":1},
{"key":"OK资源","name":"OK资源(切)","type":1,"api":"https://www.okcj.site/api/provide/vod/","searchable":1,"quickSearch":1},
{"key":"猫眼资源","name":"猫眼资源(切)","type":1,"api":"http://maoyanapi.com/api.php/provide/vod/","searchable":1,"quickSearch":1},
{"key":"FOX资源","name":"FOX资源(切)","type":1,"api":"https://api.foxzyapi.com/api.php/provide/vod/","searchable":1,"quickSearch":1},
{"key":"量子资源","name":"量子资源(切)","type":1,"api":"http://cj.lziapi.com/api.php/provide/vod/","searchable":1,"quickSearch":1},
{"key":"神速资源","name":"神速资源(切)","type":1,"api":"https://api.sszyapi.com/api.php/provide/vod/","searchable":1,"quickSearch":1},
{"key":"番茄资源","name":"番茄资源(切)","type":1,"api":"http://api.fqzy.cc/api.php/provide/vod/","playUrl":"https://dp.fqplayer.com/dplayer/?url=","searchable":1,"quickSearch":1},
{"key":"卧龙资源","name":"卧龙资源(切)","type":1,"api":"https://collect.wolongzyw.com/api.php/provide/vod/","searchable":1,"quickSearch":1},
//{"key":"红牛资源","name":"红牛资源(切)","type":1,"api":"https://www.hongniuzy2.com/api.php/provide/vod/","searchable":0,"quickSearch":0},
//{"key":"北斗星资源","name":"北斗星资源(切)","type":1,"api":"https://m3u8.bdxzyapi.com/api.php/provide/vod/","searchable":0,"quickSearch":0},
{"key":"樱花资源","name":"樱花资源(切)","type":1,"api":"https://m3u8.apiyhzy.com/api.php/provide/vod/","searchable":1,"quickSearch":1},
{"key":"想看资源","name":"想看资源(切)","type":1,"api":"https://m3u8.xiangkanapi.com/api.php/provide/vod/","searchable":1,"quickSearch":1},
{"key":"酷点资源","name":"酷点资源(切)","type":1,"api":"https://kudianzy.com/api.php/provide/vod/","searchable":1,"quickSearch":1},
{"key":"速更资源","name":"速更资源(切)","type":1,"api":"https://sugengzy.cn/api.php/provide/vod/","searchable":1,"quickSearch":1},
{"key":"闪电资源","name":"闪电资源(切)","type":1,"api":"http://sdzyapi.com/api.php/provide/vod/","searchable":1,"quickSearch":1},
//{"key":"飞速资源","name":"飞速资源(切)","type":1,"api":"https://www.feisuzy.com/api.php/provide/vod/","searchable":0,"quickSearch":0},
{"key":"光速资源","name":"光速资源(切)","type":1,"api":"https://api.guangsuapi.com/api.php/provide/vod/","searchable":1,"quickSearch":1},
{"key":"新浪资源","name":"新浪资源(切)","type":1,"api":"http://api.xinlangapi.com/xinlangapi.php/provide/vod/","searchable":1,"quickSearch":1},
{"key":"鱼乐资源","name":"鱼乐资源(切)","type":1,"api":"https://api.ylzy1.com/api.php/provide/vod/","searchable":1,"quickSearch":1},
{"key":"韩剧资源","name":"韩剧资源(切)","type":1,"api":"http://www.hanjuzy.com/inc/apijson_vod.php","searchable":0,"quickSearch":0},
{"key":"快播资源","name":"快播资源(切)","type":1,"api":"http://www.kuaibozy.com/api.php/provide/vod/","searchable":1,"quickSearch":1},
{"key":"八戒资源","name":"八戒资源(切)","type":1,"api":"http://cj.bajiecaiji.com/inc/apijson_vod.php","searchable":0,"quickSearch":0},
{"key":"百度资源","name":"百度资源(切)","type":1,"api":"https://api.apibdzy.com/api.php/provide/vod/","searchable":1,"quickSearch":1},
{"key":"无尽资源2","name":"无尽资源2(切)","type":1,"api":"https://wuzy9.com/api.php/provide/vod/","searchable":1,"quickSearch":1},
{"key":"无尽资源","name":"无尽资源(切)","type":1,"api":"https://wujinzy.com/api.php/provide/vod/","searchable":1,"quickSearch":1},
//{"key":"天空资源","name":"天空资源(切)","type":1,"api":"https://api.tiankongapi.com/api.php/provide/vod/","searchable":0,"quickSearch":0},
{"key":"乐多资源","name":"乐多资源(切)","type":0,"api":"http://cj.leduocaiji.com/inc/api.php","playUrl":"json:https://api.leduotv.com/wp-api/getvodurl.php?vid=","searchable":1,"quickSearch":1},
//{"key":"聚合资源","name":"聚合资源(切)","type":1,"api":"https://ziyuan.juhesys.com/api.php/provide/vod/","searchable":0,"quickSearch":0},
{"key":"南国影源","name":"南国影源(切)","type":1,"api":"http://api.nguonphim.tv/api.php/provide/vod/","searchable":1,"quickSearch":1},
#
#优质资源
{"key":"淘剧鸭","name":"淘剧鸭(优)","type":1,"api":"https://so2.cc/api.php/provide/vod/","searchable":1,"quickSearch":1},
{"key":"293影视","name":"293影视(优)","type":1,"api":"http://293x.yhzy.xyz/mv/api.php/provide/vod/","searchable":1,"quickSearch":1},
//{"key":"土狗Autue","name":"土狗Autue(优)","type":1,"api":"http://vip-08.tgzy.cc/api.php/provide/vod/","searchable":0,"quickSearch":0},
{"key":"极速蓝光","name":"极速蓝光(优)","type":1,"api":"http://hs.zhuijuba.vip/api.php/provide/vod/","searchable":1,"quickSearch":1},
{"key":"U酷资源","name":"U酷资源(优)","type":1,"api":"https://api.ukuapi.com/api.php/provide/vod/","searchable":1,"quickSearch":1},
//{"key":"开放云(X5)","name":"开放云(X5)(优)","type":1,"api":"https://z.iopenyun.com:99/apiopy.php/provide/vod/from/Tcm3u8/?ac=list","searchable":0,"quickSearch":0},
{"key":"八戒资源2","name":"八戒资源2(优)","type":1,"api":"https://www.bajiezy.xyz/api.php/provide/vod/","playUrl":"json:https://json.hfyrw.com/mao.go?url=","searchable":1,"quickSearch":1},
{"key":"唐人资源","name":"唐人资源(优)","type":1,"api":"https://tangrenzyz.com/api.php/provide/vod/","searchable":1,"quickSearch":1},
{"key":"789盘","name":"789盘(优)","type":1,"api":"https://www.rrvipw.com/api.php/provide/vod/from/789pan/","searchable":1,"quickSearch":1},
{"key":"旋风云","name":"旋风云(优)","type":1,"api":"http://appimg.ssxmall.cn/api.php/provide/vod/","playUrl":"https://jx.58g8.com/1/?url=","searchable":1,"quickSearch":1},
//{"key":"抹茶猪(龙腾)","name":"抹茶猪(龙腾)(优)","type":1,"api":"https://www.mczdyw.com/api.php/provide/vod/","searchable":0,"quickSearch":0},
//{"key":"奈菲迷","name":"奈菲迷(优)","type":1,"api":"https://app.netflixmi.com/ruifenglb_api.php/provide/vod/","searchable":0,"quickSearch":0},
//{"key":"鸭奈飞","name":"鸭奈飞(优)","type":1,"api":"http://newtv.yanaifei.cn/api.php/provide/vod/","searchable":0,"quickSearch":0},
{"key":"追剧吧","name":"追剧吧(优)","type":1,"api":"http://zhuiju8.vip/api.php/provide/vod/","searchable":1,"quickSearch":1},
//{"key":"皮荼熊TV","name":"皮荼熊TV(优)","type":1,"api":"https://www.psinu.com/api.php/provide/vod/","searchable":0,"quickSearch":0},
//{"key":"哆咪动漫","name":"哆咪动漫(优)","type":1,"api":"http://www.dmdm2020.com/api.php/provide/vod/","searchable":0,"quickSearch":0},
{"key":"影世界","name":"影世界(优)","type":1,"api":"https://video.yingworld.vip/api.php/provide/vod/","searchable":1,"quickSearch":1,"categories":["电影","连续剧","综艺","动漫"]},
{"key":"饭后电影","name":"饭后电影(优)","type":1,"api":"http://yinliub.cn/api.php/provide/vod/","searchable":1,"quickSearch":1},
{"key":"考拉TV","name":"考拉TV(优)","type":1,"api":"https://ikaola.tv/api.php/provide/vod/","playUrl":"https://ikaola.tv/vwnet/dplayer/?url=","searchable":1,"quickSearch":1},
{"key":"荔枝影视","name":"荔枝影视(优)","type":1,"api":"http://www.zjys.vip/api.php/provide/vod/","searchable":1,"quickSearch":1},
{"key":"段友影视","name":"段友影视(优)","type":1,"api":"http://shangjihuoke.com/api.php/provide/vod/","searchable":1,"quickSearch":1},
{"key":"一点影视","name":"一点影视(优)","type":1,"api":"https://m3u8.movurl.xyz/api.php/provide/vod/","searchable":1,"quickSearch":1},
//{"key":"旧梦影视","name":"旧梦影视(优)","type":1,"api":"https://mac.qd234.cn/api.php/provide/vod/","searchable":0,"quickSearch":0},
//{"key":"易看视频","name":"易看视频(优)","type":1,"api":"https://video.yikan.app/api.php/provide/vod/","searchable":0,"quickSearch":0},
//{"key":"奇乐(优剧)资源","name":"奇乐(优剧)资源(优)","type":1,"api":"https://zy.ujuba.com/api.php/provide/vod/","searchable":0,"quickSearch":0},
//{"key":"淘片资源","name":"淘片资源(优)","type":1,"api":"https://taopianapi.com/home/cjapi/as/mc10/vod/json","searchable":0,"quickSearch":0},
{"key":"一帆资源(VPN)","name":"一帆资源(VPN)(优)","type":1,"api":"http://api.if101.tv/v1/vod?ac=list","searchable":0,"quickSearch":0},
{"key":"思古影院","name":"思古影院(优)","type":1,"api":"https://www.siguyy.net/api.php/provide/vod/","searchable":1,"quickSearch":1},
//{"key":"天天看","name":"天天看(优)","type":1,"api":"https://www.ttky8.com/api.php/provide/vod/","searchable":0,"quickSearch":0},
{"key":"每天看看","name":"每天看看(优)","type":1,"api":"http://47.113.126.237:1234/api.php/provide/vod/","playUrl":"parse:parwix1","searchable":1,"quickSearch":1},
{"key":"一拳动漫","name":"一拳动漫(优)","type":1,"api":"http://47.97.68.224/api.php/provide/vod/","searchable":1,"quickSearch":1},
{"key":"饭团影视","name":"饭团影视(优)","type":1,"api":"http://television.wkfile.com/api.php/provide/vod/","searchable":1,"quickSearch":1},
//{"key":"BL视频","name":"BL视频(优)","type":1,"api":"https://bljiex.com/api.php/provide/vod/","searchable":0,"quickSearch":0},
{"key":"畅视影视","name":"畅视影视(优)","type":1,"api":"http://app.reboju.net/api.php/provide/vod/","playUrl":"parse:parwix1","searchable":1,"quickSearch":1},
//{"key":"OmoFun动漫","name":"OmoFun动漫(优)","type":1,"api":"https://omofun.tv/api.php/provide/vod/","searchable":0,"quickSearch":0},
//{"key":"人人资源","name":"人人资源(优)","type":1,"api":"http://www.rrzyw.cc/api.php/provide/vod/","searchable":0,"quickSearch":0},
//{"key":"小蜻蜓APP","name":"小蜻蜓APP(优)","type":1,"api":"http://3ketv.com/api.php/provide/vod/","searchable":0,"quickSearch":0},
{"key":"乐活影视","name":"乐活影视(优)","type":1,"api":"https://lehootv.com/api.php/provide/vod/","searchable":1,"quickSearch":1},
//{"key":"星一蓝光","name":"星一蓝光(优)","type":1,"api":"http://lgku.suboyun.cn/api.php/provide/vod/","searchable":0,"quickSearch":0},
{"key":"筋斗云","name":"筋斗云(优)","type":1,"api":"https://tv.jindcloud.com/api.php/provide/vod/","playUrl":"parse:parwix1","searchable":1,"quickSearch":1},
#
#三方聚合
{"key":"影图","name":"影图(聚)","type":1,"api":"https://cj.vodimg.top/api.php/provide/vod/","searchable":1,"quickSearch":1},
{"key":"猪猪影院","name":"猪猪影院(聚)","type":1,"api":"https://www.2zdyy.com/api.php/provide/vod/","searchable":1,"quickSearch":1},
{"key":"美剧星球","name":"美剧星球(聚)","type":1,"api":"https://www.meijuxq.tv/inc/apijson_vod.php","searchable":0,"quickSearch":0},
{"key":"初恋云影视","name":"初恋云影视(聚)","type":1,"api":"https://video.xuanqi.pro/api.php/provide/vod/","playUrl":"parse:parwix1","searchable":1,"quickSearch":1},
{"key":"小猫咪","name":"小猫咪(聚)","type":1,"api":"http://zy.xiaomaomi.cc/api.php/provide/vod/","playUrl":"http://xiaomaomi.cc/player/?url=","searchable":1,"quickSearch":1},
{"key":"随缘电影","name":"随缘电影(聚)","type":1,"api":"https://baobei666.com/inc/apijson_vod.php","playUrl":"parse:parwix1","searchable":0,"quickSearch":0},
{"key":"飘零影院","name":"飘零影院(聚)","type":1,"api":"https://p2100.net/api.php/provide/vod/","searchable":1,"quickSearch":1},
{"key":"酷点影视","name":"酷点影视(聚)","type":1,"api":"http://ys.kudian6.com/api.php/provide/vod/","searchable":1,"quickSearch":1},
//{"key":"小城影视","name":"小城影视(聚)","type":1,"api":"http://cygc.xyz:84/api.php/provide/vod/","searchable":0,"quickSearch":0},
//{"key":"橘子影视","name":"橘子影视(聚)","type":1,"api":"http://jz.juzidy.vip/api.php/provide/vod/","searchable":0,"quickSearch":0},
//{"key":"小慧影视","name":"小慧影视(聚)","type":1,"api":"http://dy.xxga.tk/api.php/provide/vod/","searchable":0,"quickSearch":0},
//{"key":"超高清影视","name":"超高清影视(聚)","type":1,"api":"http://shdmv.com/api.php/provide/vod/","searchable":0,"quickSearch":0},
{"key":"艾旦影视","name":"艾旦影视(聚)","type":1,"api":"https://lovedan.net/api.php/provide/vod/","searchable":1,"quickSearch":1},
{"key":"艾思影院","name":"艾思影院(聚)","type":1,"api":"https://www.aitee.cc/api.php/provide/vod/","playUrl":"https://jx.zjmiao.com/?url=","searchable":1,"quickSearch":1},
{"key":"VV影视","name":"VV影视(聚)","type":1,"api":"https://vvdy.org/api.php/provide/vod/","playUrl":"https://vvdy.org/dm/?url=","searchable":1,"quickSearch":1},
{"key":"趣看","name":"趣看(聚)","type":1,"api":"https://qkmp4.cn/api.php/provide/vod/","searchable":0,"quickSearch":0},
{"key":"迅播影院","name":"迅播影院(聚)","type":1,"api":"https://www.qgvod.com/api.php/provide/vod/","searchable":1,"quickSearch":1},
{"key":"39影视","name":"39影视(聚)","type":1,"api":"https://www.39kan.com/api.php/provide/vod/","searchable":1,"quickSearch":1},
{"key":"剧大神","name":"剧大神(聚)","type":1,"api":"http://judashen.com/api.php/provide/vod/","playUrl":"parse:parwix1","searchable":1,"quickSearch":1},
//{"key":"8K影视","name":"8K影视(聚)","type":1,"api":"http://vip.8kvod.com:888/8kvodapilgxc.php/provide/vod/","searchable":0,"quickSearch":0},
{"key":"嗨哆咪影视","name":"嗨哆咪影视(聚)","type":1,"api":"http://hdmys1.com/api.php/provide/vod/","searchable":1,"quickSearch":1},
{"key":"橘猫影视","name":"橘猫影视(聚)","type":1,"api":"http://www.zitv.cc/api.php/provide/vod/","searchable":1,"quickSearch":1},
{"key":"速影","name":"速影(聚)","type":1,"api":"https://速影128.xyz/inc/apijson.php","searchable":0,"quickSearch":0},
//{"key":"飞鱼影视","name":"飞鱼影视(聚)","type":1,"api":"https://app.feiyu5.com/api.php/provide/vod/","searchable":0,"quickSearch":0},
{"key":"飘花电影","name":"飘花电影(聚)","type":1,"api":"http://www.zzrhgg.com/api.php/provide/vod/","searchable":1,"quickSearch":1},
//{"key":"晓峰影视","name":"晓峰影视(聚)","type":1,"api":"http://api.xxcr.tk/api.php/provide/vod/","searchable":0,"quickSearch":0},
{"key":"千寻时光","name":"千寻时光(聚)","type":1,"api":"http://wy.dqyhg.cn/api.php/provide/vod/","playUrl":"parse:parwix1","searchable":1,"quickSearch":1},
{"key":"快看客栈","name":"快看客栈(聚)","type":1,"api":"https://www.vp1127.com/api.php/provide/vod/","searchable":1,"quickSearch":1},
{"key":"网民电影","name":"网民电影(聚)","type":1,"api":"https://www.prinevillesda.org/api.php/provide/vod/","searchable":1,"quickSearch":1},
{"key":"MBO影视","name":"MBO影视(聚)","type":0,"api":"https://www.mbomovie.com/api.php/provide/vod/at/xml/","searchable":0,"quickSearch":0},
{"key":"兔子窝","name":"兔子窝(聚)","type":1,"api":"http://cj.huimaojia.com:12345/api.php/provide/vod/","playUrl":"parse:parwix1","searchable":1,"quickSearch":1},
{"key":"哇可可影视","name":"哇可可影视(聚)","type":1,"api":"https://www.zwcoco.com/api.php/provide/vod/","searchable":1,"quickSearch":1},
{"key":"共青春","name":"共青春(聚)","type":1,"api":"https://gqcyy.com/api.php/provide/vod/","playUrl":"parse:parwix1","searchable":1,"quickSearch":1},
{"key":"酷猫影视","name":"酷猫影视(聚)","type":1,"api":"https://www.pgcms10.com/api.php/provide/vod/","searchable":1,"quickSearch":1},
{"key":"胖猫影视","name":"胖猫影视(聚)","type":1,"api":"http://www.pangmaotv.com/api.php/provide/vod/","searchable":1,"quickSearch":1},
{"key":"嘛哩嘛哩","name":"嘛哩嘛哩(聚)","type":1,"api":"https://malimali3.com/api.php/provide/vod/","playUrl":"parse:parwix1","searchable":1,"quickSearch":1,"categories":["国产动漫","日韩动漫","欧美动漫","港台动漫"]},
{"key":"海外电影","name":"海外电影(聚)","type":1,"api":"https://www.200121.com/api.php/provide/vod/","playUrl":"parse:parwix1","searchable":1,"quickSearch":1},
#
// 推送功能扩展（需v2.1.0.Beta6及以上版本）
// 需要在配置文件中，加入key为push_agent的站点，数据返回格式和普通爬虫一致
// 支持推送播放网盘链接
// https://github.com/catvod/CatVodTVSpider
{"key":"push_agent","name":"推送","type":3,"api":"csp_PushAgent","searchable":0,"quickSearch":0,"filterable":0}
#
],
"lives":[
{"group":"redirect","channels":[
{"name":"live","urls":["proxy://do=live&type=txt&ext=aHR0cHM6Ly9jZG4uanNkZWxpdnIubmV0L2doL1l1YW5Ic2luZy9PbmVDbGlja1J1bkBtYXN0ZXIveHBhdGgvbGl2ZS50eHQ="]}
]}
],
"parses":[
{"name":"解析聚合","type":3,"url":"Demo"},
{"name":"Json并发","type":2,"url":"Parallel"},
{"name":"Json轮询","type":2,"url":"Sequence"},
# type1 聚合.并发.轮询
{"name":"Pro","type":1,"url":"http://api.vip123kan.vip/?url=","ext":{"flag":["youku","优酷","mgtv","芒果","qq","腾讯","qiyi","爱奇艺","qq","奇艺"]}},
{"name":"bilibili","type":1,"url":"https://vip.23at.cn/home/api?type=ys&uid=4883852&key=adfimsvxzDKNOVX389&url=","ext":{"flag":["bilibili"]}},
{"name":"leduo","type":1,"url":"https://api.ldjx.cc/wp-api/getvodurl.php?token=1001&vid=","ext":{"flag":["leduo"]}},
{"name":"duoduozy2","type":1,"url":"https://a.dxzj88.com/jxjx/dd.php?url=","ext":{"flag":["duoduozy"]}},
{"name":"renrenmi2","type":1,"url":"https://a.dxzj88.com/jxrrm/jiami.php?url=","ext":{"flag":["renrenmi"]}},
{"name":"renrenmi3","type":1,"url":"https://sz.dxzj88.com/jxrjrm/jiaomi.php?url=","ext":{"flag":["renrenmi"]}},
{"name":"Pro2","type":1,"url":"https://vip.rongxingvr.top/api/?type=ys&key=JJEZkZIhzkA4cUtBfR&url=","ext":{"flag":["ltnb","rx","qiyi","爱奇艺","qq","奇艺","sohu","letv","youku","优酷","mgtv","芒果"]}},
{"name":"2","type":1,"url":"https://jx.mczdyw.com/xg.php?url=","ext":{"flag":["mgtv","芒果"]}},
{"name":"3","type":1,"url":"https://www.aiaine.com/api/?key=kVqmG5dAQ5dZTcECw8&url=","ext":{"flag":["youku","优酷","mgtv","芒果","qq","腾讯","qiyi","爱奇艺","qq","奇艺"]}},
{"name":"4","type":1,"url":"https://svip.rongxingvr.top/api/?key=niBgMGXVdCQhsmeEBK&url=","ext":{"flag":["youku","优酷","mgtv","芒果","qq","腾讯","qiyi","爱奇艺","qq","奇艺"]}