❤️douyu(Exo播放器),#genre#
【RM-点播】点播！模式-24H欢乐不断,http://dyscdnali1.douyucdn.cn/live/131977rb5GOrl6uS.flv?uuid=
【RM-轮播】轮播！模式-24H欢乐不断,http://dyscdnali1.douyucdn.cn/live/7298973rf8ZRAH9s.flv?uuid=
【特辑】精彩大片，欢迎品鉴,http://dyscdnali1.douyucdn.cn/live/3637778raLSXdOdu.flv?uuid=
✨周星驰✨星爷华语经典电影神乐,http://dyscdnali1.douyucdn.cn/live/122402rK7MO9bXSq.flv?uuid=
✨神乐✨华语经典电影沈腾周星驰,http://dyscdnali1.douyucdn.cn/live/85894rmovieChow.flv?uuid=
【动漫】超燃怀旧经典,http://dyscdnali1.douyucdn.cn/live/1174353rx8odKsCc.flv?uuid=
✨动漫✨热血木叶忍者草帽路飞青春,http://dyscdnali1.douyucdn.cn/live/206858rtesHKjl.flv?uuid=
【超级赛亚人】悟吉塔,http://dyscdnali1.douyucdn.cn/live/7190773r0Xv0DDkx.flv?uuid=
【Hunter】动漫热血老贼冒险,http://dyscdnali1.douyucdn.cn/live/6610883rdSnhO6m2.flv?uuid=
动漫,http://dyscdnali1.douyucdn.cn/live/7686674rFH7xe5Ay.flv?uuid=
草帽丶海贼团的直播间,http://dyscdnali1.douyucdn.cn/live/997925rsBT668jIk.flv?uuid=
欢欢喜喜，万事如意,http://dyscdnali1.douyucdn.cn/live/7528160r3zlh5C10.flv?uuid=
♥卡面来打♥,http://dyscdnali1.douyucdn.cn/live/1218414rcj1kzmNY.flv?uuid=
【天使点播】动漫直播间,http://dyscdnali1.douyucdn.cn/live/1487654rsVfcPzng.flv?uuid=
海绵与大星直播间,http://dyscdnali1.douyucdn.cn/live/2250349rixe21U1g.flv?uuid=
【柯南】外表看似小孩，智慧却过于常人,http://dyscdnali1.douyucdn.cn/live/6484910rnM9Qpe8m.flv?uuid=
【追忆】国语超清动画电影,http://dyscdnali1.douyucdn.cn/live/6449849rFklL6RHD.flv?uuid=
美味！蟹黄堡,http://dyscdnali1.douyucdn.cn/live/8762358rSdwNfk7L.flv?uuid=
星矢-燃烧吧我的小宇宙,http://dyscdnali1.douyucdn.cn/live/8458270ruj5ImPxc.flv?uuid=
万年如一柯播南,http://dyscdnali1.douyucdn.cn/live/1783144rrjrMyaz4.flv?uuid=
大星与海绵方块,http://dyscdnali1.douyucdn.cn/live/3949681rZe1ITJBw.flv?uuid=
【童年往事】仨房间画面同步显示点播,http://dyscdnali1.douyucdn.cn/live/7256376rSn4iWEAu.flv?uuid=
小当家、小埋陪伴大家,http://dyscdnali1.douyucdn.cn/live/8231658rYh2MBs35.flv?uuid=
一生无悔入夏目,http://dyscdnali1.douyucdn.cn/live/10210568rtXKrf9b.flv?uuid=
少女与半妖,http://dyscdnali1.douyucdn.cn/live/7422897rzg8lsLbx.flv?uuid=
【星星动画】童年热血搞笑爱情,http://dyscdnali1.douyucdn.cn/live/4369939rJig7arFI.flv?uuid=
【三笠】根本不存在解不开的迷！,http://dyscdnali1.douyucdn.cn/live/7050342rG89v8UH6.flv?uuid=
【动漫】24小时不间断动漫专场,http://dyscdnali1.douyucdn.cn/live/7493575rX6rlNr7A.flv?uuid=
万能的银桑,http://dyscdnali1.douyucdn.cn/live/8619538r1NbBPm3C.flv?uuid=
【猫和老鼠】相亲相爱的一家人,http://dyscdnali1.douyucdn.cn/live/7888428rFnqIDK1i.flv?uuid=
【拳叔】那些经典的动漫,http://dyscdnali1.douyucdn.cn/live/9484105r1MmH2OwW.flv?uuid=
【樱木花道灌篮】PP动漫精彩解说,http://dyscdnali1.douyucdn.cn/live/9837291rl16sGybx.flv?uuid=
【神剧】经典神剧,http://dyscdnali1.douyucdn.cn/live/3700024rpw4YsCWm.flv?uuid=
【贝爷MAX厅】科幻动作经典喜剧,http://dyscdnali1.douyucdn.cn/live/4332rHiptPWLitC2.flv?uuid=
【贝爷影厅】经典科幻动作灾难巨兽,http://dyscdnali1.douyucdn.cn/live/252802rcqp1Q6MgI.flv?uuid=
【女神金】60帧极致蓝光刀刀陪看,http://dyscdnali1.douyucdn.cn/live/747764rr7m3QcnAb.flv?uuid=
【西游】由爱故生怨，怨恨交缠，那又何苦,http://dyscdnali1.douyucdn.cn/live/9518204reRiWHU20.flv?uuid=
狄仁杰：想听听我的故事吗,http://dyscdnali1.douyucdn.cn/live/674441rW6OK3GRuS.flv?uuid=
【牛叔】N分钟带你看完大片,http://dyscdnali1.douyucdn.cn/live/2758565rXfu5x1d6.flv?uuid=
【科幻Fans】精彩科幻影视，解说连连看,http://dyscdnali1.douyucdn.cn/live/3508304rFLUSHJkz.flv?uuid=
最新奇幻电影解说-宇宙无敌韩三金,http://dyscdnali1.douyucdn.cn/live/3194372rruALngds.flv?uuid=
【女团】精选韩国现场饭拍MV,http://dyscdnali1.douyucdn.cn/live/231464rNBvAvw55m.flv?uuid=
🚩Bilibili(Exo播放器),#genre#
哆啦A梦新番24小时连播蓝胖子24小时播放,http://106.53.212.251/daili/bili.php?id=482946
【哆啦A梦】旧版全集,http://106.53.212.251/daili/bili.php?id=1717236
中华小当家中华一番FHD-233,http://106.53.212.251/daili/bili.php?id=655291
樱桃小丸子蜡笔小新蓝光特别版,http://106.53.212.251/daili/bili.php?id=21614203
樱桃小丸子国语台配,http://106.53.212.251/daili/bili.php?id=11765640
经典动漫（推理、童年、灵异）,http://106.53.212.251/daili/bili.php?id=4089143
【国语】新版旧版我们这一家24H高清陪伴,http://106.53.212.251/daili/bili.php?id=14901318
哆啦A梦新版高清【国语】,http://106.53.212.251/daili/bili.php?id=12811814
开心汉堡店怪诞小镇24h轮播,http://106.53.212.251/daili/bili.php?id=2308015
猫和老鼠大电影（24循环播放）,http://106.53.212.251/daili/bili.php?id=22905626
童年回忆杀!国语犬夜叉!24h不间断直播,http://106.53.212.251/daili/bili.php?id=23089518
【周星驰】喜剧动作僵尸24H,http://106.53.212.251/daili/bili.php?id=47917
铁齿铜牙纪晓岚有片头片尾勿喷,http://106.53.212.251/daili/bili.php?id=22665698
新白娘子传奇。24小时经典轮播,http://106.53.212.251/daili/bili.php?id=5960549
雍正王朝九子夺嫡,http://106.53.212.251/daili/bili.php?id=21205932
封神演义等怀旧影视轮播,http://106.53.212.251/daili/bili.php?id=23644724
【松鼠精选】动作片专场丨全明星阵容,http://106.53.212.251/daili/bili.php?id=6827037
🐉央视,#genre#
CCTV-1综合,http://117.148.179.155/PLTV/88888888/224/3221231468/index.m3u8
CCTV-2财经,http://117.148.179.147/PLTV/88888888/224/3221231678/index.m3u8
CCTV-3综艺,http://117.148.179.183/PLTV/88888888/224/3221231682/index.m3u8
CCTV-4中文国际,http://117.148.179.182/PLTV/88888888/224/3221231726/index.m3u8
CCTV-5体育,http://112.74.200.9:88/tv000000/m3u8.php?/migu/641886683
CCTV-5体育,http://iptv.tvfix.org/hls/cctv5hd.m3u8
CCTV-6电影,http://iptv.tvfix.org/hls/cctv6hd.m3u8
CCTV-7国防军事,http://117.148.179.160/PLTV/88888888/224/3221231633/index.m3u8
CCTV-8电视剧,http://117.148.179.160/PLTV/88888888/224/3221231694/index.m3u8
CCTV-9纪录,http://117.148.179.162/PLTV/88888888/224/3221231697/index.m3u8
CCTV-10科教,http://117.148.179.175/PLTV/88888888/224/3221231666/index.m3u8
CCTV-11戏曲,http://117.148.179.164/PLTV/88888888/224/3221231711/index.m3u8
CCTV-12社会与法,http://117.148.179.150/PLTV/88888888/224/3221231660/index.m3u8
CCTV-13新闻,http://iptv.tvfix.org/hls/cctv13hd.m3u8
CCTV-13新闻,http://39.135.138.60:18890/PLTV/88888910/224/3221225638/index.m3u8
CCTV-14少儿,http://117.148.179.182/PLTV/88888888/224/3221231648/index.m3u8
CCTV-15音乐,http://117.148.179.169/PLTV/88888888/224/3221231693/index.m3u8
CCTV-16奥林匹克,http://117.148.179.157/PLTV/88888888/224/3221233392/index.m3u8
CCTV-16奥林匹克,http://liveop.cctv.cn/hls/CCTV16HD/playlist.m3u8
CCTV-16奥林匹克,http://117.148.179.157/PLTV/88888888/224/3221233403/index.m3u8
CCTV-16奥林匹克,http://117.148.179.157/PLTV/88888888/224/3221233409/index.m3u8
CCTV-16奥林匹克,http://117.148.179.157/PLTV/88888888/224/3221233406/index.m3u8
CCTV-17农业农村,http://129.226.106.4/zycfcdn.gdwlcloud.com/PLTV/88888888/224/3221225608/index.m3u8
CCTV-1综合,http://iptv.tvfix.org/hls/cctv1hd.m3u8
CCTV-2财经,http://iptv.tvfix.org/hls/cctv2hd.m3u8
CCTV-3综艺,http://iptv.tvfix.org/hls/cctv3hd.m3u8
CCTV-4中文国际,http://iptv.tvfix.org/hls/cctv4hd.m3u8
CCTV-7国防军事,http://iptv.tvfix.org/hls/cctv7hd.m3u8
CCTV-8电视剧,http://iptv.tvfix.org/hls/cctv8hd.m3u8
CCTV-9纪录,http://iptv.tvfix.org/hls/cctv9hd.m3u8
CCTV-10科教,http://iptv.tvfix.org/hls/cctv10hd.m3u8
CCTV-11戏曲,http://iptv.tvfix.org/hls/cctv11hd.m3u8
CCTV-12社会与法,http://iptv.tvfix.org/hls/cctv12hd.m3u8
CCTV-14少儿,http://iptv.tvfix.org/hls/cctv14hd.m3u8
CCTV-15音乐,http://iptv.tvfix.org/hls/cctv15hd.m3u8
CCTV-16奥林匹克,http://iptv.tvfix.org/hls/cctv16hd.m3u8
CCTV-17农业农村,http://iptv.tvfix.org/hls/cctv17hd.m3u8
CCTV-1综合,http://39.135.138.60:18890/PLTV/88888910/224/3221225618/index.m3u8
CCTV-1综合,http://cctvalih5ca.v.myalicdn.com/live/cctv1_2/index.m3u8
CCTV-1综合,http://39.134.39.39/PLTV/88888888/224/3221226247/index.m3u8
CCTV-1综合,http://39.135.34.142:8080/000000001000/1000000001000021973/1.m3u8?
CCTV-1综合,http://39.134.39.39/270000001322/69900158041111100000002133/index.m3u8
CCTV-1综合,http://39.134.115.163:8080/PLTV/88888910/224/3221225618/index.m3u8
CCTV-2财经,http://39.135.138.60:18890/PLTV/88888910/224/3221225619/index.m3u8
CCTV-2财经,http://cctvalih5ca.v.myalicdn.com/live/cctv2_2/index.m3u8
CCTV-2财经,http://39.136.18.76/cdnrrs.gz.chinamobile.com/PLTV/88888888/224/3221225706/1/index.m3u8?fmt=ts2hls
CCTV-2财经,http://39.134.115.163:8080/PLTV/88888910/224/3221225619/index.m3u8
CCTV-2财经,http://39.134.39.4/PLTV/88888888/224/3221226220/index.m3u8
CCTV-2财经,http://39.135.34.142:8080/000000001000/1000000001000012442/1.m3u8?
CCTV-2财经,http://112.74.200.9:88/tv000000/m3u8.php?/migu/672926537
CCTV-2财经,http://39.134.39.39/270000001322/69900158041111100000002135/index.m3u8
CCTV-3综艺,http://39.135.138.60:18890/PLTV/88888910/224/3221225647/index.m3u8
CCTV-3综艺,http://39.136.18.76/cdnrrs.gz.chinamobile.com/PLTV/88888888/224/3221226008/1/index.m3u8?fmt=ts2hls
CCTV-3综艺,http://39.134.115.163:8080/PLTV/88888910/224/3221225647/index.m3u8
CCTV-3综艺,http://39.135.34.142:8080/000000001000/1000000001000011218/1.m3u8?
CCTV-3综艺,http://112.74.200.9:88/tv000000/m3u8.php?/migu/624878271
CCTV-4中文国际,http://cctvalih5ca.v.myalicdn.com/live/cctv4_2/index.m3u8
CCTV-4中文国际,http://39.135.34.142:8080/000000001000/1000000002000031664/1.m3u8?
CCTV-4中文国际,http://39.134.39.39/270000001322/69900158041111100000002173/index.m3u8
CCTV-4中文国际,http://183.207.248.71:80/cntv/live1/cctv-4/cctv-4
CCTV-4中文国际,http://39.134.115.163:8080/PLTV/88888910/224/3221225621/index.m3u8
CCTV-5体育,http://39.134.115.163:8080/PLTV/88888910/224/3221225633/index.m3u8
CCTV-5体育,http://39.135.34.142:8080/000000001000/1000000001000004794/1.m3u8?
CCTV-6电影,http://39.135.138.59:18890/PLTV/88888910/224/3221225650/index.m3u8
CCTV-6电影,http://183.207.248.71:80/cntv/live1/cctv-6/cctv-6
CCTV-6电影,http://112.74.200.9:88/tv000000/m3u8.php?/migu/624878396
CCTV-7国防军事,http://39.135.138.60:18890/PLTV/88888910/224/3221225624/index.m3u8
CCTV-7国防军事,http://39.135.32.29:6610/000000001000/1000000001000017218/1.m3u8?
CCTV-7国防军事,http://cctvalih5ca.v.myalicdn.com/live/cctv7_2/index.m3u8
CCTV-7国防军事,http://39.134.39.39/270000001322/69900158041111100000002141/index.m3u8
CCTV-7国防军事,http://39.135.34.142:8080/000000001000/1000000001000017218/1.m3u8?
CCTV-7国防军事,http://112.74.200.9:88/tv000000/m3u8.php?/migu/673168121
CCTV-8电视剧,http://39.135.138.60:18890/PLTV/88888910/224/3221225635/index.m3u8
CCTV-8电视剧,http://39.134.115.163:8080/PLTV/88888910/224/3221225635/index.m3u8
CCTV-8电视剧,http://117.169.124.36:6610/ysten-businessmobile/live/cctv-8/1.m3u8
CCTV-8电视剧,http://112.74.200.9:88/tv000000/m3u8.php?/migu/624878356
CCTV-9纪录,http://39.135.138.59:18890/PLTV/88888910/224/3221225626/index.m3u8
CCTV-9纪录,http://39.134.39.39/270000001322/69900158041111100000002144/index.m3u8
CCTV-9纪录,http://39.135.34.142:8080/000000001000/1000000001000014583/1.m3u8?
CCTV-9纪录,http://112.74.200.9:88/tv000000/m3u8.php?/migu/673168140
CCTV-10科教,http://39.135.138.59:18890/PLTV/88888910/224/3221225627/index.m3u8
CCTV-10科教,http://cctvalih5ca.v.myalicdn.com/live/cctv10_2/index.m3u8
CCTV-10科教,http://39.134.39.39/270000001322/69900158041111100000002146/index.m3u8
CCTV-10科教,http://39.135.34.142:8080/000000001000/1000000001000023734/1.m3u8?
CCTV-10科教,http://112.74.200.9:88/tv000000/m3u8.php?/migu/624878405
CCTV-11戏曲,http://cctvalih5ca.v.myalicdn.com/live/cctv11_2/index.m3u8
CCTV-11戏曲,http://39.135.34.142:8080/000000001000/1000000002000019789/1.m3u8?
CCTV-11戏曲,http://39.134.39.39/270000001322/69900158041111100000002177/index.m3u8
CCTV-11戏曲,http://183.207.248.71:80/cntv/live1/n-cctv-11/n-cctv-11
CCTV-11戏曲,http://112.74.200.9:88/tv000000/m3u8.php?/migu/672923822
CCTV-12社会与法,http://39.135.138.59:18890/PLTV/88888910/224/3221225629/index.m3u8
CCTV-12社会与法,http://39.135.32.29:6610/000000001000/1000000001000032494/1.m3u8?
CCTV-12社会与法,http://cctvalih5ca.v.myalicdn.com/live/cctv12_2/index.m3u8
CCTV-12社会与法,http://39.134.39.39/270000001322/69900158041111100000002147/index.m3u8
CCTV-12社会与法,http://39.135.34.142:8080/000000001000/1000000001000032494/1.m3u8?
CCTV-12社会与法,http://112.74.200.9:88/tv000000/m3u8.php?/migu/673168185
CCTV-13新闻,http://39.135.138.60:18890/PLTV/88888910/224/3221225638/index.m3u8
CCTV-13新闻,http://cctvalih5ca.v.myalicdn.com/live/cctv13_2/index.m3u8
CCTV-13新闻,http://39.135.34.142:8080/000000001000/1000000002000021303/1.m3u8?
CCTV-13新闻,http://39.134.39.39/270000001322/69900158041111100000002179/index.m3u8
CCTV-13新闻,http://183.207.248.71:80/cntv/live1/cctv-13/cctv-13
CCTV-13新闻,http://112.74.200.9:88/tv000000/m3u8.php?/migu/672922360
CCTV-14少儿,http://39.135.34.142:8080/000000001000/1000000001000008170/1.m3u8?
CCTV-14少儿,http://39.134.66.66/PLTV/88888888/224/3221225674/index.m3u8
CCTV-14少儿,http://39.134.115.163:8080/PLTV/88888910/224/3221225639/index.m3u8
CCTV-14少儿,http://112.74.200.9:88/tv000000/m3u8.php?/migu/624878440
CCTV-15音乐,http://cctvalih5ca.v.myalicdn.com/live/cctv15_2/index.m3u8
CCTV-15音乐,http://39.135.34.142:8080/000000001000/1000000002000008163/1.m3u8?
CCTV-15音乐,rtsp://183.252.176.54:554/PLTV/88888888/224/3221225998/10000100000000060000000002296745_0.smil
CCTV-15音乐,http://183.207.248.71:80/cntv/live1/n-cctv-15/n-cctv-15
CCTV-15音乐,http://112.74.200.9:88/tv000000/m3u8.php?/migu/673168223
CCTV-17农业农村,http://39.134.115.163:8080/PLTV/88888910/224/3221225908/index.m3u8
CCTV-17农业农村,http://cctvalih5ca.v.myalicdn.com/live/cctv17_2/index.m3u8
CCTV-17农业农村,http://39.134.115.163:8080/PLTV/88888910/224/3221225908/index.m3u8
CCTV-17农业农村,http://183.207.248.71:80/cntv/live1/HD-8000k-1080P-cctv17/HD-8000k-1080P-cctv17
CCTV-17农业农村,http://112.74.200.9:88/tv000000/m3u8.php?/migu/673168256
CCTV-5+体育赛事,http://117.148.179.136/PLTV/88888888/224/3221231459/index.m3u8
CCTV-5+体育赛事,http://iptv.tvfix.org/hls/cctv5phd.m3u8
CCTV-5+体育赛事,http://39.135.34.142:8080/000000001000/1000000001000020505/1.m3u8?
CCTV-5+体育赛事,http://39.134.39.39/270000001322/69900158041111100000002139/index.m3u8
CCTV-5+体育赛事,http://39.134.115.163:8080/PLTV/88888910/224/3221225649/index.m3u8
中央新影-发现之旅,http://183.207.248.71/gitv/live1/G_FAXIANZL/G_FAXIANZL
中国天气,http://140.207.241.2:8080/live/program/live/zgqx/1300000/mnf.m3u8
清华大学电视台,http://live.cic.tsinghua.edu.cn/hls/tsinghuatv.m3u8
CNC中文,http://39.135.138.59:18890/PLTV/88888910/224/3221225694/index.m3u8
CNC英文,http://39.135.138.59:18890/PLTV/88888910/224/3221225693/index.m3u8
CNC英文,http://source07.v.news.cn/live/CNC_EN/playlist.m3u8
CGTN,http://39.130.202.115:6610/gitv_live/G_CGTN-HD/G_CGTN-HD.m3u8
CGTN,http://112.74.200.9:88/tv000000/m3u8.php?/migu/609017205
CGTN纪录,http://112.74.200.9:88/tv000000/m3u8.php?/migu/609006487
CGTN阿拉伯语,http://112.74.200.9:88/tv000000/m3u8.php?/migu/609154345
CGTN法语,http://112.74.200.9:88/tv000000/m3u8.php?/migu/609006476
CGTN西班牙语,http://112.74.200.9:88/tv000000/m3u8.php?/migu/609006450
CGTN俄语,http://112.74.200.9:88/tv000000/m3u8.php?/migu/609006446
CETV-1,http://112.74.200.9:88/tv000000/m3u8.php?/migu/649531734
CETV-2,http://112.74.200.9:88/tv000000/m3u8.php?/migu/649532169
CETV-3,http://112.74.200.9:88/tv000000/m3u8.php?/migu/649531756
CETV-4,http://112.74.200.9:88/tv000000/m3u8.php?/migu/649531725
CETV-1,http://111.63.117.13:6060/030000001000/G_CETV-1/G_CETV-1.m3u8
CETV-2,http://111.63.117.13:6060/030000001000/G_CETV-2/G_CETV-2.m3u8
CETV-4,http://111.63.117.13:6060/030000001000/G_CETV-4/G_CETV-4.m3u8
CETV-1,http://iptv.tvfix.org/hls/cetv1hd.m3u8
CETV-3,http://iptv.tvfix.org/hls/cetv3.m3u8
CETV-4,http://iptv.tvfix.org/hls/cetv4.m3u8
CCTV-4中文国际-欧洲HD,http://117.148.179.162/PLTV/88888888/224/3221231615/index.m3u8
CCTV-4中文国际-美洲HD,http://117.148.179.160/PLTV/88888888/224/3221231654/index.m3u8
CCTV-怀旧剧场,http://117.148.179.158/PLTV/88888888/224/3221231544/index.m3u8
CCTV-第一剧场,http://117.148.179.172/PLTV/88888888/224/3221231540/index.m3u8
CCTV-风云剧场,http://117.148.179.162/PLTV/88888888/224/3221231604/index.m3u8
CCTV-风云足球,http://117.148.179.137/PLTV/88888888/224/3221231547/index.m3u8
CCTV-世界地理,http://117.148.179.156/PLTV/88888888/224/3221231537/index.m3u8
CCTV-女性时尚,http://117.148.179.167/PLTV/88888888/224/3221231598/index.m3u8
CCTV-央视台球,http://117.148.179.167/PLTV/88888888/224/3221231616/index.m3u8
CCTV-高尔夫网球,http://117.148.179.160/PLTV/88888888/224/3221231619/index.m3u8
CCTV-央视文化精品,http://117.148.179.147/PLTV/88888888/224/3221231561/index.m3u8
CETV-1,http://117.148.179.156/PLTV/88888888/224/3221231714/index.m3u8
CETV-1,http://117.148.179.149/PLTV/88888888/224/3221231552/index.m3u8
CETV-2,http://117.148.179.162/PLTV/88888888/224/3221231607/index.m3u8
CETV-3,http://117.148.179.136/PLTV/88888888/224/3221231543/index.m3u8
CETV-4,http://112.15.230.48/PLTV/88888888/224/3221230334/index.m3u8
CETV-4,http://117.148.179.155/PLTV/88888888/224/3221231613/index.m3u8


🐼央视2,#genre#
CCTV1,http://39.134.115.163:8080/PLTV/88888910/224/3221225642/index.m3u8
CCTV2,http://39.134.115.163:8080/PLTV/88888910/224/3221225643/index.m3u8
CCTV3,http://39.134.115.163:8080/PLTV/88888910/224/3221225634/index.m3u8
CCTV4,http://39.134.115.163:8080/PLTV/88888910/224/3221225621/index.m3u8
CCTV5,http://39.134.115.163:8080/PLTV/88888910/224/3221225633/index.m3u8
CCTV5+,http://39.134.115.163:8080/PLTV/88888910/224/3221225706/index.m3u8
CCTV6,http://39.134.115.163:8080/PLTV/88888910/224/3221225632/index.m3u8
CCTV7,http://39.134.115.163:8080/PLTV/88888910/224/3221225644/index.m3u8
CCTV8,http://39.134.115.163:8080/PLTV/88888910/224/3221225631/index.m3u8
CCTV9,http://39.134.115.163:8080/PLTV/88888910/224/3221225646/index.m3u8
CCTV10,http://39.134.115.163:8080/PLTV/88888910/224/3221225636/index.m3u8
CCTV11,http://39.134.115.163:8080/PLTV/88888910/224/3221225628/index.m3u8
CCTV12,http://39.134.115.163:8080/PLTV/88888910/224/3221225637/index.m3u8
CCTV13,http://39.134.115.163:8080/PLTV/88888910/224/3221225638/index.m3u8
CCTV14,http://39.134.115.163:8080/PLTV/88888910/224/3221225640/index.m3u8
CCTV15,http://39.134.115.163:8080/PLTV/88888910/224/3221225641/index.m3u8
CCTV16,http://117.148.179.157/PLTV/88888888/224/3221233403/index.m3u8
CCTV17,http://39.134.115.163:8080/PLTV/88888910/224/3221225908/index.m3u8
CCTV-高尔夫网球,http://39.136.66.40/cdnrrs.gz.chinamobile.com/PLTV/88888888/224/3221225674/1/index.m3u8?fmt=ts2hls
CCTV-文化精品,http://39.136.66.40/cdnrrs.gz.chinamobile.com/PLTV/88888888/224/3221225675/1/index.m3u8?fmt=ts2hls
CCTV-电视指南,http://39.136.66.40/cdnrrs.gz.chinamobile.com/PLTV/88888888/224/3221225673/1/index.m3u8?fmt=ts2hls
CCTV-兵器科技,http://39.136.66.40/cdnrrs.gz.chinamobile.com/PLTV/88888888/224/3221225676/1/index.m3u8?fmt=ts2hls
CCTV-风云音乐,http://39.136.66.40/cdnrrs.gz.chinamobile.com/PLTV/88888888/224/3221225698/1/index.m3u8?fmt=ts2hls
CCTV-女性时尚,http://39.136.66.40/cdnrrs.gz.chinamobile.com/PLTV/88888888/224/3221225699/1/index.m3u8?fmt=ts2hls
CCTV-风云剧场,http://39.136.66.40/cdnrrs.gz.chinamobile.com/PLTV/88888888/224/3221225700/1/index.m3u8?fmt=ts2hls
CCTV-第一剧场,http://39.136.66.40/cdnrrs.gz.chinamobile.com/PLTV/88888888/224/3221225702/1/index.m3u8?fmt=ts2hls
CCTV-世界地理,http://39.136.66.40/cdnrrs.gz.chinamobile.com/PLTV/88888888/224/3221225733/1/index.m3u8?fmt=ts2hls
CCTV-风云足球,http://39.136.66.40/cdnrrs.gz.chinamobile.com/PLTV/88888888/224/3221225734/1/index.m3u8?fmt=ts2hls
CCTV-怀旧剧场,http://39.136.66.40/cdnrrs.gz.chinamobile.com/PLTV/88888888/224/3221225765/1/index.m3u8?fmt=ts2hls
CCTV-高尔夫网球 25fps,http://39.136.66.40/cdnrrs.gz.chinamobile.com/PLTV/88888888/224/3221226114/1/index.m3u8?fmt=ts2hls
CCTV-文化精品 25fps,http://39.136.66.40/cdnrrs.gz.chinamobile.com/PLTV/88888888/224/3221226100/1/index.m3u8?fmt=ts2hls
CCTV-电视指南 25fps,http://39.136.66.40/cdnrrs.gz.chinamobile.com/PLTV/88888888/224/3221226120/1/index.m3u8?fmt=ts2hls
CCTV-兵器科技 25fps,http://39.136.66.40/cdnrrs.gz.chinamobile.com/PLTV/88888888/224/3221226111/1/index.m3u8?fmt=ts2hls
CCTV-风云音乐 25fps,http://39.136.66.40/cdnrrs.gz.chinamobile.com/PLTV/88888888/224/3221226083/1/index.m3u8?fmt=ts2hls
CCTV-风云剧场 25fps,http://39.136.66.40/cdnrrs.gz.chinamobile.com/PLTV/88888888/224/3221226107/1/index.m3u8?fmt=ts2hls
CCTV-第一剧场 25fps,http://39.136.66.40/cdnrrs.gz.chinamobile.com/PLTV/88888888/224/3221226124/1/index.m3u8?fmt=ts2hls
CCTV-世界地理 25fps,http://39.136.66.40/cdnrrs.gz.chinamobile.com/PLTV/88888888/224/3221226071/1/index.m3u8?fmt=ts2hls
CCTV-风云足球 25fps,http://39.136.66.40/cdnrrs.gz.chinamobile.com/PLTV/88888888/224/3221226153/1/index.m3u8?fmt=ts2hls
CCTV-怀旧剧场 25fps,http://39.136.66.40/cdnrrs.gz.chinamobile.com/PLTV/88888888/224/3221226097/1/index.m3u8?fmt=ts2hls
CCTV-央视台球 25fps,http://39.136.66.40/cdnrrs.gz.chinamobile.com/PLTV/88888888/224/3221226117/1/index.m3u8?fmt=ts2hls
CCTV-央视台球 25FPS,http://39.136.66.40/cdnrrs.gz.chinamobile.com/PLTV/88888888/224/3221226156/1/index.m3u8?fmt=ts2hls


🐇卫视,#genre#
北京卫视,http://117.148.179.168/PLTV/88888888/224/3221231732/index.m3u8
天津卫视,http://117.148.179.146/PLTV/88888888/224/3221228905/index.m3u8
东方卫视,http://117.148.179.160/PLTV/88888888/224/3221231738/index.m3u8
东方卫视,http://129.226.106.4/zycfcdn.gdwlcloud.com/PLTV/88888888/224/3221225503/index.m3u8
东方卫视,http://223.110.245.165/ott.js.chinamobile.com/PLTV/3/224/3221227688/index.m3u8
东南卫视,http://iptv.tvfix.org/hls/dnhd.m3u8
北京卫视,http://129.226.106.4/zycfcdn.gdwlcloud.com/PLTV/88888888/224/3221225502/index.m3u8
山东卫视,http://117.148.179.137/PLTV/88888888/224/3221227909/index.m3u8
山东卫视,rtsp://183.252.166.199/PLTV/88888888/224/3221226090/10000100000000060000000002296928_0.smil
广东卫视,http://117.148.179.141/PLTV/88888888/224/3221231891/index.m3u8
广东卫视,http://129.226.106.4/zycfcdn.gdwlcloud.com/PLTV/88888888/224/3221225589/index.m3u8
江苏卫视,http://117.148.179.175/PLTV/88888888/224/3221231447/index.m3u8
江苏卫视,http://129.226.106.4/zycfcdn.gdwlcloud.com/PLTV/88888888/224/3221225504/index.m3u8
浙江卫视,http://117.148.179.140/PLTV/88888888/224/3221229352/index.m3u8
浙江卫视,http://129.226.106.4/zycfcdn.gdwlcloud.com/PLTV/88888888/224/3221225505/index.m3u8
海南卫视,rtsp://183.252.166.199/PLTV/88888888/224/3221226048/10000100000000060000000002296889_0.smil
三沙卫视,rtsp://183.252.166.199/PLTV/88888888/224/3221226819/57526516.smil
湖北卫视,http://117.148.179.142/PLTV/88888888/224/3221231888/index.m3u8
湖北卫视,rtsp://183.252.166.199/PLTV/88888888/224/3221226091/10000100000000060000000002296929_0.smil
湖南卫视,http://117.148.179.172/PLTV/88888888/224/3221231729/index.m3u8
湖南卫视,http://129.226.106.4/zycfcdn.gdwlcloud.com/PLTV/88888888/224/3221225506/index.m3u8
贵州卫视,http://129.226.106.4/zycfcdn.gdwlcloud.com/PLTV/88888888/224/3221225586/index.m3u8
湖北卫视,http://39.134.135.126/otttv.bj.chinamobile.com/TVOD/88888888/224/3221226240/1.m3u8
甘肃卫视,http://39.134.39.39/PLTV/88888888/224/3221226240/index.m3u8
浙江卫视,http://39.134.39.39/270000001322/69900158041111100000002206/index.m3u8
浙江卫视,http://223.110.243.173/PLTV/3/224/3221227215/index.m3u8
浙江卫视,http://39.134.115.163:8080/PLTV/88888910/224/3221225703/index.m3u8
浙江卫视,http://39.134.115.163:8080/PLTV/88888910/224/3221225744/index.m3u8
浙江卫视,http://39.134.39.4/PLTV/88888888/224/3221226144/index.m3u8
浙江卫视,http://39.134.66.2/PLTV/88888888/224/3221225514/index.m3u8
浙江卫视,http://hw-m-l.cztv.com/channels/lantian/channel001/1080p.m3u8
浙江卫视,http://hw-m-l.cztv.com/channels/lantian/channel01/1080p.m3u8
浙江卫视,http://hw-m-l.cztv.com/channels/lantian/channel13/1080p.m3u8
东方卫视,http://223.110.243.138/PLTV/3/224/3221227208/index.m3u8
东方卫视,http://39.134.115.163:8080/PLTV/88888910/224/3221225658/index.m3u8
东方卫视,http://39.134.115.163:8080/PLTV/88888910/224/3221225659/index.m3u8
东方卫视,http://39.134.39.4/PLTV/88888888/224/3221226155/index.m3u8
东方卫视,http://39.134.39.39/270000001322/69900158041111100000002207/index.m3u8
东方卫视,http://112.74.200.9:88/tv000000/m3u8.php?/migu/651625930
深圳卫视,http://129.226.106.4/zycfcdn.gdwlcloud.com/PLTV/88888888/224/3221225592/index.m3u8
深圳卫视,http://223.110.243.171/PLTV/3/224/3221227217/index.m3u8
深圳卫视,http://223.110.245.157/ott.js.chinamobile.com/PLTV/3/224/3221227695/index.m3u8
深圳卫视,http://39.134.115.163:8080/PLTV/88888910/224/3221225700/index.m3u8
深圳卫视,http://39.134.115.163:8080/PLTV/88888910/224/3221225741/index.m3u8
深圳卫视,http://39.134.39.4/PLTV/88888888/224/3221226199/index.m3u8
深圳卫视,http://39.134.39.39/270000001322/69900158041111100000002140/index.m3u8
山东卫视,http://223.110.243.157/ott.js.chinamobile.com/PLTV/3/224/3221227671/index.m3u8
山东卫视,http://39.134.115.163:8080/PLTV/88888910/224/3221225697/index.m3u8
山东卫视,http://39.134.115.163:8080/PLTV/88888910/224/3221225738/index.m3u8
山东卫视,http://39.134.39.4/PLTV/88888888/224/3221226162/index.m3u8
山东卫视,http://39.134.39.39/270000001322/69900158041111100000002202/index.m3u8
湖南卫视,http://223.110.245.151/ott.js.chinamobile.com/PLTV/3/224/3221227698/index.m3u8
湖南卫视,http://39.134.115.163:8080/PLTV/88888910/224/3221225704/index.m3u8
湖南卫视,http://39.134.115.163:8080/PLTV/88888910/224/3221225745/index.m3u8
湖南卫视,http://39.134.39.4/PLTV/88888888/224/3221226193/index.m3u8
湖南卫视,http://39.134.66.2/PLTV/88888888/224/3221225506/index.m3u8
湖南卫视,http://39.134.39.39/270000001322/69900158041111100000002143/index.m3u8
湖南卫视,http://183.207.248.71:80/cntv/live1/hunanstv/hunanstv
安徽卫视,http://117.148.179.177/PLTV/88888888/224/3221230215/index.m3u8
重庆卫视,http://iptv.tvfix.org/hls/cqhd.m3u8
重庆卫视,http://223.110.243.165/ott.js.chinamobile.com/PLTV/3/224/3221227550/index.m3u8
重庆卫视,http://39.135.32.29:6610/000000001000/1000000002000018937/1.m3u8?
重庆卫视,http://39.135.138.59:18890/PLTV/88888910/224/3221225734/index.m3u8
吉林卫视,http://129.226.106.4/zycfcdn.gdwlcloud.com/PLTV/88888888/224/3221225598/index.m3u8
吉林卫视,http://39.134.39.39/270000001322/69900158041111100000002224/index.m3u8
吉林卫视,http://39.134.71.75/ott.js.chinamobile.com/PLTV/3/224/3221228028/index.m3u8
吉林卫视,http://112.74.200.9:88/tv000000/m3u8.php?/migu/630288397
辽宁卫视,http://117.148.179.152/PLTV/88888888/224/3221231802/index.m3u8
辽宁卫视,http://129.226.106.4/zycfcdn.gdwlcloud.com/PLTV/88888888/224/3221225593/index.m3u8
辽宁卫视,http://hwrr.jx.chinamobile.com:8080/PLTV/88888888/224/3221225735/index.m3u8
辽宁卫视,http://39.134.115.163:8080/PLTV/88888910/224/3221225735/index.m3u8
辽宁卫视,http://39.134.39.4/PLTV/88888888/224/3221226209/index.m3u8
辽宁卫视,http://39.134.39.39/270000001322/69900158041111100000002201/index.m3u8
辽宁卫视,http://112.74.200.9:88/tv000000/m3u8.php?/migu/630291707
甘肃卫视,http://39.134.39.39/PLTV/88888888/224/3221226240/index.m3u8
甘肃卫视,http://39.134.39.4/PLTV/88888888/224/3221226240/index.m3u8
甘肃卫视,http://39.134.71.75/ott.js.chinamobile.com/PLTV/3/224/3221225846/index.m3u8
甘肃卫视,http://39.134.39.39/270000001322/69900158041111100000002160/index.m3u8
甘肃卫视,http://183.207.248.71:80/cntv/live1/n-gansustv/n-gansustv
甘肃卫视,http://112.74.200.9:88/tv000000/m3u8.php?/migu/630287549
山西卫视,http://39.134.39.39/270000001322/69900158041111100000002214/index.m3u8
山西卫视,http://112.74.200.9:88/tv000000/m3u8.php?/migu/630289043
山西卫视,http://hwrr.jx.chinamobile.com:8080/PLTV/88888888/224/3221225549/index.m3u8?fmt=ts2hls
湖北卫视,http://223.110.243.171/PLTV/3/224/3221227211/index.m3u8
湖北卫视,http://223.110.245.157/ott.js.chinamobile.com/PLTV/3/224/3221227665/index.m3u8
湖北卫视,http://39.134.115.163:8080/PLTV/88888910/224/3221225699/index.m3u8
湖北卫视,http://39.134.115.163:8080/PLTV/88888910/224/3221225740/index.m3u8
湖北卫视,http://39.134.39.39/PLTV/88888888/224/3221226159/index.m3u8
湖北卫视,http://39.134.39.4/PLTV/88888888/224/3221226159/index.m3u8
湖北卫视,http://39.134.39.39/270000001322/69900158041111100000002204/index.m3u8
湖北卫视,http://183.207.248.71:80/cntv/live1/HD-2500k-1080P-hubeistv/HD-2500k-1080P-hubeistv
湖北卫视,http://112.74.200.9:88/tv000000/m3u8.php?/migu/630292423
江西卫视,http://117.148.179.141/PLTV/88888888/224/3221231964/index.m3u8
江西卫视,http://129.226.106.4/zycfcdn.gdwlcloud.com/PLTV/88888888/224/3221225599/index.m3u8
江西卫视,http://39.134.115.163:8080/PLTV/88888910/224/3221225705/index.m3u8
江西卫视,http://39.134.39.4/PLTV/88888888/224/3221226207/index.m3u8
江西卫视,http://39.134.71.75/ott.js.chinamobile.com/PLTV/3/224/3221225536/index.m3u8
江西卫视,http://183.207.248.71:80/cntv/live1/jiangxistv/jiangxistv
江西卫视,http://112.74.200.9:88/tv000000/m3u8.php?/migu/630290852
云南卫视,http://129.226.106.4/zycfcdn.gdwlcloud.com/PLTV/88888888/224/3221226063/index.m3u8
云南卫视,http://183.207.248.71:80/cntv/live1/n-yntv1/n-yntv1
云南卫视,http://39.134.39.39/270000001322/69900158041111100000002230/index.m3u8
云南卫视,http://112.74.200.9:88/tv000000/m3u8.php?/migu/630291417
贵州卫视,http://39.134.39.39/270000001322/69900158041111100000002231/index.m3u8
贵州卫视,http://112.74.200.9:88/tv000000/m3u8.php?/migu/631094827
贵州卫视,http://39.134.71.75/ott.js.chinamobile.com/PLTV/3/224/3221227551/index.m3u8
四川卫视,http://117.148.179.142/PLTV/88888888/224/3221231885/index.m3u8
四川卫视,http://129.226.106.4/zycfcdn.gdwlcloud.com/PLTV/88888888/224/3221225600/index.m3u8
四川卫视,http://183.207.248.71:80/cntv/live1/n-sichuanstv/n-sichuanstv
四川卫视,http://39.134.39.39/270000001322/69900158041111100000002219/index.m3u8
四川卫视,http://112.74.200.9:88/tv000000/m3u8.php?/migu/630288361
北京卫视,http://117.148.179.168/PLTV/88888888/224/3221231732/index.m3u8
北京卫视,http://223.110.243.173/PLTV/3/224/3221227246/index.m3u8
海峡卫视,rtsp://183.252.166.199/PLTV/88888888/224/3221226128/10000100000000060000000002434539_0.smil
海峡卫视,rtsp://183.252.176.54:554/PLTV/88888888/224/3221226128/10000100000000060000000002434539_0.smil?icpid=88888888
安多卫视,http://39.134.71.75/ott.js.chinamobile.com/PLTV/3/224/3221226999/index.m3u8
安多卫视,http://183.207.248.71:80/cntv/live1/anduostv/anduostv
安多卫视,http://stream.qhbtv.com/adws/sd/live.m3u8
农林卫视,http://hwrr.jx.chinamobile.com:8080/PLTV/88888888/224/3221226204/index.m3u8
康巴卫视,http://183.207.248.71:80/cntv/live1/SD-4000k-576P-kambatv/SD-4000k-576P-kambatv
西藏藏语,http://223.110.235.20/ott.js.chinamobile.com/PLTV/3/224/3221228022/index.m3u8
广西卫视,http://39.135.34.150:8080/000000001000/1000000002000019837/1.m3u8?I
深圳卫视,http://39.135.34.150:8080/000000001000/1000000001000011645/1.m3u8?I
山东卫视,http://39.135.34.150:8080/000000001000/1000000001000012807/1.m3u8?I
湖北卫视,http://39.135.34.150:8080/000000001000/6956052407855047826/1.m3u8?I
江西卫视,http://39.135.34.150:8080/000000001000/1000000001000013731/1.m3u8?
安徽卫视,http://39.135.34.150:8080/000000001000/4774346722046993363/1.m3u8?I
东方卫视,http://39.135.34.150:8080/000000001000/1000000001000030202/1.m3u8?I
江苏卫视,http://39.135.34.150:8080/000000001000/1000000001000004684/1.m3u8?
北京卫视,http://39.135.34.150:8080/000000001000/1000000001000017156/1.m3u8?I
天津卫视,http://39.135.34.150:8080/000000001000/1000000001000000831/1.m3u8?I
贵州卫视,http://39.135.34.150:8080/000000001000/1000000002000003169/1.m3u8?I
重庆卫视,http://39.135.34.150:8080/000000001000/1000000002000018937/1.m3u8?I
海南卫视,http://39.135.34.150:8080/000000001000/7899627377857656087/1.m3u8?I
河北卫视,http://39.135.34.150:8080/000000001000/1000000002000017118/1.m3u8?I
辽宁卫视,http://39.135.34.150:8080/000000001000/1000000002000024033/1.m3u8?I
黑龙江卫视,http://117.148.179.141/PLTV/88888888/224/3221231967/index.m3u8
黑龙江卫视,http://39.135.34.150:8080/000000001000/8467838254824392379/1.m3u8?I
甘肃卫视,http://39.135.34.150:8080/000000001000/1000000002000017827/1.m3u8?I
青海卫视,http://39.135.34.150:8080/000000001000/1000000002000013359/1.m3u8?I
山西卫视,http://39.135.34.150:8080/000000001000/1000000002000021220/1.m3u8?I
云南卫视,http://39.135.34.150:8080/000000001000/1000000002000024694/1.m3u8?I
陕西卫视,http://39.135.34.150:8080/000000001000/1000000002000007495/1.m3u8?I
吉林卫视,http://39.135.34.150:8080/000000001000/6042486520432105075/1.m3u8?I
宁夏卫视,http://39.135.34.150:8080/000000001000/1000000002000031451/1.m3u8?I
内蒙古卫视,http://39.135.34.150:8080/000000001000/1000000002000014080/1.m3u8?I
新疆卫视,http://39.135.34.150:8080/000000001000/1000000002000029441/1.m3u8?I
西藏卫视,http://39.135.34.150:8080/000000001000/6603041244077933770/1.m3u8?I
湖南卫视,http://39.135.34.150:8080/000000001000/1000000001000009115/1.m3u8?I
浙江卫视,http://39.135.34.150:8080/000000001000/1000000001000009806/1.m3u8?I
广东卫视,http://39.135.34.150:8080/000000001000/1000000001000028357/1.m3u8?I
东南卫视,http://39.135.34.150:8080/000000001000/1000000002000009263/1.m3u8?I
四川卫视,http://39.135.34.150:8080/000000001000/1000000002000016825/1.m3u8?I
安徽卫视,http://iptv.tvfix.org/hls/ahhd.m3u8
黑龙江卫视,http://iptv.tvfix.org/hls/hljhd.m3u8
辽宁卫视,http://iptv.tvfix.org/hls/lnhd.m3u8
深圳卫视,http://iptv.tvfix.org/hls/szhd.m3u8
广东卫视,http://iptv.tvfix.org/hls/gdhd.m3u8
天津卫视,http://iptv.tvfix.org/hls/tjhd.m3u8
湖北卫视,http://iptv.tvfix.org/hls/hbhd.m3u8
山东卫视,http://iptv.tvfix.org/hls/sdhd.m3u8
重庆卫视,http://iptv.tvfix.org/hls/cqhd.m3u8
东南卫视,http://iptv.tvfix.org/hls/dnhd.m3u8
四川卫视,http://iptv.tvfix.org/hls/schd.m3u8
河北卫视,http://iptv.tvfix.org/hls/hebhd.m3u8
江西卫视,http://iptv.tvfix.org/hls/jxhd.m3u8
河南卫视,http://iptv.tvfix.org/hls/hnhd.m3u8
广西卫视,http://iptv.tvfix.org/hls/gxhd.m3u8
吉林卫视,http://iptv.tvfix.org/hls/jlhd.m3u8
海南卫视,http://iptv.tvfix.org/hls/lyhd.m3u8
贵州卫视,http://iptv.tvfix.org/hls/gzhd.m3u8


👶少儿,#genre#
Bestv动画1,rtsp://183.252.166.199/PLTV/88888888/224/3221226756/45973923.smil
Bestv动画2,rtsp://183.252.166.199/PLTV/88888888/224/3221226917/57526342.smil
黑莓电竞,http://39.134.66.66/PLTV/88888888/224/3221225559/index.m3u8
哈哈炫动,http://39.135.138.59:18890/PLTV/88888910/224/3221225720/index.m3u8
哈哈炫动,http://223.110.245.163/ott.js.chinamobile.com/PLTV/3/224/3221226388/index.m3u8
金鹰卡通,http://223.110.245.145/ott.js.chinamobile.com/PLTV/3/224/3221226303/index.m3u8
金鹰卡通,http://183.207.249.5:80/PLTV/4/224/3221226303/index.m3u8?
嘉佳卡通,http://hwrr.jx.chinamobile.com:8080/PLTV/88888888/224/3221226193/index.m3u8
优漫卡通,http://223.110.243.171/PLTV/3/224/3221226982/index.m3u8
优漫卡通,http://183.207.249.15:80/PLTV/4/224/3221225933/index.m3u8?
黑莓动画,http://183.207.248.71:80/cntv/live1/donghuawg/donghuawg
动漫秀场,http://140.207.241.2:8080/live/program/live/dmxchd/4000000/mnf.m3u8
哈哈炫动,http://iptv.tvfix.org/hls/hhxdhd.m3u8
金鹰卡通,http://iptv.tvfix.org/hls/jykttv.m3u8
优漫卡通,http://iptv.tvfix.org/hls/ymkttv.m3u8
新动漫,http://iptv.tvfix.org/hls/xdmtv.m3u8
卡酷少兒,http://hsplay-360.v.btime.com/live_btime/btv_sn_20170706_s10/index.m3u8
卡酷少兒,http://ott.js.chinamobile.com/PLTV/4/224/3221226305/index.m3u8
卡酷少兒,http://183.207.248.71/gitv/live1/G_KAKU/G_KAKU
新科動漫,http://cctvtxyh5ca.liveplay.myqcloud.com/live/xinkedongman_2_hd.m3u8
金鷹卡通,http://223.110.245.145/ott.js.chinamobile.com/PLTV/3/224/3221226303/index.m3u8
優漫卡通,http://223.110.243.171/PLTV/3/224/3221226982/index.m3u8
卡酷少兒,http://otttv.bj.chinamobile.com/TVOD/88888888/224/3221226558/1.m3u8
動漫秀場,http://39.134.39.39/PLTV/88888888/224/3221226197/index.m3u8
金鹰卡通,http://39.134.115.163:8080/PLTV/88888910/224/3221225721/index.m3u8
云南少儿,http://39.130.202.81:6610/gitv_live/G_YNTVSE-HD/G_YNTVSE-HD.m3u8
南京少兒,http://live.nbs.cn/channels/njtv/sepd/m3u8:500k/live.m3u8
浙江少兒,http://hw-m-l.cztv.com/channels/lantian/channel08/1080p.m3u8?k=1a7559a51eeb880b021619a07f463ac4&t=1577153787
甘肃少儿,http://39.134.39.39/PLTV/88888888/224/3221226289/index.m3u8
福州少儿,http://live.zohi.tv/video/s10001-sepd-4/index.m3u8
深圳少儿,http://ye23.win/iptv/sztv.php?id=7
福建少儿,rtsp://183.252.166.199/PLTV/88888888/224/3221226120/10000100000000060000000002358082_0.smil
动画乐园,http://211.94.219.178:18080/PLTV/68/224/3221226406/index.m3u8
哆啦A梦,http://106.53.212.251/daili/bili.php?id=1717236
哆啦A梦新版,http://106.53.212.251/daili/bili.php?id=12811814
中华小当家,http://106.53.212.251/daili/bili.php?id=655291
樱桃小丸子,http://106.53.212.251/daili/bili.php?id=11765640
蜡笔小新,http://106.53.212.251/daili/bili.php?id=11579951
猫和老鼠,http://106.53.212.251/daili/bili.php?id=22905626
小猪佩奇,http://baiducdncmn2.inter.iqiyi.com/tslive/c53_lb_78_1080P_t10/c53_lb_78_1080P_t10.m3u8
开心汉堡店,http://106.53.212.251/daili/bili.php?id=2308015
国语犬夜叉,http://106.53.212.251/daili/bili.php?id=23089518
英文儿歌,http://118.26.120.23:55336/tslive/c55_lb_128_600_t10/c55_lb_128_600_t10.m3u8?key=0b292c335e5837e94dd521635e537be73
童年经典,http://118.26.120.23:55336/tslive/c57_lb_211_600_t10/c57_lb_211_600_t10.m3u8?key=0f2a06793124310bce6ba95fc0ac76131
玩具乐园,http://118.26.120.37:55336/tslive/c54_lb_175_600_t10/c54_lb_175_600_t10.m3u8?key=051d9240247766709d65dde3fcd5cd7bb
猫和老鼠,http://118.26.120.23:55336/tslive/c52_lb_83_600_t10/c52_lb_83_600_t10.m3u8?key=0b292c335e5837e94e2f0ba45f46717fa
怀旧动画,http://118.26.120.36:55336/tslive/c53_lb_86_600_t10/c53_lb_86_600_t10.m3u8?key=0b292c335e5837e943a226d3c381f872a
巧虎,http://118.26.120.37:55336/tslive/c55_lb_135_600_t10/c55_lb_135_600_t10.m3u8?key=0f2a06793124310bcefefdf4e48b17f9a
小猪佩寄,http://118.26.120.23:55336/tslive/c53_lb_78_600_t10/c53_lb_78_600_t10.m3u8?key=0b292c335e5837e94a815c2c45ffe0057
宝宝课堂,http://118.26.120.23:55336/tslive/c57_lb_225_600_t10/c57_lb_225_600_t10.m3u8?key=0b292c335e5837e94abaa8d3135e83ce3
宝宝巴士,http://118.26.120.35:55336/tslive/c55_lb_153_720P_t10/c55_lb_153_720P_t10.m3u8?key=0b292c335e5837e947f9409c59228f3e6
奥特曼,http://118.26.120.35:55336/tslive/c57_lb_210_600_t10/c57_lb_210_600_t10.m3u8?key=0b292c335e5837e94abe4b846218bbc95
喜羊羊,http://118.26.120.23:55336/tslive/c55_lb_91_1080P_t10/c55_lb_91_1080P_t10.m3u8?key=0b292c335e5837e943e554ef181bdcec1
名贞探柯南,http://118.26.120.23:55336/tslive/c54_lb_157_600_t10/c54_lb_157_600_t10.m3u8?key=0b292c335e5837e948e91dd5d11efa525
动画电影,http://118.26.120.36:55336/tslive/c51_lb_118_600_t10/c51_lb_118_600_t10.m3u8?key=0b292c335e5837e94f25985f7c35b1efe
动画小天地,http://118.26.120.34:55336/tslive/c55_lb_139_600_t10/c55_lb_139_600_t10.m3u8?key=0f2a06793124310bc475d77d809f3ab51
兔小贝尔歌,http://118.26.120.22:55336/tslive/c54_lb_136_600_t10/c54_lb_136_600_t10.m3u8?key=0b292c335e5837e94ae056154862a578b
儿童乐园,http://118.26.120.23:55336/tslive/c57_lb_215_600_t10/c57_lb_215_600_t10.m3u8?key=0b292c335e5837e943410c2bfa7a7387e
儿歌大全,http://118.26.120.23:55336/tslive/c57_lb_242_600_t10/c57_lb_242_600_t10.m3u8?key=0f2a06793124310bc8499ebf63370c51a
倒霉熊,http://118.26.120.37:55336/tslive/c54_lb_140_600_t10/c54_lb_140_600_t10.m3u8?key=0f2a06793124310bccc587b5da61b57da
亲子小游戏,http://118.26.120.23:55336/tslive/c56_lb_178_600_t10/c56_lb_178_600_t10.m3u8?key=0b292c335e5837e94ffc1113a2140b54
亲子启蒙,http://118.26.120.23:55336/tslive/c57_lb_213_600_t10/c57_lb_213_600_t10.m3u8?key=0f2a06793124310bc21adebc9f02a9735
倒霉特熊,https://newcntv.qcloudcdn.com/asp/hls/1200/0303000a/3/default/87f87ba569c147e3805f80e4844d2de9/1200.m3u8
雲朵妈妈,https://newcntv.qcloudcdn.com/asp/hls/1200/0303000a/3/default/d8ad434c6b08421a927557a4d98da65c/1200.m3u8
反转星球,https://newcntv.qcloudcdn.com/asp/hls/1200/0303000a/3/default/3ccdecc7d6e341c1920ad4eac5d82f38/1200.m3u8
熊大熊二,https://newcntv.qcloudcdn.com/asp/hls/1200/0303000a/3/default/1733da751de64e6e910abda889d87a26/1200.m3u8
熊大过年,https://newcntv.qcloudcdn.com/asp/hls/1200/0303000a/3/default/7ae265653fe149069c3b53e31caaf060/1200.m3u8
狮子王國,https://newcntv.qcloudcdn.com/asp/hls/850/0303000a/3/default/c2e7e767f3144bed959ef20b8b961fe5/850.m3u8
CN卡通頻道,mitv://ns2.hellotvvod.com:9906/51e593fae95f48968c181b6a47179526
迪士尼頻道,mitv://ns2.hellotvvod.com:9906/d24a14f362fb47d8a603b41462ad0f9b
MOMO親子台,mitv://ns2.hellotvvod.com:9906/d3ae733f3d61464e8f240d812c0b1516
Animax,mitv://ns2.hellotvvod.com:9906/10d8ae908a354513b09e38e7116b7b33
靖洋卡通Nice Bingo,mitv://ns2.hellotvvod.com:9906/f356d20c5a374fef82a196fadfe38a77
靖天卡通台,mitv://ns2.hellotvvod.com:9906/bb214f3596dd4b1c8bae816edff835be
Cbeebies,mitv://ns2.hellotvvod.com:9906/65758ebebbb5437cbfdb4b5c88597bf9
達文西頻道,mitv://ns2.hellotvvod.com:9906/191725f8a02546c1bec1bb92aab127ab
Nick Jr.,mitv://ns2.hellotvvod.com:9906/89ac75b06f7f4721be3f6a4d12eb71d3
CCTV14,mitv://ns2.hellotvvod.com:9906/6ee2ee86a5154416880be4c97254d93a
金鷹卡通,mitv://ns2.hellotvvod.com:9906/81c74b1fdbcd469e9bd5c493f4d40e31
Astro小太陽,mitv://ns2.hellotvvod.com:9906/0d5ecafe8f494863ac5bad999b6a1f0f
Astro Ceria,mitv://ns2.hellotvvod.com:9906/aac054f65a244206b6f782eb3956e130
Disney Junior,mitv://ns2.hellotvvod.com:9906/e6075b2e8d544804921f5055e4871326
Cartoon Network,mitv://ns2.hellotvvod.com:9906/44285c9480dc4d0eaa2e09f741531878
Nickelodeon,mitv://ns2.hellotvvod.com:9906/88de2585472246749d43969d1c03257d
Nick Jr.,mitv://ns2.hellotvvod.com:9906/0355fc81f0cf4527840ff76e185df41e
Baby TV,mitv://ns2.hellotvvod.com:9906/86a3e0ba0bed4d6297376b8f57c5752a
Boomerang,mitv://ns2.hellotvvod.com:9906/e80e0ea046cc4206a9935c6997310ca5


🏀体育,#genre#
福建体育,rtsp://183.252.166.199/PLTV/88888888/224/3221226127/10000100000000060000000002434540_0.smil
PP体育,http://117.148.179.172/PLTV/88888888/224/3221231778/index.m3u8
CCTV5,http://iptv.tvfix.org/hls/cctv5hd.m3u8
CCTV5,http://117.148.179.165/PLTV/88888888/224/3221231702/index.m3u8
CCTV5+,http://117.148.179.136/PLTV/88888888/224/3221231459/index.m3u8
风云足球,http://117.148.179.137/PLTV/88888888/224/3221231547/index.m3u8
央视台球,http://117.148.179.167/PLTV/88888888/224/3221231616/index.m3u8
四海钓鱼,http://117.148.179.159/PLTV/88888888/224/3221231718/index.m3u8
广东体育,http://hongyanqiang.top/chudian.php?id=gdty
广东体育,http://116.199.5.52:8114/index.m3u8?Fsv_chan_hls_se_idx=8&FvSeid=1&Fsv_ctype=LIVES&Fsv_otype=1&Provider_id=&Pcontent_id=.m3u8
五星体育,http://140.207.241.2:8080/live/program/live/ssty/4000000/mnf.m3u8
CCTV5,http://39.134.39.39/PLTV/88888888/224/3221226224/index.m3u8
CCTV5,http://39.135.138.59:18890/PLTV/88888910/224/3221225633/index.m3u8
CCTV5,http://39.135.138.60:18890/PLTV/88888910/224/3221225633/index.m3u8
CCTV5,http://39.135.32.24:6610/000000001000/1000000001000004794/index.m3u8?i
CCTV5,http://httplive.slave.bfgd.com.cn:14311/playurl?playtype=live&protocol=http&accesstoken=R5F2408FEU3198804BK78052214IE73560DFP2BF4M340CE68V0Z339CBW1626D4D261E46FEA&playtoken=ABCDEFGH&programid=4200000064
CCTV5+,http://39.135.138.60:18890/PLTV/88888910/224/3221225649/index.m3u8
CCTV5+,http://39.134.39.39/PLTV/88888888/224/3221226253/index.m3u8
CCTV5+,http://httplive.slave.bfgd.com.cn:14311/playurl?playtype=live&protocol=http&accesstoken=R5F2408FEU3198804BK78052214IE73560DFP2BF4M340CE68V0Z339CBW1626D4D261E46FEA&playtoken=ABCDEFGH&programid=4200000246
CCTV5+,http://117.169.124.46:6410/ysten-businessmobile/live/hdcctv05plus/1.m3u8
CCTV5+,http://39.135.138.59:18890/PLTV/88888910/224/3221225649/index.m3u8
精品體育,http://39.134.66.66/PLTV/88888888/224/3221225526/index.m3u8
咪咕視頻,http://39.134.65.162/PLTV/88888888/224/3221225611/index.m3u8
冬奥纪实 ,http://117.148.179.157/PLTV/88888888/224/3221233044/index.m3u8
冬奥纪实 ,http://117.148.179.157/PLTV/88888888/224/3221233356/index.m3u8
冬奥纪实4K ,http://117.148.179.157/PLTV/88888888/224/3221233353/index.m3u8
冬奥纪实4K ,http://117.148.179.157/PLTV/88888888/224/3221233419/index.m3u8
冬奥纪实4K ,http://117.148.179.157/PLTV/88888888/224/3221233401/index.m3u8
冬奥纪实4K ,http://117.148.179.157/PLTV/88888888/224/3221233448/index.m3u8
冬奥纪实8K ,http://117.148.179.157/PLTV/88888888/224/3221233395/index.m3u8
冬奥纪实8K ,http://117.148.179.157/PLTV/88888888/224/3221233142/index.m3u8
五星体育,http://111.40.196.25/PLTV/88888888/224/3221225503/index.m3u8
五星体育,http://111.26.225.22/PLTV/2/224/3221225857/index.m3u8
勁爆體育,http://111.26.225.22/PLTV/2/224/3221225658/index.m3u8
纬来体育,http://211.23.114.106:8563/http/59.120.8.187:8081/hls/67/809/ch28.m3u8
Star Sports,http://iptv.tvfix.org/hls/starsports.m3u8
MAX極速汽車,http://39.134.39.38/PLTV/88888888/224/3221226195/index.m3u8
勁爆體育,http://shbu.live.bestvcdn.com.cn:8080/live/program/live/jbtyhd/2300000/mnf.m3u8
體育賽事,http://39.136.18.76/cdnrrs.gz.chinamobile.com/PLTV/88888888/224/3221226253/1/index.m3u8?fmt=ts2hls
咪咕視頻,http://39.134.65.162/PLTV/88888888/224/3221225611/index.m3u8
咪咕視頻備用,http://39.134.66.66/PLTV/88888888/224/3221225622/index.m3u8
新視覺HD,http://183.207.255.188/live/program/live/xsjhd/4000000/mnf.m3u8
风尚运动,http://211.94.219.178:18080/PLTV/68/224/3221226429/index.m3u8
超级體育,http://39.135.138.59:18890/PLTV/88888910/224/3221225622/index.m3u8
魅力足球,http://183.207.255.188/live/program/live/mlyyhd/4000000/mnf.m3u8
HWF散打,http://pull-g.kktv8.com/livekktv/57588147.flv
游戏风云,http://183.207.255.188/live/program/live/yxfyhd/4000000/mnf.m3u8
游戏风云,http://39.134.18.65/dbiptv.sn.chinamobile.com/PLTV/88888890/224/3221226579/index.m3u8
緯來育樂台,mitv://ns2.hellotvvod.com:9906/ed2847f9731a48e19afc2ba479a73939
緯來體育台,mitv://ns2.hellotvvod.com:9906/cd64bcebb70d4b489bf734c5b3369002
ELEVEN體育1台,mitv://ns2.hellotvvod.com:9906/0c9c4a9fc07c41bb8537828dd9162e81
ELEVEN體育2台,mitv://ns2.hellotvvod.com:9906/a610acb66f3749bb953d78899b7205d2
Z頻道,mitv://ns2.hellotvvod.com:9906/653db001ea4a4599ad4be5a98f9adf8c
愛爾達體育1台,mitv://ns2.hellotvvod.com:9906/db6bd5a732984d83a8fdb9d0536886c8
愛爾達體育2台,mitv://ns2.hellotvvod.com:9906/bc49344900a546d39b5083025db6243f
愛爾達體育3台,mitv://ns2.hellotvvod.com:9906/4f3f4387a8174b8f8aaed89e2901442c
TRACE Sport Stars,mitv://ns2.hellotvvod.com:9906/57536d1b23f34f28bb4d8c065d2e67e5
博斯高球,mitv://ns2.hellotvvod.com:9906/9eb73e0317034672b4e2bdb0d695387f
博斯高球二台,mitv://ns2.hellotvvod.com:9906/c612218b5c0d4349a1b4049e89913c75
博斯網球台,mitv://ns2.hellotvvod.com:9906/47176ac49fed4e74a62d30b037ce81d3
博斯魅力網,mitv://ns2.hellotvvod.com:9906/8f1d2f23e9964ef6b99f7b7228c199dc
博斯無限台,mitv://ns2.hellotvvod.com:9906/91e038793b5f45f194ab304ab843b741
博斯無限二台,mitv://ns2.hellotvvod.com:9906/3367cde8bd924944b2b7bbbaef5be87e
博斯運動,mitv://ns2.hellotvvod.com:9906/b57a5306d5da4dcea75af2d436968097
智林體育台,mitv://ns2.hellotvvod.com:9906/8b30925a0d704bcd8286add181bafdb9
博斯運動二台,mitv://ns2.hellotvvod.com:9906/d4f401d6d6e144dfbb8c944a41b15772
CCTV5,mitv://ns2.hellotvvod.com:9906/f07ab39fdf354c7cb4a34fbaaa3659c7
CCTV5+,mitv://ns2.hellotvvod.com:9906/7a3a7027352546228475d2691cce06d8
魅力足球,mitv://ns2.hellotvvod.com:9906/1d8773c524fa4ff0a210dd82b5442327
新視覺,mitv://ns2.hellotvvod.com:9906/9319abc926b54236ad6215e7132c9c11
廣東體育,mitv://ns2.hellotvvod.com:9906/3faeeb40ba624e64bb63ded82e67a601
Golf Channel Philippines,mitv://ns2.hellotvvod.com:9906/29bb74c6d52b42759e572b4470b20eee
Astro Arena,mitv://ns2.hellotvvod.com:9906/5854587c3f164d0bb0a66626f9ee09d0
Astro Arena 2,mitv://ns2.hellotvvod.com:9906/ca874a7d7e614ebd832e6e1e9478525b
Astro SuperSport,mitv://ns2.hellotvvod.com:9906/e12cfed6c3d94f27bd4f480d42b0c7b5
Astro SuperSport 2,mitv://ns2.hellotvvod.com:9906/5aa28b0759774904a25d7fc12ea233a9
Astro SuperSport 3,mitv://ns2.hellotvvod.com:9906/68067267b2734dd39032d08bf83db8f0
Astro SuperSport 4,mitv://ns2.hellotvvod.com:9906/6ba21b7211494ed4ac1456d6ba8cbaa0
Astro SuperSport 5,mitv://ns2.hellotvvod.com:9906/cc02a88163414af7b4d7479a833f1407
SPOTV,mitv://ns2.hellotvvod.com:9906/5dedc66ef44242819ee8bf88796a9101
beIN Sports,mitv://ns2.hellotvvod.com:9906/2f0a1100d8724e7c8fe7f33fef6722cc
beIN Sports MAX,mitv://ns2.hellotvvod.com:9906/1d28c61387af4ccd847b72b1601415d7
Eurosport HD,mitv://ns2.hellotvvod.com:9906/047ba1fc376a4ef88c305a659fbb236f
WWE,mitv://ns2.hellotvvod.com:9906/591deaacdbc247c8be9fb4fc937d6a14
Astro Cricket,mitv://ns2.hellotvvod.com:9906/d37f8e619e014decb7465d538dc17548
RTM Sport,mitv://ns2.hellotvvod.com:9906/3b086dcc1106400b8f78e8547d2e3df8
HKC 18,mitv://ns2.hellotvvod.com:9906/36976aef6f4f4ab2aad06b8ece5aac54
HKC 603,mitv://ns2.hellotvvod.com:9906/bc32fd90af7d4f4aaa3bd451d9199153
HKC体育台,mitv://ns2.hellotvvod.com:9906/1f7426398b0248708172875db037edff
HKC Sports Plus 1,mitv://ns2.hellotvvod.com:9906/947fa69d3ee7421f83b9aae7df4c846d
Sky Sports HD,mitv://ns2.hellotvvod.com:9906/3b236026d690439cb59f49119e3ecd74
Sky Sports 2,mitv://ns2.hellotvvod.com:9906/9f2669b7e86644dca15545002fe98f3c
Sky Sports 5,mitv://ns2.hellotvvod.com:9906/30aaf9a6ee9d436cb66db803a974cb63
Sky Sports 6,mitv://ns2.hellotvvod.com:9906/f3339d9a528042b7a9080dc2dc1e6ec4
Fight Sports,mitv://ns2.hellotvvod.com:9906/c1bf3e92df5041a59fc1cfdd13277f39
ESPN,mitv://ns2.hellotvvod.com:9906/9bbbfe9127d3493c9ebb4b95712222e2
NBA,mitv://ns2.hellotvvod.com:9906/c26bb89ba7d44a83b47c52e7af180d77
J Sports 1,mitv://ns2.hellotvvod.com:9906/8f789a849c85440d9f1447d5c5977df1
J Sports 2,mitv://ns2.hellotvvod.com:9906/db5d1bc45f454e6f850b3a379e625e3f
J Sports 3,mitv://ns2.hellotvvod.com:9906/eacdea4d8fdc4070ac0b94f4c57d8e30
J Sports 4,mitv://ns2.hellotvvod.com:9906/7bd2b99f5b874e028edb6e7e9915bc33
Mola Sport,mitv://ns2.hellotvvod.com:9906/969520237daa4f5a939c890871259772


🌸港澳,#genre#
凤凰中文,http://iptv.tvfix.org/hls/fhzw.m3u8
凤凰中文,http://live.scuec.edu.cn:8080/hls/fhzw.m3u8
凤凰中文,http://playtv-live.ifeng.com/live/06OLEGEGM4G.m3u8
凤凰中文,http://223.110.245.138/ott.js.chinamobile.com/PLTV/3/224/3221226922/index.m3u8
凤凰资讯,http://iptv.tvfix.org/hls/fhzx.m3u8
凤凰资讯,http://playtv-live.ifeng.com/live/06OLEEWQKN4.m3u8
凤凰资讯,http://117.169.124.43:6610/ysten-businessmobile/live/fhzixun/index.m3u8
凤凰资讯,http://223.110.245.136/PLTV/3/224/3221226923/index.m3u8
凤凰香港,http://183.207.249.34/PLTV/3/224/3221226975/index.m3u8
凤凰香港,http://ott.js.chinamobile.com/TVOD/3/224/3221228060/index.m3u8
凤凰香港,http://39.134.71.75/ott.js.chinamobile.com/PLTV/3/224/3221228060/index.m3u8
凤凰香港,http://223.110.236.2/ott.js.chinamobile.com/PLTV/3/224/3221228060/index.m3u8$JS1080P
凤凰电影,http://live.scuec.edu.cn:8080/hls/fhdy.m3u8
凤凰电影,http://iptv.tvfix.org/hls/fhdy.m3u8
澳门莲花,mitv://ns2.hellotvvod.com:9906/5a534ef41b9647c9aad8facdb5525a2a
澳门莲花,http://nettvpro.live/hls/lotustv.php
澳门莲花,http://anren.live/HK/BiIOU11uLA.m3u8
澳视澳门,http://103.233.191.133:1935/ch1/ch1.live/playlist.m3u8
澳视澳门,http://103.233.191.134:1935/ch1/ch1.live/playlist.m3u8
澳视葡文,http://103.233.191.132:1935/ch2/ch2.live/playlist.m3u8
澳视葡文,http://103.233.191.133:1935/ch2/ch2.live/playlist.m3u8
澳视葡文,http://103.233.191.134:1935/ch2/ch2.live/playlist.m3u8
澳视卫星,http://103.233.191.132:1935/ch3/ch3.live/playlist.m3u8
澳视卫星,http://103.233.191.133:1935/ch3/ch3.live/playlist.m3u8
澳视卫星,http://103.233.191.134:1935/ch3/ch3.live/playlist.m3u8
澳视体育,http://103.233.191.132:1935/ch4/sport_ch4.live/playlist.m3u8
澳视体育,http://103.233.191.133:1935/ch4/sport_ch4.live/playlist.m3u8
澳视体育,http://103.233.191.134:1935/ch4/sport_ch4.live/playlist.m3u8
澳视资讯,http://103.233.191.133:1935/ch5/info_ch5.live/playlist.m3u8
澳视资讯,http://103.233.191.134:1935/ch5/info_ch5.live/playlist.m3u8
澳视综艺,http://103.233.191.133:1935/ch6/hd_ch6.live/playlist.m3u8
澳视综艺,http://103.233.191.134:1935/ch6/hd_ch6.live/playlist.m3u8
澳视综艺,http://103.233.191.132:1935/ch6/hd_ch6.live/playlist.m3u8
澳视澳门,http://61.244.22.4/ch1/ch1.live/playelist.m3u8
澳门葡语,http://61.244.22.4/ch2/ch2.live/chunklist_w1632175875.m3u8
澳门葡语,http://61.244.22.4/ch2/ch2.live/index.m3u8
澳门葡语,http://61.244.22.5/ch2/ch2.live/chunklist_w1632175875.m3u8
澳門MACAU,mitv://ns2.hellotvvod.com:9906/ba43211992f348d6a8b07f1edb894c9b
澳门卫视,http://61.244.22.4/ch3/ch3.live/chunklist_w1228316132.m3u8
澳门卫视,http://61.244.22.4/ch3/ch3.live/playelist.m3u8
香港卫视,http://zhibo.hkstv.tv/livestream/mutfysrq.flv
亚美卫视,http://dcunilive30-lh.akamaihd.net/i/dclive_1@535522/master.m3u8
爆谷台,mitv://ns2.hellotvvod.com:9906/1d7e379fa2f04936b9d2dce207efb097
明珠台HD,http://iptv.tvfix.org/hls/pearl.m3u8
明珠台HD,http://iptv.tvfix.org/hls/pearl2.m3u8
明珠台HD,http://iptv.tvfix.org/hls/financenhk.m3u8
翡翠台HD,http://iptv.tvfix.org/hls/jade.m3u8
翡翠台HD,http://iptv.tvfix.org/hls/jade2.m3u8
TBVJ2,mitv://ns2.hellotvvod.com:9906/4b20b6d78e904b779ff16c0b10d6c3e4
TBVJ2,http://iptv.tvfix.org/hls/j2.m3u8
TBVJ2,http://iptv.tvfix.org/hls/j22.m3u8
无线新闻,mitv://ns2.hellotvvod.com:9906/977fac4b93af4ee0a190f38217d79e51
无线新闻,mitv://ns2.hellotvvod.com:9906/92b7235ae2a54766a2acb97e5f7a64ef
无线新闻,http://iptv.tvfix.org/hls/inews.m3u8
无线财经,mitv://ns2.hellotvvod.com:9906/790b3d24875349d8b3118357cb9a5124
无线财经,http://iptv.tvfix.org/hls/finance.m3u8
ViuTV,http://iptv.tvfix.org/hls/viutv.m3u8
ViuTV6,http://iptv.tvfix.org/hls/viutv6.m3u8
RTHK31,mitv://ns2.hellotvvod.com:9906/26306a6246814adbaec622fd114432ec
RTHK31,http://iptv.tvfix.org/hls/rthk31.m3u8
RTHK32,mitv://ns2.hellotvvod.com:9906/dcd3e6336bec46168a990c3331cb8579
RTHK32,http://iptv.tvfix.org/hls/rthk32.m3u8
香港国际财经台,http://iptv.tvfix.org/hls/hkibc.m3u8
香港开电视,mitv://ns2.hellotvvod.com:9906/ae5366f93aa942ddb49b19c9492f5d72
香港开电视,http://iptv.tvfix.org/hls/opentv.m3u8
now新聞台,mitv://ns2.hellotvvod.com:9906/f228f98bc84245ce9b4870364b82b6da
now直播台,mitv://ns2.hellotvvod.com:9906/185dbf64ed284733a132ae9ec355f263
HKC新聞台,mitv://ns2.hellotvvod.com:9906/a8429ecad2e446e18c362b031e3d32bf
HKC直播新聞台,mitv://ns2.hellotvvod.com:9906/eede001be16e4991843619bb8af3f840
HKC財經資訊台,mitv://ns2.hellotvvod.com:9906/94ecdbe381c54b58bcca74b7b88047a2
HKC電影台,mitv://ns2.hellotvvod.com:9906/6d83197a57a94c41848d3945e38a8607
HKC綜合娛樂台,mitv://ns2.hellotvvod.com:9906/a17643cfcae6400d8770e4b89958b706
ViuTVsix,mitv://ns2.hellotvvod.com:9906/0a2171b6dcd6420c98ccfb7c7f524504
ViuTV,mitv://ns2.hellotvvod.com:9906/d7506148214e4b3fae543068f1701ff7
TVB經典台,mitv://ns2.hellotvvod.com:9906/1c0d8aefa5cd4d009cecff61ebc3e18b
TVB娛樂新聞台,mitv://ns2.hellotvvod.com:9906/f500497b96b1458a8f9f5da38c6e02d7
TVB 星河,mitv://ns2.hellotvvod.com:9906/5f99a3cfce824f6da2fd0c3b6797428a
HKC 18,mitv://ns2.hellotvvod.com:9906/36976aef6f4f4ab2aad06b8ece5aac54
HKC 603,mitv://ns2.hellotvvod.com:9906/bc32fd90af7d4f4aaa3bd451d9199153
HKC体育台,mitv://ns2.hellotvvod.com:9906/1f7426398b0248708172875db037edff
HKC Sports Plus 1,mitv://ns2.hellotvvod.com:9906/947fa69d3ee7421f83b9aae7df4c846d
天映经典,http://iptv.tvfix.org/hls/tyjd.m3u8
TVB星河,http://iptv.tvfix.org/hls/tvbxh2.m3u8
TVB星河,http://iptv.tvfix.org/hls/tvbxh.m3u8
美亚电影,http://iptv.tvfix.org/hls/mydy.m3u8
星空衛視,http://116.199.5.52:8114/00000000/index.m3u8?&Fsv_ctype=LIVES&Fsv_otype=1&FvSeid=5abd1660af1babb4&Fsv_filetype=1&Fsv_ctype=LIVES&Fsv_cid=0&Fsv_chan_hls_se_idx=233&Fsv_rate_id=1&Fsv_SV_PARAM1=0&Fsv_ShiftEnable=0&Fsv_ShiftTsp=0&Provider_id=&Pcontent_id=&Fsv_CMSID=&Fsv_otype=1
星空衛視,http://116.199.5.51:8114/hls/Fsv_chan_hls_se_idx=233&FvSeid=1&Fsv_ctype=LIVES&Fsv_otype=1&Provider_id=0&Pcontent_id=8114.m3u8
星空衛視,http://116.199.5.52:8114/00000000/index.m3u8?&Fsv_ctype=LIVES&Fsv_otype=1&FvSeid=5abd1660af1babb4&Fsv_filetype=1&Fsv_ctype=LIVES&Fsv_cid=0&Fsv_chan_hls_se_idx=233&Fsv_rate_id=1&Fsv_SV_PARAM1=0&Fsv_ShiftEnable=0&Fsv_ShiftTsp=0&Provider_id=&Pcontent_id=&Fsv_CMSID=&Fsv_otype=1
星空衛視,http://218.202.220.2:5000/nn_live.ts?id=STARTV
耀才財經台,http://202.69.67.66:443/webcast/bshdlive-pc/playlist.m3u8
点掌财经,http://cclive2.aniu.tv/live/anzb.m3u8


🀄台湾,#genre#
中视,http://50.7.61.148:30080/Entry/ctv
台视,http://50.7.61.148:30080/Entry/ttv
民视,http://50.7.61.147:30080/Entry/ftv
华视,http://50.7.61.147:30080/Entry/cts
TVBS,http://50.7.61.148:30080/Entry/tvbs
TLC,http://50.7.61.147:30080/Entry/tlc
JET综合,http://50.7.61.147:30080/Entry/jet
SET三立台湾,http://50.7.61.148:30080/Entry/settw-
卫视中文,http://50.7.61.148:30080/Entry/starchinese
AXN,http://50.7.61.148:30080/Entry/axn
HBO,http://50.7.61.148:30080/Entry/hbo
东森新闻,http://50.7.61.147:30080/Entry/etnews
纬来日本,http://50.7.61.147:30080/Entry/vljp
民视新闻,http://50.7.61.148:30080/Entry/ftvnews
TVBS新闻,http://50.7.61.148:30080/Entry/tvbsnews
非凡商业,http://50.7.61.147:30080/Entry/ubnbus
壹新闻 HD,http://50.7.61.147:30080/Entry/etv
TVBS亚洲台,http://iptv.tvfix.org/hls/tvbs.m3u8
TVBS新闻台,http://iptv.tvfix.org/hls/tvbsnews.m3u8
中天新闻,http://iptv.tvfix.org/hls/ztxw.m3u8
东森新闻,http://iptv.tvfix.org/hls/dsxw.m3u8
民視,rtmp://59.124.75.157/sat/tv051
台視,rtmp://59.124.75.157/sat/tv071
中視,rtmp://59.124.75.157/sat/tv091
華視,rtmp://59.124.75.157/sat/tv111
TVBS新聞,rtmp://59.124.75.157/sat/tv551
TVBS歡樂,rtmp://59.124.75.157/sat/tv421
東森財經新聞,rtmp://59.124.75.157/sat/tv571
東森超視,rtmp://59.124.75.157/sat/tv521
緯來育樂,rtmp://59.124.75.157/sat/tv701
緯來體育,rtmp://59.124.75.157/sat/tv721
ELEVEN1,rtmp://59.124.75.157/sat/tv731
ELEVEN2,rtmp://59.124.75.157/sat/tv741
緯來日本,rtmp://59.124.75.157/sat/tv771
MOMO綜合,rtmp://59.124.75.157/sat/tv761
ELTA體育2,rtmp://59.124.75.157/sat/md011
ELEVEN2,rtmp://59.124.75.157/sat/md021
博斯網球,rtmp://59.124.75.157/sat/md031
ELTA體育3,rtmp://59.124.75.157/sat/md041
ELTA體育1,rtmp://59.124.75.157/sat/md051
民視,rtmp://59.124.75.138/sat/tv051
台視,rtmp://59.124.75.138/sat/tv071
中視,rtmp://59.124.75.138/sat/tv091
華視,rtmp://59.124.75.138/sat/tv111
TVBS新聞,rtmp://59.124.75.138/sat/tv551
TVBS歡樂,rtmp://59.124.75.138/sat/tv421
東森財經新聞,rtmp://59.124.75.138/sat/tv571
東森超視,rtmp://59.124.75.138/sat/tv521
緯來育樂,rtmp://59.124.75.138/sat/tv701
緯來體育,rtmp://59.124.75.138/sat/tv721
ELEVEN1,rtmp://59.124.75.138/sat/tv731
ELEVEN2,rtmp://59.124.75.138/sat/tv741
緯來日本,rtmp://59.124.75.138/sat/tv771
MOMO綜合,rtmp://59.124.75.138/sat/tv761
ELTA體育2,rtmp://59.124.75.138/sat/md011
ELEVEN2,rtmp://59.124.75.138/sat/md021
博斯網球,rtmp://59.124.75.138/sat/md031
ELTA體育3,rtmp://59.124.75.138/sat/md041
ELTA體育1,rtmp://59.124.75.138/sat/md051
大愛,http://51.222.193.142:40010/21
非凡新聞,http://51.222.193.142:40010/22
華視教育,http://51.222.193.142:40010/23
寰宇新聞,http://51.222.193.142:40010/24
台視綜合,http://51.222.193.142:40010/25
龍華偶像,http://51.222.193.142:40010/26
龍華戲劇,http://51.222.193.142:40010/27
龍華洋片,http://51.222.193.142:40010/28
靖洋卡通,http://51.222.193.142:40010/29
靖天卡通,http://51.222.193.142:40010/30
靖天電視,http://51.222.193.142:40010/31
靖天日本,http://51.222.193.142:40010/32
壹電視綜合,http://51.222.193.142:40010/33
八大第一,http://51.222.193.142:40010/34
八大戲劇,http://51.222.193.142:40010/35
八大綜合,http://51.222.193.142:40010/36
愛爾達體育2,http://51.222.193.142:40010/37
愛爾達綜合,http://51.222.193.142:40010/38
愛爾達影劇,http://51.222.193.142:40010/39
愛爾達體育1,http://51.222.193.142:40010/40
愛爾達體育3,http://51.222.193.142:40010/41
非凡商業,http://51.222.193.142:40010/42
JET綜合,http://51.222.193.142:40010/43
衛視中文,http://51.222.193.142:40010/44
ELEVEN1,http://51.222.193.142:40010/45
客家電視,http://51.222.193.143:40004/1
Z頻道,http://51.222.193.143:40004/3
韓國娛樂,http://51.222.193.143:40004/4
迴旋鏢頻道,http://51.222.193.143:40004/5
希望綜合,http://51.222.193.143:40004/6
華臟衛視,http://51.222.193.143:40004/7
天良,http://51.222.193.143:40004/8
信大,http://51.222.193.143:40004/9
華納TV,http://51.222.193.143:40004/10
華視,http://51.222.193.143:40004/11
台視,http://51.222.193.143:40004/12
台視新聞,http://51.222.193.143:40004/13
中視經典,http://51.222.193.143:40004/14
中視,http://51.222.193.143:40004/15
中視新聞,http://51.222.193.143:40004/16
公視,http://51.222.193.143:40004/17
公視3,http://51.222.193.143:40004/18
ELEVEN2,http://51.222.193.143:40004/19
博斯高球II,http://51.222.193.143:40004/20
博斯運動II,http://51.222.193.143:40004/21
博斯網球,http://51.222.193.143:40004/22
博斯無限II,http://51.222.193.143:40004/23
博斯高球,http://51.222.193.143:40004/24


🏯日韩,#genre#
NHK-G综合,mitv://ns2.hellotvvod.com:9906/eed71942476c49edadaa7df11f90446f
NHK-E教育,mitv://ns2.hellotvvod.com:9906/506a99efe08149c79be96876b035d009
日本テレビ,mitv://ns2.hellotvvod.com:9906/177a67e9aebc490e8f908f540614db87
TBSテレビ,mitv://ns2.hellotvvod.com:9906/eeb153c0ce2d4747889b31d29b22cddf
テレビ東京,mitv://ns2.hellotvvod.com:9906/4546b93b2fd64f7397ea71edb04ecc36
フジテレビ,mitv://ns2.hellotvvod.com:9906/2b308989770f4d0dbe0f08a1b27187e7
読売テレビ,mitv://ns2.hellotvvod.com:9906/bae63fcee6d7490b8186d530ef122670
関西テレビ,mitv://ns2.hellotvvod.com:9906/bdf8fb3ba4de42c4b4a0663d9345a93e
テレビ大阪,mitv://ns2.hellotvvod.com:9906/ebc0674ee50f4fb2badae1054f5ebd00
サンテレビ,mitv://ns2.hellotvvod.com:9906/7f2f9a0e12d545f0a17e33a5b908ee3a
abc朝日,mitv://ns2.hellotvvod.com:9906/e08cab3503f6485fa2c091b5be4e727b
毎日放送,mitv://ns2.hellotvvod.com:9906/87fd9c9dc4974cdbb30f1c561713a540
朝日放送,mitv://ns2.hellotvvod.com:9906/4a8a4653270e4a9ead7063b7adfd0996
BS-1,mitv://ns2.hellotvvod.com:9906/61b17f3fbbcb403d847bc9303c8b0d8d
BSプレミアム,mitv://ns2.hellotvvod.com:9906/36c2308e707f4db39faebd749284938f
BS日テレ,mitv://ns2.hellotvvod.com:9906/836b15faf163430e88da2b7baba78215
BS朝日,mitv://ns2.hellotvvod.com:9906/f389cffb91e1492da594f7ff913b1a33
BS-TBS,mitv://ns2.hellotvvod.com:9906/aeec4b86617e4103af24b41253a660b8
BSジャパン,mitv://ns2.hellotvvod.com:9906/2b1b9cb1d426443fa678d4f761f35818
BSフジ,mitv://ns2.hellotvvod.com:9906/98a122e66dee46dc94cfc487f86c9f33
WOWOWプライム,mitv://ns2.hellotvvod.com:9906/e6ce673b0be14198a369ba5dee502631
WOWOWライブ,mitv://ns2.hellotvvod.com:9906/293ea23e322d4185b0ba09e91a386e7b
WOWOWシネマ,mitv://ns2.hellotvvod.com:9906/2f2038026e214e41951a98ee4741a1df
スター?チャンネル1,mitv://ns2.hellotvvod.com:9906/3a41465afae34a5487b403b6ea792be5
スター?チャンネル2,mitv://ns2.hellotvvod.com:9906/ecfac5f0d95b42fca82f52c37c24b810
スター?チャンネル3,mitv://ns2.hellotvvod.com:9906/7be8f9919aa443f6bae6304dd43d0cb8
BSアニマックス,mitv://ns2.hellotvvod.com:9906/972fb28d06264a4cabe21b844b224446
J Sports 1,mitv://ns2.hellotvvod.com:9906/8f789a849c85440d9f1447d5c5977df1
J Sports 2,mitv://ns2.hellotvvod.com:9906/db5d1bc45f454e6f850b3a379e625e3f
J Sports 3,mitv://ns2.hellotvvod.com:9906/eacdea4d8fdc4070ac0b94f4c57d8e30
J Sports 4,mitv://ns2.hellotvvod.com:9906/7bd2b99f5b874e028edb6e7e9915bc33
日テレG+ HD,mitv://ns2.hellotvvod.com:9906/5fd04bc26fb540efa6e09ffcc60bdb4c
ゴルフネットワークHD,mitv://ns2.hellotvvod.com:9906/59ae9e5e37db46318749040cad11a5c5
時代劇専門チャンネル,mitv://ns2.hellotvvod.com:9906/34057ee5d4584d5faeae938c2f0aed35
Music Japan TV,mitv://ns2.hellotvvod.com:9906/16a8ff808b3649109d0f21a269682111
キッズステーションHD,mitv://ns2.hellotvvod.com:9906/1f5cef1bb3fb4f8babb31bb79912df7d
ディスカバリーチャンネル,mitv://ns2.hellotvvod.com:9906/ae53015a413245ba9099f3697c76a649
ナショナル ジオグラフィッ,mitv://ns2.hellotvvod.com:9906/7c7e79fc9ba24e19907dad24d856ce9a
日テレNEWS 24,mitv://ns2.hellotvvod.com:9906/0c2f40999c00436ab5e823a25e3d5c13
Cartoon Network,mitv://ns2.hellotvvod.com:9906/5419e8cfbb6a496aade3406e257768a7
Arirang,mitv://ns2.hellotvvod.com:9906/0a89887bb3604794b1fda5c3eae45021
KBS1,mitv://ns2.hellotvvod.com:9906/8bce97b04ee94db6a8a4153dd4c4fe6c
KBS2,mitv://ns2.hellotvvod.com:9906/f9dbdcd019704498bed94495d0217ca1
KBS Drama,mitv://ns2.hellotvvod.com:9906/a32747a969fe461684322b2281b75d9b
KBS Joy,mitv://ns2.hellotvvod.com:9906/0a17f29805544906af28f564b5315e3c
SBS,mitv://ns2.hellotvvod.com:9906/c14208087f194e84838d16f869035265
SBS Plus,mitv://ns2.hellotvvod.com:9906/23305ef8441342c585e7e3d2b4a4dafc
JTBC,mitv://ns2.hellotvvod.com:9906/190c376cab1f4ef4be4b55fb26ce2f8b
EBS,mitv://ns2.hellotvvod.com:9906/550363d1e7b34da1aab25a8ae3b5c042
YTN,mitv://ns2.hellotvvod.com:9906/9bb01424604c408bae02263727a8ae7e
YTN SCIENCE,mitv://ns2.hellotvvod.com:9906/69ac4b223f794ab79ba2d653847b12bc
tvN,mitv://ns2.hellotvvod.com:9906/0a4d0d0c6e164cd093061bc31cf30ae8
OCN,mitv://ns2.hellotvvod.com:9906/dc2b87a954c44566a3a44e8145fc9eff
OCN Movies,mitv://ns2.hellotvvod.com:9906/10807a5b11844d279d7ef239904a02db
CBS,mitv://ns2.hellotvvod.com:9906/3fe45552e55a4725b7927a8cb0cf7b31
MBC,mitv://ns2.hellotvvod.com:9906/4c7b7a9d11824d7c8f480e2b3dc5602e
MBC every1,mitv://ns2.hellotvvod.com:9906/8f4d4c484841489c9e54f684fb191ffa
Tooniverse,mitv://ns2.hellotvvod.com:9906/e2ca82c4691d4774a214bec18d6163dc
SPOTV,mitv://ns2.hellotvvod.com:9906/9fe403bb37504e2697892bd91a0492c7
SPOTV 2,mitv://ns2.hellotvvod.com:9906/246d695ded73471592067991cec67aa7
JTBC GOLF,mitv://ns2.hellotvvod.com:9906/a16d5e5357444665ae91388cfab7eaf9


📺影视,#genre#
東森戲劇台,mitv://ns2.hellotvvod.com:9906/8ad6da5302064e3a8b67ccc9848614e5
八大戲劇台,mitv://ns2.hellotvvod.com:9906/ea7f77bf68254477b2a29793cf65f55a
緯來戲劇台,mitv://ns2.hellotvvod.com:9906/c4d3341645874d9fab6329a7f83f5121
三立戲劇台,mitv://ns2.hellotvvod.com:9906/c5251859faa14a0b9ba00a3bbe4ec0fa
龍華戲劇,mitv://ns2.hellotvvod.com:9906/b3fdf7edaf724fffb49a1bb3e5ba36c0
愛爾達影劇台,mitv://ns2.hellotvvod.com:9906/7964972106564c79bee0dbe6dde23c81
靖天戲劇台,mitv://ns2.hellotvvod.com:9906/dc313d1f150f4e32a241408a4dddb55a
靖洋戲劇台,mitv://ns2.hellotvvod.com:9906/453a034ff3884c0f889f89332a61cb3b
EYE TV戲劇台,mitv://ns2.hellotvvod.com:9906/446502d9b45941efb5bf52f21a282471
SiTV动漫秀场,http://183.207.255.188/live/program/live/dmxchd/4000000/mnf.m3u8
SiTV游戏风云,http://183.207.255.188/live/program/live/yxfyhd/4000000/mnf.m3u8
SiTV欢笑剧场,http://183.207.255.188/live/program/live/hxjchd/4000000/mnf.m3u8
SiTV极速汽车,http://183.207.255.188/live/program/live/jsqchd/4000000/mnf.m3u8
SiTV新视觉,http://140.207.241.2:8080/live/program/live/xsjhd/4000000/mnf.m3u8
SiTV动漫秀场,http://140.207.241.2:8080/live/program/live/dmxchd/4000000/mnf.m3u8
SiTV游戏风云,http://140.207.241.2:8080/live/program/live/yxfyhd/4000000/mnf.m3u8
SiTV劲爆体育,http://140.207.241.2:8080/live/program/live/jbtyhd/4000000/mnf.m3u8
SiTV魅力足球,http://140.207.241.2:8080/live/program/live/mlyyhd/4000000/mnf.m3u8
SiTV欢笑剧场,http://140.207.241.2:8080/live/program/live/hxjchd/4000000/mnf.m3u8
SiTV极速汽车,http://140.207.241.2:8080/live/program/live/jsqchd/4000000/mnf.m3u8
SiTV生活时尚,http://140.207.241.2:8080/live/program/live/shsshd/4000000/mnf.m3u8
SiTV全纪实,http://140.207.241.2:8080/live/program/live/qjshd/4000000/mnf.m3u8
SiTV都市剧场,http://140.207.241.2:8080/live/program/live/dsjchd/4000000/mnf.m3u8
SiTV幸福彩,http://140.207.241.2:8080/live/program/live/xfchd/4000000/mnf.m3u8
SiTV法治天地,http://140.207.241.2:8080/live/program/live/fztd/1300000/mnf.m3u8
SiTV金色频道,http://140.207.241.2:8080/live/program/live/jingsepd/1300000/mnf.m3u8
SiTV七彩戏剧,http://140.207.241.2:8080/live/program/live/qcxj/1300000/mnf.m3u8
SiTV东方财经,http://140.207.241.2:8080/live/program/live/dfcj/1300000/mnf.m3u8
小品1,http://tx.liveplay.live.fanxing.com/live/fx_hifi_202319553_avc.m3u8
小品2,http://tx.liveplay.live.fanxing.com/live/fx_hifi_1548332035_avc.m3u8
岭南戲曲,http://szlive.grtn.cn/lnxq/sd/live.m3u8
第1财经FHD,http://183.207.255.188/live/program/live/dycjhd/4000000/mnf.m3u8
上海外语FHD,http://183.207.255.188/live/program/live/wypdhd/4000000/mnf.m3u8
上海法制天地,http://183.207.255.188/live/program/live/fztd/1300000/mnf.m3u8
上海浦东财经,http://183.207.255.188/live/program/live/dfcj/1300000/mnf.m3u8
上海七彩戏曲,http://183.207.255.188/live/program/live/qcxj/1300000/mnf.m3u8
上海生活时尚FHD,http://183.207.255.188/live/program/live/shsshd/4000000/mnf.m3u8
上海纪实FHD,http://183.207.255.188/live/program/live/jspdhd/4000000/mnf.m3u8
北京文艺,http://hsplay-360.v.btime.com/live_btime/btv_sn_20170706_s2/index.m3u8
北京科教,http://hsplay-360.v.btime.com/live_btime/btv_sn_20170706_s3/index.m3u8
北京影视,http://hsplay-360.v.btime.com/live_btime/btv_sn_20170706_s4/index.m3u8
北京财经,http://hsplay-360.v.btime.com/live_btime/btv_sn_20170706_s5/index.m3u8
冬奥纪实,http://hsplay-360.v.btime.com/live_btime/btv_sn_20170706_s6/index.m3u8
北京生活,http://hsplay-360.v.btime.com/live_btime/btv_sn_20170706_s7/index.m3u8
北京青年,http://hsplay-360.v.btime.com/live_btime/btv_sn_20170706_s8/index.m3u8
北京新闻,http://hsplay-360.v.btime.com/live_btime/btv_sn_20170706_s9/index.m3u8
卡酷少儿,http://hsplay-360.v.btime.com/live_btime/btv_sn_20170706_s10/index.m3u8


🔃轮播,#genre#
CHC动作电影,http://v.mp.haue.edu.cn/hls/chcatv.m3u8
CHC动作电影,http://39.134.19.252:6610/yinhe/2/ch00000090990000002055/index.m3u8?virtualDomain=yinhe.live_hls.zte.com
CHC动作电影,http://117.148.179.138/PLTV/88888888/224/3221231580/index.m3u8
CHC高清电影,http://39.134.19.252:6610/yinhe/2/ch00000090990000002065/index.m3u8?virtualDomain=yinhe.live_hls.zte.com
CHC高清电影,http://iptv.tvfix.org/hls/chchd.m3u8
CHC高清电影,http://v.mp.haue.edu.cn/hls/chchd.m3u8
CHC家庭影院,http://39.134.19.252:6610/yinhe/2/ch00000090990000002085/index.m3u8?virtualDomain=yinhe.live_hls.zte.com
CHC家庭影院,http://iptv.tvfix.org/hls/chctv.m3u8
CHC家庭影院,http://v.mp.haue.edu.cn/hls/chctv.m3u8
BesTv影院1,rtsp://183.252.166.199/PLTV/88888888/224/3221226757/45949783.smil
Bestv影院2,rtsp://183.252.166.199/PLTV/88888888/224/3221226816/48629572.smil
Bestv影院3,rtsp://183.252.166.199/PLTV/88888888/224/3221226748/45950069.smil
Bestv影院4,rtsp://183.252.166.199/PLTV/88888888/224/3221226797/47878049.smil
Bestv电视剧1,rtsp://183.252.166.199/PLTV/88888888/224/3221226761/45973212.smil
Bestv电视剧2,rtsp://183.252.166.199/PLTV/88888888/224/3221226022/10000100000000060000000002296864_0.smil
Bestv电视剧3,rtsp://183.252.166.199/PLTV/88888888/224/3221226752/45973624.smil
女神经典,http://hpull.kktv8.com/livekktv/99350550/playlist.m3u8
军旅剧场,http://hpull.kktv8.com/livekktv/143960119/playlist.m3u8
怀旧影院,http://hpull.kktv8.com/livekktv/153793844/playlist.m3u8
亞洲影院,http://117.148.179.141/PLTV/88888888/224/3221231516/index.m3u8
黑莓电影,http://223.110.228.14/ott.js.chinamobile.com/PLTV/3/224/3221227520/index.m3u8
黑莓电影,http://117.148.179.17/PLTV/88888888/224/3221229734/index.m3u8
黑莓电影,http://183.207.249.14/PLTV/3/224/3221225567/index.m3u8
星光影视,http://hpull.kktv8.com/livekktv/128600025/playlist.m3u8
周潤發,http://117.148.179.177/PLTV/88888888/224/3221231709/index.m3u8
周星馳,http://117.148.179.153/PLTV/88888888/224/3221231562/index.m3u8
成龍,http://117.148.179.163/PLTV/88888888/224/3221231687/index.m3u8
張國榮,http://117.148.179.177/PLTV/88888888/224/3221231790/index.m3u8
郭富城,http://117.148.179.152/PLTV/88888888/224/3221231688/index.m3u8
吳京,http://117.148.179.183/PLTV/88888888/224/3221231564/index.m3u8
劉德華,http://117.148.179.154/PLTV/88888888/224/3221231757/index.m3u8
楊冪,http://117.148.179.183/PLTV/88888888/224/3221231556/index.m3u8
劉亦菲,http://117.148.179.165/PLTV/88888888/224/3221231787/index.m3u8
古天樂,http://117.148.179.176/PLTV/88888888/224/3221231645/index.m3u8
金庸頻道,http://117.148.179.132/PLTV/88888888/224/3221231477/index.m3u8
喜劇聯盟,http://117.148.179.154/PLTV/88888888/224/3221231621/index.m3u8
古天樂影院,http://117.148.179.176/PLTV/88888888/224/3221231645/index.m3u8
成龍作品集,http://117.148.179.163/PLTV/88888888/224/3221231687/index.m3u8
郭富城影院,http://117.148.179.152/PLTV/88888888/224/3221231688/index.m3u8
張國榮影院,http://117.148.179.177/PLTV/88888888/224/3221231790/index.m3u8
高分影院,http://117.148.179.182/PLTV/88888888/224/3221231699/index.m3u8
周潤發影院,http://117.148.179.177/PLTV/88888888/224/3221231709/index.m3u8
懷舊老片,http://117.148.179.146/PLTV/88888888/224/3221231513/index.m3u8
周星馳影院,http://117.148.179.153/PLTV/88888888/224/3221231562/index.m3u8
午夜失眠劇場,http://117.148.179.141/PLTV/88888888/224/3221231516/index.m3u8
吳京作品集,http://117.148.179.183/PLTV/88888888/224/3221231564/index.m3u8
雲上電影院,http://117.148.179.176/PLTV/88888888/224/3221231565/index.m3u8
每日科幻電影,http://117.148.179.160/PLTV/88888888/224/3221231568/index.m3u8
劉德華影院,http://117.148.179.154/PLTV/88888888/224/3221231757/index.m3u8
殭屍劇場,http://117.148.179.165/PLTV/88888888/224/3221231742/index.m3u8
劉亦菲影視展播,http://117.148.179.165/PLTV/88888888/224/3221231787/index.m3u8
TVB劇場,http://117.148.179.157/PLTV/88888888/224/3221231733/index.m3u8
金庸頻道,http://117.148.179.132/PLTV/88888888/224/3221231477/index.m3u8
新片放映廳,http://117.148.179.160/PLTV/88888888/224/3221231640/index.m3u8
盜墓,http://117.148.179.164/PLTV/88888888/224/3221231652/index.m3u8
試膽大會,http://117.148.179.166/PLTV/88888888/224/3221231672/index.m3u8
高能燒腦時刻,http://117.148.179.169/PLTV/88888888/224/3221231504/index.m3u8
楊冪作品集,http://117.148.179.183/PLTV/88888888/224/3221231556/index.m3u8
4K劇場,http://117.148.179.161/PLTV/88888888/224/3221231624/index.m3u8
愛情公寓,http://117.148.179.160/PLTV/88888888/224/3221231583/index.m3u8
軍旅劇場,http://117.148.179.145/PLTV/88888888/224/3221231585/index.m3u8
少林劇場,http://117.148.179.160/PLTV/88888888/224/3221231628/index.m3u8
神探狄仁傑,http://117.148.179.139/PLTV/88888888/224/3221231634/index.m3u8
黃金劇場,http://117.148.179.183/PLTV/88888888/224/3221231637/index.m3u8
追劇少女,http://117.148.179.179/PLTV/88888888/224/3221231643/index.m3u8
古龍作品集,http://117.148.179.160/PLTV/88888888/224/3221231657/index.m3u8
經典賀歲片,http://117.148.179.159/PLTV/88888888/224/3221231679/index.m3u8
每日薦影,http://117.148.179.162/PLTV/88888888/224/3221231727/index.m3u8
武俠劇場,http://117.148.179.160/PLTV/88888888/224/3221231763/index.m3u8
新片轮映,http://117.148.179.160/PLTV/88888888/224/3221231640/index.m3u8
黄金剧场,http://112.74.200.9:88/tv000000/m3u8.php?/migu/625155140
军旅剧场,http://112.74.200.9:88/tv000000/m3u8.php?/migu/625643517
抗战老片,http://112.74.200.9:88/tv000000/m3u8.php?/migu/625542372
少林剧场,http://112.74.200.9:88/tv000000/m3u8.php?/migu/625526423
喜剧联盟,http://112.74.200.9:88/tv000000/m3u8.php?/migu/637444830
热剧联播,http://112.74.200.9:88/tv000000/m3u8.php?/migu/629943613
高清大片,http://112.74.200.9:88/tv000000/m3u8.php?/migu/629943678
僵尸剧场,http://112.74.200.9:88/tv000000/m3u8.php?/migu/627033504
深夜失眠剧场,http://112.74.200.9:88/tv000000/m3u8.php?/migu/625759558
红色谍战剧场,http://112.74.200.9:88/tv000000/m3u8.php?/migu/634274665
每日科幻电影,http://112.74.200.9:88/tv000000/m3u8.php?/migu/625204865
追剧少女,http://112.74.200.9:88/tv000000/m3u8.php?/migu/617432318
怀旧老片,http://112.74.200.9:88/tv000000/m3u8.php?/migu/621640582
武侠剧场,http://112.74.200.9:88/tv000000/m3u8.php?/migu/627198822
经典影视速看,http://112.74.200.9:88/tv000000/m3u8.php?/migu/627198751
假期剧场,http://112.74.200.9:88/tv000000/m3u8.php?/migu/627198692
国际剧场,http://112.74.200.9:88/tv000000/m3u8.php?/migu/625542365
经典放映厅,http://112.74.200.9:88/tv000000/m3u8.php?/migu/685902551
高分影院,http://112.74.200.9:88/tv000000/m3u8.php?/migu/627198191
新片放映厅,http://112.74.200.9:88/tv000000/m3u8.php?/migu/619495952
成龙作品集,http://112.74.200.9:88/tv000000/m3u8.php?/migu/707671890
周星驰影院,http://112.74.200.9:88/tv000000/m3u8.php?/migu/623338112
吴京作品集,http://112.74.200.9:88/tv000000/m3u8.php?/migu/625681368
刘德华影院,http://112.74.200.9:88/tv000000/m3u8.php?/migu/659315648
经典贺岁片,http://112.74.200.9:88/tv000000/m3u8.php?/migu/625774662
古天乐影院,http://112.74.200.9:88/tv000000/m3u8.php?/migu/627198610
刘亦菲影视展播,http://112.74.200.9:88/tv000000/m3u8.php?/migu/639528386
金庸频道,http://112.74.200.9:88/tv000000/m3u8.php?/migu/625774640
古龙作品集,http://112.74.200.9:88/tv000000/m3u8.php?/migu/639528313
郭富城影院,http://112.74.200.9:88/tv000000/m3u8.php?/migu/639528330
张国荣影院,http://112.74.200.9:88/tv000000/m3u8.php?/migu/707689526
CUVA频道,http://112.74.200.9:88/tv000000/m3u8.php?/migu/712723873
神探狄仁杰,http://112.74.200.9:88/tv000000/m3u8.php?/migu/625574493
红楼剧场,http://112.74.200.9:88/tv000000/m3u8.php?/migu/625498432
爱情公寓,http://112.74.200.9:88/tv000000/m3u8.php?/migu/625681367
云上电影院,http://112.74.200.9:88/tv000000/m3u8.php?/migu/625703337
盗墓方法论,http://112.74.200.9:88/tv000000/m3u8.php?/migu/625525181
综艺现场,http://112.74.200.9:88/tv000000/m3u8.php?/migu/621640581
萌宠大作战,http://112.74.200.9:88/tv000000/m3u8.php?/migu/639528180
试胆大会,http://112.74.200.9:88/tv000000/m3u8.php?/migu/637483721


🎬电影,#genre#
豆瓣电影,http://epg.112114.xyz/douyu/8770422
1905电影,http://zzy789.xyz/douyu1.php?id=10011042
漫威电影,http://epg.112114.xyz/douyu/4282654
译制电影,http://epg.112114.xyz/douyu/2436390
衛視電影,mitv://ns2.hellotvvod.com:9906/e7682ac33dfd41fc8f028f1652b6117f
東森電影,mitv://ns2.hellotvvod.com:9906/e40a4dbcfc66445a83f8c06d53ac3b53
緯來電影,mitv://ns2.hellotvvod.com:9906/67d49ff2fc594674a3969022f0c55ded
龍祥電影,mitv://ns2.hellotvvod.com:9906/2c5a71766368419ca7a962ce66cf5da3
HBO,mitv://ns2.hellotvvod.com:9906/8e83048c82a8449a93265fa063baa48d
東森洋片,mitv://ns2.hellotvvod.com:9906/ab1aa48cd1a34f488845642592c39418
AXN,mitv://ns2.hellotvvod.com:9906/5c910d743fe847e8b406bf7d180130a0
好萊塢電影,mitv://ns2.hellotvvod.com:9906/fb9f46f4cb454b13a15aac8e025f8477
CINEMAX,mitv://ns2.hellotvvod.com:9906/3d4d75d8f386474d8dbb84c7a3704a7f
緯來育樂,mitv://ns2.hellotvvod.com:9906/ed2847f9731a48e19afc2ba479a73939
HBO Family,mitv://ns2.hellotvvod.com:9906/2230c4128071467e8e995408f20c1c3c
HBO強檔鉅獻,mitv://ns2.hellotvvod.com:9906/670c07900c5c4e49b6df5306bc18bff0
HBO原創鉅獻,mitv://ns2.hellotvvod.com:9906/9b18147e7f454392b7eb1d204235b314
美亞電影,mitv://ns2.hellotvvod.com:9906/1fc034defbb24a569a9bbca8b57fb5fe
龍華電影,mitv://ns2.hellotvvod.com:9906/cda4c0d5e8df4d49bb51fa6b71b5d19b
星衛電影,mitv://ns2.hellotvvod.com:9906/bdb2a4266251451a918d42ec44667801
靖天映畫,mitv://ns2.hellotvvod.com:9906/0a08a213ff34484ebba095598ffed323
靖天電影,mitv://ns2.hellotvvod.com:9906/86533153a6a741d3af531f8efa6054f6
WARNER TV,mitv://ns2.hellotvvod.com:9906/bf10e7821b5744d3aed911a956e6cdfe
Star Movies ,mitv://ns2.hellotvvod.com:9906/b2c5dfbc8b6d4a7280ee39244a7678a8
AMC最愛電影,mitv://ns2.hellotvvod.com:9906/eb5393add687434ca3f3da38ce5ec3bf
Thrill,mitv://ns2.hellotvvod.com:9906/70b676c4e0f9424991012e9bfcddd4e7
CatchPlay電影,mitv://ns2.hellotvvod.com:9906/c4eeae79ede24dd3baf9226ec992dbe4
CinemaWorld,mitv://ns2.hellotvvod.com:9906/e37bdcc69e4f403f9fc52c6817c367f6
壹電視電影,mitv://ns2.hellotvvod.com:9906/4726fe8fb7e748659fac6cf64370a205
采昌影劇,mitv://ns2.hellotvvod.com:9906/fa78b19b455148e3b2b00b5bf648c3fc
爆谷台,mitv://ns2.hellotvvod.com:9906/1d7e379fa2f04936b9d2dce207efb097
鳳凰電影,mitv://ns2.hellotvvod.com:9906/06553799649b45619f5c5ff5467abe0e
HKC電影,mitv://ns2.hellotvvod.com:9906/6d83197a57a94c41848d3945e38a8607
CCTV6,mitv://ns2.hellotvvod.com:9906/fcb1a15023a1447c88064e0e21c1bf4c
天映頻道,mitv://ns2.hellotvvod.com:9906/ec8466ba789143998fb9ed858b7c174e
天映經典,mitv://ns2.hellotvvod.com:9906/4699a8c6571243a4b5387f6b3c639851
BOO,mitv://ns2.hellotvvod.com:9906/fd66b38ae9014f8183ac6b160b94548b
tvN Movies,mitv://ns2.hellotvvod.com:9906/93226f918c0a4231bdff4910da8fa8e1


📚知识,#genre#
国家地理,http://iptv.tvfix.org/hls/natlgeo.m3u8
探索频道,http://iptv.tvfix.org/hls/discovery.m3u8
动物星球,http://iptv.tvfix.org/hls/animal.m3u8
國家地理頻道,mitv://ns2.hellotvvod.com:9906/cbf2e0c0e1ed4e11a564047614cb962d
探索頻道,mitv://ns2.hellotvvod.com:9906/9c0a057219044213ac643c8a8e5d50c0
TLC旅遊生活,mitv://ns2.hellotvvod.com:9906/785e9237d2864f23b3fbf5e72b645812
動物星球,mitv://ns2.hellotvvod.com:9906/8df6a02edb7946eebae8115ab6fd8ec7
ELTV生活英語台,mitv://ns2.hellotvvod.com:9906/fd64478e967b43f79c151425ad75030f
達文西頻道,mitv://ns2.hellotvvod.com:9906/191725f8a02546c1bec1bb92aab127ab
國家地理高畫質野生頻道,mitv://ns2.hellotvvod.com:9906/56543494b4f64682b1cf6a1aa771c34c
BBC Earth,mitv://ns2.hellotvvod.com:9906/555289b9056947f18bb9658c62299697
Discovery Asia,mitv://ns2.hellotvvod.com:9906/8338adb9ba1541929a6106de04cfdec5
Discovery科學頻道,mitv://ns2.hellotvvod.com:9906/29f6899f71c64f5394c865d50ea00911
DMAX,mitv://ns2.hellotvvod.com:9906/f4a3049579cf4a109e2755cff0aae884
EVE,mitv://ns2.hellotvvod.com:9906/1093dacfe6c3404eb67360c75cfb3ce0
HISTORY 2,mitv://ns2.hellotvvod.com:9906/d13e7bea35dd4c01bf258f127a01b393
歷史頻道,mitv://ns2.hellotvvod.com:9906/8282b66d64db4dd884b125ce6a43d7cf
罪案偵緝頻道,mitv://ns2.hellotvvod.com:9906/969d3da0dc624b599160cda58bd5daa2
BBC Lifestyle,mitv://ns2.hellotvvod.com:9906/2dcc681591d640ceb91c09b5eb7cbb83
LUXE TV,mitv://ns2.hellotvvod.com:9906/a6a73818f9aa4fd992d966aac4b49c20
Lifetime,mitv://ns2.hellotvvod.com:9906/698e4db64e93463a814fc462cb15b1f4
KLT-靖天國際台,mitv://ns2.hellotvvod.com:9906/92963da196424063a1f58303dc21da2e
HGTV居家樂活頻道,mitv://ns2.hellotvvod.com:9906/3ae6806990ac44dbbd5a83eea77fef7e
Love Nature,mitv://ns2.hellotvvod.com:9906/5b4aa7c53c974767aad85f24fc19d550
美食星球,mitv://ns2.hellotvvod.com:9906/045aa067f54a4a5bb2f5dc17190417cf
亞洲美食頻道,mitv://ns2.hellotvvod.com:9906/c0c700a32db94ca281b74e44d84b5b66
Food Network,mitv://ns2.hellotvvod.com:9906/9590a6420c3d45649e9d2251f0fcf1d0
亞洲旅遊台,mitv://ns2.hellotvvod.com:9906/b52d03f4997a48b88d4ff3a86d2fa8de
EYE TV旅遊台,mitv://ns2.hellotvvod.com:9906/5512ec54a1254879b4e39f92b63565ab
時尚頻道,mitv://ns2.hellotvvod.com:9906/a6cb54e5bd294cc98064df05ad1b3fc1
CCTV9,mitv://ns2.hellotvvod.com:9906/57cbe284a7a94ccf8621a50752c61a16
Nat Geo Wild,mitv://ns2.hellotvvod.com:9906/3a0602f78e5e4c368fbf0d056436ee5d


🐠斗鱼,#genre#
鬥魚2,http://dyscdnali1.douyucdn.cn/live/122402rK7MO9bXSq.flv?uuid=
鬥魚3,http://dyscdnali1.douyucdn.cn/live/85894rmovieChow.flv?uuid=
鬥魚4,http://dyscdnali1.douyucdn.cn/live/3637765rrt97QwBF.flv?uuid=
鬥魚5,http://dyscdnali1.douyucdn.cn/live/3637726rQLDdfto7.flv?uuid=
鬥魚6,http://dyscdnali1.douyucdn.cn/live/3928r9p0BHMDG.flv?uuid=
鬥魚7,http://dyscdnali1.douyucdn.cn/live/20415rnWbjg6Ex1K.flv?uuid=
鬥魚8,http://dyscdnali1.douyucdn.cn/live/2935323rnTpNsu74.flv?uuid=
鬥魚9,http://dyscdnali1.douyucdn.cn/live/747764rfA3HOpaVl.flv?uuid=
鬥魚10,http://dyscdnali1.douyucdn.cn/live/20415rnWbjg6Ex1K.flv?uuid=
鬥魚11,http://dyscdnali1.douyucdn.cn/live/2935323rnTpNsu74.flv?uuid=
鬥魚12,http://dyscdnali1.douyucdn.cn/live/3928r9p0BHMDG.flv?uuid=
鬥魚13,http://dyscdnali1.douyucdn.cn/live/206858rtesHKjl.flv?uuid=
鬥魚14,http://dyscdnali1.douyucdn.cn/live/85894rmovieChow.flv?uuid=
鬥魚15,http://dyscdnali1.douyucdn.cn/live/122402rK7MO9bXSq.flv?uuid=
鬥魚16,http://dyscdnali1.douyucdn.cn/live/7537296rTdKDixQ0.flv?uuid=
鬥魚17,http://dyscdnali1.douyucdn.cn/live/7459925rLzyH2qb0.flv?uuid=
鬥魚18,http://dyscdnali1.douyucdn.cn/live/6763930rQ0VfA1mV.flv?uuid=
鬥魚19,http://dyscdnali1.douyucdn.cn/live/3980787rVI3fG6Tv.flv?uuid=
鬥魚20,http://dyscdnali1.douyucdn.cn/live/3637778raLSXdOdu.flv?uuid=
鬥魚21,http://dyscdnali1.douyucdn.cn/live/122402rK7MO9bXSq.flv?uuid=
鬥魚22,http://dyscdnali1.douyucdn.cn/live/85894rmovieChow.flv?uuid=
鬥魚23,http://dyscdnali1.douyucdn.cn/live/3637765rrt97QwBF.flv?uuid=
鬥魚24,http://dyscdnali1.douyucdn.cn/live/3637726rQLDdfto7.flv?uuid=
鬥魚25,http://dyscdnali1.douyucdn.cn/live/3928r9p0BHMDG.flv?uuid=
鬥魚26,http://dyscdnali1.douyucdn.cn/live/20415rnWbjg6Ex1K.flv?uuid=
鬥魚27,http://dyscdnali1.douyucdn.cn/live/2935323rnTpNsu74.flv?uuid=


📼咪咕,#genre#
MIGU古天乐影院,http://117.148.179.176/PLTV/88888888/224/3221231645/index.m3u8
MIGU成龙作品集,http://117.148.179.163/PLTV/88888888/224/3221231687/index.m3u8
MIGU郭富城影院,http://117.148.179.152/PLTV/88888888/224/3221231688/index.m3u8
MIGU张国荣影院,http://117.148.179.177/PLTV/88888888/224/3221231790/index.m3u8
MIGU高分影院,http://117.148.179.182/PLTV/88888888/224/3221231699/index.m3u8
MIGU周润发影院,http://117.148.179.177/PLTV/88888888/224/3221231709/index.m3u8
MIGU怀旧老片,http://117.148.179.146/PLTV/88888888/224/3221231513/index.m3u8
MIGU周星驰影院,http://117.148.179.153/PLTV/88888888/224/3221231562/index.m3u8
MIGU午夜失眠剧场,http://117.148.179.141/PLTV/88888888/224/3221231516/index.m3u8
MIGU吴京作品集,http://117.148.179.183/PLTV/88888888/224/3221231564/index.m3u8
MIGU云上电影院,http://117.148.179.176/PLTV/88888888/224/3221231565/index.m3u8
MIGU每日科幻电影,http://117.148.179.160/PLTV/88888888/224/3221231568/index.m3u8
MIGU葛优作品集,http://117.148.179.139/PLTV/88888888/224/3221231754/index.m3u8
MIGU刘德华影院,http://117.148.179.154/PLTV/88888888/224/3221231757/index.m3u8
MIGU僵尸剧场,http://117.148.179.165/PLTV/88888888/224/3221231742/index.m3u8
MIGU刘亦菲影视展播,http://117.148.179.165/PLTV/88888888/224/3221231787/index.m3u8
MIGUTVB剧场,http://117.148.179.157/PLTV/88888888/224/3221231733/index.m3u8
MIGU金庸频道,http://117.148.179.132/PLTV/88888888/224/3221231477/index.m3u8
MIGU新片放映厅,http://117.148.179.160/PLTV/88888888/224/3221231640/index.m3u8
MIGU盗墓方法论,http://117.148.179.164/PLTV/88888888/224/3221231652/index.m3u8
MIGU试胆大会,http://117.148.179.166/PLTV/88888888/224/3221231672/index.m3u8
MIGU高能烧脑时刻,http://117.148.179.169/PLTV/88888888/224/3221231504/index.m3u8
MIGU杨幂作品集,http://117.148.179.183/PLTV/88888888/224/3221231556/index.m3u8
MIGU4K剧场,http://117.148.179.161/PLTV/88888888/224/3221231624/index.m3u8
MIGU爱情公寓,http://117.148.179.160/PLTV/88888888/224/3221231583/index.m3u8
MIGU军旅剧场,http://117.148.179.145/PLTV/88888888/224/3221231585/index.m3u8
MIGUSNH48剧场公演,http://117.148.179.139/PLTV/88888888/224/3221231622/index.m3u8
MIGU红色谍战剧场,http://117.148.179.169/PLTV/88888888/224/3221231627/index.m3u8
MIGU少林剧场,http://117.148.179.160/PLTV/88888888/224/3221231628/index.m3u8
MIGU神探狄仁杰,http://117.148.179.139/PLTV/88888888/224/3221231634/index.m3u8
MIGU黄金剧场,http://117.148.179.183/PLTV/88888888/224/3221231637/index.m3u8
MIGU追剧少女,http://117.148.179.179/PLTV/88888888/224/3221231643/index.m3u8
MIGU古龙作品集,http://117.148.179.160/PLTV/88888888/224/3221231657/index.m3u8
MIGU经典贺岁片,http://117.148.179.159/PLTV/88888888/224/3221231679/index.m3u8
MIGU每日荐影,http://117.148.179.162/PLTV/88888888/224/3221231727/index.m3u8
MIGU武侠剧场,http://117.148.179.160/PLTV/88888888/224/3221231763/index.m3u8


🎏景区 ,#genre#
峨眉山普贤菩萨,http://gcalic.v.myalicdn.com/gc/gccntv241-slf01_1/index.m3u8
宁夏大漠孤烟,http://gcksc.v.kcdnvip.com/gc/tjhh01_1/index.m3u8
映秀新城,http://gcbsc.v.live.baishancdnx.cn/gc/wcyxxc01_1/index.m3u8
福建华安土楼,http://gccncc.v.wscdns.com/gc/syns01_1/index.m3u8
梅州梅江,http://gctxyc.liveplay.myqcloud.com/gc/gllj01_1_md.m3u8
河南二七塔,http://gctxyc.liveplay.myqcloud.com/gc/xysrf_1_md.m3u8
鼓浪屿遥望厦门岛,http://gccncc.v.wscdns.com/gc/xymlh_1/index.m3u8
舟山东极岛,http://gctxyc.liveplay.myqcloud.com/gc/djd01_1_md.m3u8
福建三坊七巷,http://gcksc.v.kcdnvip.com/gc/hhdxg01_1/index.m3u8
武汉两江四岸,https://gcalic.v.myalicdn.com/gc/emspxps_1/index.m3u8?contentid=2820180516001
﻿四川达古冰川,https://gccncc.v.wscdns.com/gc/ztx_1/index.m3u8?contentid=2820180516001
广西崇左白头猴国家级自然保护区,https://gcalic.v.myalicdn.com/gc/ztd_1/index.m3u8?contentid=2820180516001
桂林象鼻山,https://gccncc.v.wscdns.com/gc/ztn_1/index.m3u8?contentid=2820180516001
广州塔和海心桥,https://gcalic.v.myalicdn.com/gc/ztb_1/index.m3u8?contentid=2820180516001
全国风景总览,https://gcalic.v.myalicdn.com/gc/wgw05_1/index.m3u8?contentid=2820180516001
黟县宏村月沼,https://gctxyc.liveplay.myqcloud.com/gc/yxhcyz_1/index.m3u8?contentid=2820180516001
黟县宏村南湖,https://gcalic.v.myalicdn.com/gc/yxhcnh_1/index.m3u8?contentid=2820180516001
黟县西递牌坊,https://gcalic.v.myalicdn.com/gc/yxxdpf_1/index.m3u8?contentid=2820180516001
黟县西递半山亭,https://gcalic.v.myalicdn.com/gc/yxxdbst_1/index.m3u8?contentid=2820180516001
黟县卢村远眺,https://gccncc.v.wscdns.com/gc/yxlcyt_1/index.m3u8?contentid=2820180516001
九寨沟,https://gctxyc.liveplay.myqcloud.com/gc/wygjt1_1/index.m3u8?contentid=2820180516001
南昌滕王阁,https://gccncc.v.wscdns.com/gc/wygjt2_1/index.m3u8?contentid=2820180516001
黄山始信峰,https://gctxyc.liveplay.myqcloud.com/gc/hssxf_1/index.m3u8?contentid=2820180516001
黄山卧云峰,https://gcalic.v.myalicdn.com/gc/hswlf_1/index.m3u8?contentid=2820180516001
黄山梦笔生花,https://gccncc.v.wscdns.com/gc/hsmbsh_1/index.m3u8?contentid=2820180516001
黄山排云亭,https://gcalic.v.myalicdn.com/gc/hspyt_1/index.m3u8?contentid=2820180516001
黄山西海峡谷,https://gcalic.v.myalicdn.com/gc/hsxhdxg_1/index.m3u8?contentid=2820180516001
黄山光明顶,https://gccncc.v.wscdns.com/gc/hsgmd_1/index.m3u8?contentid=2820180516001
黄山信兴道,https://gccncc.v.wscdns.com/gc/hsyg_1/index.m3u8?contentid=2820180516001
黄山平天矼,https://gcalic.v.myalicdn.com/gc/hsptgz_1/index.m3u8?contentid=2820180516001
黄山飞来石,https://gccncc.v.wscdns.com/gc/hsptgy_1/index.m3u8?contentid=2820180516001
云台山红石硖,https://gcalic.v.myalicdn.com/gc/ytshsx_1/index.m3u8?contentid=2820180516001
泰山黄岘岭,https://gctxyc.liveplay.myqcloud.com/gc/taishan01_1/index.m3u8?contentid=2820180516001
泰山望人松,https://gcalic.v.myalicdn.com/gc/taishan02_1/index.m3u8?contentid=2820180516001
泰山大观峰,https://gctxyc.liveplay.myqcloud.com/gc/taishan03_1/index.m3u8?contentid=2820180516001
泰山拱北石,https://gcalic.v.myalicdn.com/gc/taishan04_1/index.m3u8?contentid=2820180516001
济南千佛山望泉城,https://gcalic.v.myalicdn.com/gc/taishan05_1/index.m3u8?contentid=2820180516001
泰山玉皇顶,https://gcalic.v.myalicdn.com/gc/taishan06_1/index.m3u8?contentid=2820180516001
泰山天街,https://gccncc.v.wscdns.com/gc/taishan07_1/index.m3u8?contentid=2820180516001
淳安界首渔港码头,https://gccncc.v.wscdns.com/gc/ytsxzg_1/index.m3u8?contentid=2820180516001
新疆红山,https://gccncc.v.wscdns.com/gc/ytsbjy_1/index.m3u8?contentid=2820180516001
远眺万佛顶,https://gcalic.v.myalicdn.com/gc/emswfs_1/index.m3u8?contentid=2820180516001
武夷山玉女峰,https://gcalic.v.myalicdn.com/gc/wysynf_1/index.m3u8?contentid=2820180516001
印象大红袍,https://gctxyc.liveplay.myqcloud.com/gc/wysyxdhp_1/index.m3u8?contentid=2820180516001
无锡惠山二茅峰望锡城,https://gctxyc.liveplay.myqcloud.com/gc/wysdhpcy_1/index.m3u8?contentid=2820180516001
张家界迷魂台,https://gccncc.v.wscdns.com/gc/zjjmht_1/index.m3u8?contentid=2820180516001
张家界水绕4门,https://gccncc.v.wscdns.com/gc/zjjsrsm_1/index.m3u8?contentid=2820180516001
张家界将军列队,https://gctxyc.liveplay.myqcloud.com/gc/zjjjjdl_1/index.m3u8?contentid=2820180516001
张家界阿凡达悬浮山,https://gcalic.v.myalicdn.com/gc/zjjafdxfs_1/index.m3u8?contentid=2820180516001
凤凰古城,https://gccncc.v.wscdns.com/gc/fhgcdgm_1/index.m3u8?contentid=2820180516001
凤凰古城南华山,https://gccncc.v.wscdns.com/gc/fhgcdnhs_1/index.m3u8?contentid=2820180516001
卢村远眺,https://gccncc.v.wscdns.com/gc/yxlcyt_1/index.m3u8?contentid=2820180516001
宠村月沼,https://gccncc.v.wscdns.com/gc/yxhcyz_1/index.m3u8?contentid=282018051600
重庆开州城区,https://gccncc.v.wscdns.com/gc/zsslsgc_1/index.m3u8?contentid=2820180516001
黄花城水长城1,https://gcalic.v.myalicdn.com/gc/wgw01_1/index.m3u8?contentid=2820180516001
黄花城水长城2,https://gcalic.v.myalicdn.com/gc/wgw02_1/index.m3u8?contentid=2820180516001
黄花城水长城3,https://gccncc.v.wscdns.com/gc/wgw03_1/index.m3u8?contentid=2820180516001
黄花城水长城4,https://gccncc.v.wscdns.com/gc/wgw04_1/index.m3u8?contentid=2820180516001
天津滨海新区,https://gccncc.v.wscdns.com/gc/ljgcszsnkgc_1/index.m3u8?contentid=2820180516001
天津滨海新区2,https://gcalic.v.myalicdn.com/gc/ljgcwglytylxs_1/index.m3u8?contentid=2820180516001
吉安井冈山红旗广场,https://gcalic.v.myalicdn.com/gc/ljgcdyhxgjt_1/index.m3u8?contentid=2820180516001
峨眉云海日出,https://gctxyc.liveplay.myqcloud.com/gc/emsarm_1/index.m3u8?contentid=2820180516001
贡嘎雪山,https://gctxyc.liveplay.myqcloud.com/gc/emsyh_1/index.m3u8?contentid=2820180516001
远眺万佛顶,https://gcalic.v.myalicdn.com/gc/emswfs_1/index.m3u8?contentid=2820180516001
太原长风商务区,https://gccncc.v.wscdns.com/gc/lsdfgfl_1/index.m3u8?contentid=2820180516001
悬空寺全景,https://gcalic.v.myalicdn.com/gc/hsxksqj_1/index.m3u8?contentid=2820180516001
张家界玻璃桥,https://gcalic.v.myalicdn.com/gc/hsxkssqdzrqj_1/index.m3u8?contentid=2820180516001
车八岭国家自然保护区,https://gcalic.v.myalicdn.com/gc/hsxkscj_1/index.m3u8?contentid=2820180516001
伊犁巩留县蝶湖公园,https://gctxyc.liveplay.myqcloud.com/gc/tyhjtynl_1/index.m3u8?contentid=2820180516001
重庆洪崖洞,https://gctxyc.liveplay.myqcloud.com/gc/tyhjtys_1/index.m3u8?contentid=2820180516001
南天一柱,https://gctxyc.liveplay.myqcloud.com/gc/tyhjntyz_1/index.m3u8?contentid=2820180516001
宁夏上滩村,https://gccncc.v.wscdns.com/gc/tyhjrys_1/index.m3u8?contentid=2820180516001
雪乡大石碑,https://gcalic.v.myalicdn.com/gc/mdjxxdsb_1/index.m3u8?contentid=2820180516001
雪乡梦幻家园,https://gctxyc.liveplay.myqcloud.com/gc/mdjxxmhjyxj_1/index.m3u8?contentid=2820180516001
观景台,https://gccncc.v.wscdns.com/gc/mdjxxmhjygjt_1/index.m3u8?contentid=2820180516001
江西武功山云顶,https://gctxyc.liveplay.myqcloud.com/gc/jyg04_1/index.m3u8?contentid=2820180516001
嵌雪楼,https://gccncc.v.wscdns.com/gc/ljgcdsc_1/index.m3u8?contentid=2820180516001
﻿丹霞山丹梯铁锁,http://gctxyc.liveplay.myqcloud.com/gc/dxsdtts_1_md.m3u8
韶音亭,http://gctxyc.liveplay.myqcloud.com/gc/dxssyt_1_md.m3u8
坝达景点观景台,http://gccncc.v.wscdns.com/gc/hnttbdjd_1/index.m3u8
多依树景点,http://gcksc.v.kcdnvip.com/gc/hnttdysjd_1/index.m3u8
普高老寨,http://gctxyc.liveplay.myqcloud.com/gc/hnttpgsz_1_md.m3u8
老虎嘴,http://gccncc.v.wscdns.com/gc/hnttlhzjd_1/index.m3u8
山涧栈道,http://gcbsc.v.live.baishancdnx.cn/gc/lhssjzd_1/index.m3u8
七曲山风景区,http://gcbsc.v.live.baishancdnx.cn/gc/wysyxdhp_1/index.m3u8
山西省宋家沟村,http://gcalic.v.myalicdn.com/gc/wysdhpcy_1/index.m3u8
武夷山玉女峰,http://gcalic.v.myalicdn.com/gc/wysynf_1/index.m3u8
华山,http://gccncc.v.wscdns.com/gc/hkhs01_1/index.m3u8
甘坑客家小镇,http://gcksc.v.kcdnvip.com/gc/szgk01_1/index.m3u
十八洞村,http://gcksc.v.kcdnvip.com/gc/sbd01_1/index.m3u8
桂林象山公园,http://gcksc.v.kcdnvip.com/gc/glxs01_1/index.m3u8
鼋头渚赏樱阁,http://gccncc.v.wscdns.com/gc/pshdxg01_1/index.m3u8
峡谷石林,http://gcalic.v.myalicdn.com/gc/pshdxg02_1/index.m3u8
内蒙古云计算信息园,http://gcksc.v.kcdnvip.com/gc/tyhjntyz_1/index.m3u8
宁夏回族上滩村,http://gctxyc.liveplay.myqcloud.com/gc/tyhjrys_1_md.m3u8
甘肃火星1号基地,http://gcksc.v.kcdnvip.com/gc/hgsylztpb_1/index.m3u8
六角亭瀑布,http://gcalic.v.myalicdn.com/gc/hgsspzxdpb_1/index.m3u8
深圳世界之窗,http://gcalic.v.myalicdn.com/gc/sjzc01_1/index.m3u8
远眺贡嘎雪山,http://gcalic.v.myalicdn.com/gc/emsyh_1/index.m3u8
普贤菩萨铜像,http://gcalic.v.myalicdn.com/gc/emspxps_1/index.m3u8
远眺万佛顶,http://gcalic.v.myalicdn.com/gc/emswfs_1/index.m3u8
凤凰古城东关门,http://gcksc.v.kcdnvip.com/gc/fhgcdgm_1/index.m3u8
凤凰古城南华山,http://gctxyc.liveplay.myqcloud.com/gc/fhgcdnhs_1_md.m3u8
芦村远眺,http://gcalic.v.myalicdn.com/gc/yxlcyt_1/index.m3u8
西递半山亭,http://gcalic.v.myalicdn.com/gc/yxxdbst_1/index.m3u8
西递牌坊,http://gcbsc.v.live.baishancdnx.cn/gc/yxxdpf_1/index.m3u8
宏村月沼,http://gcbsc.v.live.baishancdnx.cn/gc/yxhcyz_1/index.m3u8
云台山-小寨沟,http://gctxyc.liveplay.myqcloud.com/gc/ytsxzg_1_md.m3u8
云台山-百家岩,http://gccncc.v.wscdns.com/gc/ytsbjy_1/index.m3u8
云台山-红石峡,http://gcalic.v.myalicdn.com/gc/ytshsx_1/index.m3u8
福建宁德太姥山景区,http://gcksc.v.kcdnvip.com/gc/tms01_1/index.m3u8
崇圣寺三塔中景,http://gcksc.v.kcdnvip.com/gc/dlst03_1/index.m3u8
崇圣寺三塔湖面,http://gcalic.v.myalicdn.com/gc/dlst02_1/index.m3u8
崇圣寺三塔远景,http://gcbsc.v.live.baishancdnx.cn/gc/dlst01_1/index.m3u8
西汉南越王博物馆,http://gctxyc.liveplay.myqcloud.com/gc/nywbwg01_1_md.m3u8
醉美沙滩翡翠湾,http://gcksc.v.kcdnvip.com/gc/fcw03_1/index.m3u8
漳州六鳌翡翠湾,http://gcalic.v.myalicdn.com/gc/fcw01_1/index.m3u8
云龙山观景台西,http://gcalic.v.myalicdn.com/gc/ylh04_1/index.m3u8
云龙山观景台南,http://gctxyc.liveplay.myqcloud.com/gc/ylh03_1_md.m3u8
趵突泉,http://gcksc.v.kcdnvip.com/gc/btq01_1/index.m3u8
厦门鼓浪屿,http://gctxyc.liveplay.myqcloud.com/gc/gly01_1_md.m3u8
玉液湖,http://gcksc.v.kcdnvip.com/gc/hkylxs02_1/index.m3u8
蓝月谷,http://gccncc.v.wscdns.com/gc/ylxs12_1/index.m3u8
印象实景,http://gccncc.v.wscdns.com/gc/hkylxs01_1/index.m3u8
千岛湖,http://gctxyc.liveplay.myqcloud.com/gc/caqdh_1_md.m3u8
黟县·西递牌坊,http://gcalic.v.myalicdn.com/gc/yxxdpf_1/index.m3u8
乌镇·西市河,http://gcalic.v.myalicdn.com/gc/zjwzbblh_1/index.m3u8
蓝印花布,http://gctxyc.liveplay.myqcloud.com/gc/zjwzlyhb_1_md.m3u8
龙形田,http://gcalic.v.myalicdn.com/gc/zjwzlxt_1/index.m3u8
乌镇全景,http://gcalic.v.myalicdn.com/gc/zjwzblt_1/index.m3u8
鸣沙山山门,http://gcalic.v.myalicdn.com/gc/dhyyqyyq_1/index.m3u8
鸣沙山,http://gcksc.v.kcdnvip.com/gc/dhyyqst_1/index.m3u8
鸣沙山月牙泉,http://gcalic.v.myalicdn.com/gc/dhyyqsm_1/index.m3u8
哈尼梯田,http://gcalic.v.myalicdn.com/gc/hnttpgsz_1/index.m3u8
青海湖,http://gcalic.v.myalicdn.com/gc/qhh_1/index.m3u8
八达岭长城南七楼,http://gcalic.v.myalicdn.com/gc/bgws7_1/index.m3u8
八达岭长城北十楼,http://gccncc.v.wscdns.com/gc/bgwn10_1/index.m3u8
嘉峪关关城,http://gcalic.v.myalicdn.com/gc/jyg04_1/index.m3u8
四姑娘山幺妹峰,http://gcbsc.v.live.baishancdnx.cn/gc/sgns01_1/index.m3u8
隆珠措,http://gctxyc.liveplay.myqcloud.com/gc/sgns02_1_md.m3u8
九华山拜经台,http://gccncc.v.wscdns.com/gc/jhs02_1/index.m3u8
九华山,http://gctxyc.liveplay.myqcloud.com/gc/jhs05_1_md.m3u8
九华山花台,http://gccncc.v.wscdns.com/gc/jhs01_1/index.m3u8
天界山-玻璃栈道,http://gcalic.v.myalicdn.com/gc/blg03_1/index.m3u8
天界山-桃花湾瀑布,http://gccncc.v.wscdns.com/gc/blg05_1/index.m3u8
天山-定海神针,http://gctxyc.liveplay.myqcloud.com/gc/xjtcdhsz_1_md.m3u8
天山-海西平台,http://gctxyc.liveplay.myqcloud.com/gc/xjtchxpt_1_md.m3u8
天山-马牙山,http://gctxyc.liveplay.myqcloud.com/gc/xjtcmys_1_md.m3u8
天山-灯杆山,http://gctxyc.liveplay.myqcloud.com/gc/xjtcdgs_1_md.m3u8
西线玻璃栈道,http://gccncc.v.wscdns.com/gc/tms05_1/index.m3u8
天门洞,http://gcalic.v.myalicdn.com/gc/tmstmd01_1/index.m3u8
天空步道,http://gcalic.v.myalicdn.com/gc/tms02_1/index.m3u8
云梦仙顶,http://gctxyc.liveplay.myqcloud.com/gc/tms04_1_md.m3u8
大容山莲花山顶,http://gctxyc.liveplay.myqcloud.com/gc/drs01_1_md.m3u8
南京玄武湖公园,http://gcksc.v.kcdnvip.com/gc/xwh01_1/index.m3u8
江苏南京牛首山,http://gctxyc.liveplay.myqcloud.com/gc/nss01_1_md.m3u8
郑东新区千玺广场,http://gctxyc.liveplay.myqcloud.com/gc/zdxq01_1_md.m3u8
湖南岳阳楼,http://gcalic.v.myalicdn.com/gc/pts01_1/index.m3u8
西藏米林拉林铁路,http://gctxyc.liveplay.myqcloud.com/gc/zyqcdx01_1_md.m3u8
四川凉山邛海景区,http://gctxyc.liveplay.myqcloud.com/gc/xcqh01_1_md.m3u8
贵阳甲秀楼,http://gccncc.v.wscdns.com/gc/nxsptdmgychlr_1/index.m3u8
宁夏黄河漂流,http://gctxyc.liveplay.myqcloud.com/gc/nxspthhpl_1_md.m3u8
江苏聚龙湖,http://gctxyc.liveplay.myqcloud.com/gc/nxsptdmgy_1_md.m3u8
大研花巷观景,http://gcbsc.v.live.baishancdnx.cn/gc/ljgcdyhxgjt_1/index.m3u8
内蒙古额济纳胡杨林,http://gcksc.v.kcdnvip.com/gc/ljgcdsc_1/index.m3u8
天津滨海新区,http://gccncc.v.wscdns.com/gc/ljgcwglytylxs_1/index.m3u8
五彩池,http://gccncc.v.wscdns.com/gc/hlwcc_1/index.m3u8
黄龙·争艳彩池,http://gcalic.v.myalicdn.com/gc/hlzycc_1/index.m3u8
黄龙望乡台,http://gcksc.v.kcdnvip.com/gc/hlwxt_1/index.m3u8
黄龙洗身洞,http://gcalic.v.myalicdn.com/gc/hlxsd_1/index.m3u8


📻电台,#genre#
500首华语经典,http://ls.qingting.fm/live/3412131.m3u8?bitrate=64
CRI 环球资讯广播 FM90.5,http://sk.cri.cn/905.m3u8
CRI 环球资讯广播 FM90.5,http://live.xmcdn.com/live/1040/64.m3u8
CRI 环球资讯广播 FM90.5,http://ls.qingting.fm/live/24035.m3u8
CRI 中文环球广播,http://sk.cri.cn/hyhq.m3u8
CRI 中文环球广播,http://live.xmcdn.com/live/1043/64.m3u8
CRI 中文环球广播,http://ls.qingting.fm/live/4995.m3u8
CRI 南海之声,http://sk.cri.cn/nhzs.m3u8
CRI 南海之声,http://live.xmcdn.com/live/1054/64.m3u8
CRI 南海之声,http://ls.qingting.fm/live/62624.m3u8
CRI Hit FM FM88.7,http://sk.cri.cn/887.m3u8
CRI Hit FM FM88.7,http://live.xmcdn.com/live/75/64.m3u8
CRI Hit FM FM88.7,http://ls.qingting.fm/live/1007.m3u8
CRI 轻松调频 FM91.5,http://sk.cri.cn/915.m3u8
CRI 轻松调频 FM91.5,http://live.xmcdn.com/live/1042/64.m3u8
CRI 轻松调频 FM91.5,http://ls.qingting.fm/live/1006.m3u8
CRI Easy FM – FM91.5,http://sk.cri.cn/915.m3u8
CRI NEWS Plus AM846,http://sk.cri.cn/am846.m3u8
CRI NEWS Plus AM846,http://ls.qingting.fm/live/4584.m3u8
CRI NEWS Plus AM1008,http://sk.cri.cn/am1008.m3u8
CRI NEWS Plus AM1008,http://ls.qingting.fm/live/4584.m3u8
CRI Sydney,http://ls.qingting.fm/live/4584.m3u8
CNR 经济之声,http://live.xmcdn.com/live/1066/64.m3u8
CNR 经济之声,http://ls.qingting.fm/live/387.m3u8
CNR 经济之声,http://ngcdn002.cnr.cn/live/jjzs/index.m3u8
CNR 中国之声,http://live.xmcdn.com/live/1065/64.m3u8
CNR 中国之声,http://ls.qingting.fm/live/386.m3u8
CNR 中国之声,http://ngcdn001.cnr.cn/live/zgzs/index.m3u8
CNR 音乐之声,http://live.xmcdn.com/live/12/64.m3u8
CNR 音乐之声,http://ls.qingting.fm/live/388.m3u8
CNR 音乐之声,http://ngcdn003.cnr.cn/live/yyzs/index.m3u8
CNR 经典音乐广播 101.8,http://live.xmcdn.com/live/13/64.m3u8
CNR 经典音乐广播 101.8,http://ls.qingting.fm/live/389.m3u8
CNR 经典音乐广播 101.8,http://ngcdn004.cnr.cn/live/dszs/index.m3u8
CNR 中华之声,http://live.xmcdn.com/live/14/64.m3u8
CNR 中华之声,http://ls.qingting.fm/live/390.m3u8
CNR 中华之声,http://ngcdn005.cnr.cn/live/zhzs/index.m3u8
CNR 神州之声,http://live.xmcdn.com/live/15/64.m3u8
CNR 神州之声,http://ls.qingting.fm/live/391.m3u8
CNR 神州之声,http://ngcdn006.cnr.cn/live/szzs/index.m3u8
CNR 华夏之声,http://live.xmcdn.com/live/16/64.m3u8
CNR 华夏之声,http://ls.qingting.fm/live/392.m3u8
CNR 华夏之声,http://ngcdn007.cnr.cn/live/hxzs/index.m3u8
CNR 香港之声,http://live.xmcdn.com/live/44/64.m3u8
CNR 香港之声,http://ls.qingting.fm/live/4986.m3u8
CNR 香港之声,http://ngcdn008.cnr.cn/live/xgzs/index.m3u8
CNR 民族之声,http://live.xmcdn.com/live/17/64.m3u8
CNR 民族之声,http://ls.qingting.fm/live/394.m3u8
CNR 民族之声,http://ngcdn009.cnr.cn/live/mzzs/index.m3u8
CNR 文艺之声,http://live.xmcdn.com/live/38/64.m3u8
CNR 文艺之声,http://ls.qingting.fm/live/395.m3u8
CNR 文艺之声,http://ngcdn010.cnr.cn/live/wyzs/index.m3u8
CNR 老年之声,http://live.xmcdn.com/live/39/64.m3u8
CNR 老年之声,http://ls.qingting.fm/live/396.m3u8
CNR 老年之声,http://ngcdn011.cnr.cn/live/lnzs/index.m3u8
CNR 中国乡村之声,http://ngcdn017.cnr.cn/live/xczs48/index.m3u8
CNR 中国乡村之声,http://live.xmcdn.com/live/46/64.m3u8
CNR 中国乡村之声,http://ls.qingting.fm/live/5039.m3u8
CNR 中国乡村之声,http://ngcdn017.cnr.cn/live/xczs/index.m3u8
CNR 哈语广播,http://live.xmcdn.com/live/1396/64.m3u8
CNR 哈语广播,http://ngcdn025.cnr.cn/live/hygb/index.m3u8
CNR 藏语广播,http://ls.qingting.fm/live/4988.m3u8
CNR 藏语广播,http://ngcdn012.cnr.cn/live/zygb/index.m3u8
CNR 维语广播,http://live.xmcdn.com/live/40/64.m3u8
CNR 维语广播,http://ls.qingting.fm/live/4988.m3u8
CNR 维语广播,http://ngcdn013.cnr.cn/live/wygb/index.m3u8
CNR 娱乐广播,http://live.xmcdn.com/live/42/64.m3u8
CNR 娱乐广播,http://ls.qingting.fm/live/398.m3u8
CNR 娱乐广播,http://ngcdn014.cnr.cn/live/ylgb/index.m3u8
CNR 中国交通广播,http://live.xmcdn.com/live/45/64.m3u8
CNR 中国交通广播,http://ls.qingting.fm/live/4985.m3u8
CNR 中国交通广播,http://ngcdn016.cnr.cn/live/gsgljtgb/index.m3u8


💯NewTV,#genre#
古装剧场,http://39.135.34.150:8080/000000001000/6859053933687922163/1.m3u8?I
动作电影,http://39.135.34.150:8080/000000001000/8103864434730665389/1.m3u8?I
军旅剧场,http://39.135.34.150:8080/000000001000/7485075951068666323/1.m3u8?I
家庭剧场,http://39.135.34.150:8080/000000001000/6316377948248689070/1.m3u8?I
惊梀悬疑,http://39.135.34.150:8080/000000001000/7151256057701199617/1.m3u8?I
海外综合,http://39.135.34.150:8080/000000001000/7681593242002292003/1.m3u8?I
黑莓电影,http://39.135.34.150:8080/000000001000/8785669936177902664/1.m3u8?I
黑莓动画,http://39.135.34.150:8080/000000001000/6497762188035533951/1.m3u8?I
明星大片,http://39.135.34.150:8080/000000001000/5595720619887440144/1.m3u8?I
爱情喜剧,http://39.135.34.150:8080/000000001000/8393829412396288037/1.m3u8?I
精品大剧,http://39.135.34.150:8080/000000001000/7882297361445410858/1.m3u8?I
中国功夫,http://39.135.34.150:8080/000000001000/5897056882324761054/1.m3u8?I
金牌综艺,http://39.135.34.150:8080/000000001000/6399725674632152632/1.m3u8?I
军事评论,http://39.135.34.150:8080/000000001000/5822616274253344775/1.m3u8?I
农业致富,http://39.135.34.150:8080/000000001000/6193684637634073625/1.m3u8?I
精品记录,http://39.135.34.150:8080/000000001000/6298506997017621594/1.m3u8?I
怡伴健康,http://39.135.34.150:8080/000000001000/7820874641606664941/1.m3u8?I
武搏世界,http://39.135.34.150:8080/000000001000/bokesen/1.m3u8?I
精品体育,http://39.135.34.150:8080/000000001000/6460382139625130259/1.m3u8?I
潮妈辣婆,http://39.135.34.150:8080/000000001000/6516734029835465177/1.m3u8?I
炫舞未来,http://39.135.34.150:8080/000000001000/1000000001000000515/1.m3u8?I
